%!PS-Adobe-3.0 EPSF-3.0
%%Creator: GIMP PostScript file plugin V 1.17 by Peter Kirchgessner
%%Title: E2a_Est44_128-064_T1.eps
%%CreationDate: Tue Jul 30 14:25:32 2013
%%DocumentData: Clean7Bit
%%LanguageLevel: 2
%%Pages: 1
%%BoundingBox: 14 14 112 112
%%EndComments
%%BeginProlog
% Use own dictionary to avoid conflicts
10 dict begin
%%EndProlog
%%Page: 1 1
% Translate for offset
14.173228346456694 14.173228346456694 translate
% Translate to begin of first scanline
0 97.424807047633905 translate
96.944881889763792 -97.424807047633905 scale
% Image geometry
202 203 8
% Transformation matrix
[ 202 0 0 203 0 0 ]
% Strings to hold RGB-samples per scanline
/rstr 202 string def
/gstr 202 string def
/bstr 202 string def
{currentfile /ASCII85Decode filter /RunLengthDecode filter rstr readstring pop}
{currentfile /ASCII85Decode filter /RunLengthDecode filter gstr readstring pop}
{currentfile /ASCII85Decode filter /RunLengthDecode filter bstr readstring pop}
true 3
%%BeginData:        11272 ASCII Bytes
colorimage
!<;`mJcEXfJ,~>
!<;`mJcEXfJ,~>
!<;`mJcEXfJ,~>
kl?;7ci8L~>
kl?;7ci8L~>
kl?;7ci8L~>
rrDfnmJqh<f)L7~>
rrDfnmJqh<f)L7~>
rrDfnmJqh<f)L7~>
rrDBboDjIBh#Dm~>
rrDBboDjIBh#Dm~>
rrDBboDjIBh#Dm~>
rrD-[p&K[DiW"E~>
rrD-[p&K[DiW"E~>
rrD-[p&K[DiW"E~>
rrCpUpAfdEk5Tr~>
rrCpUpAfdEk5Tr~>
rrCpUpAfdEk5Tr~>
rrCaPp],mFlMlA~>
rrCaPp],mFlMlA~>
rrCaPp],mFlMlA~>
rrCRKq>c*HmJh\~>
rrCRKq>c*HmJh\~>
rrCRKq>c*HmJh\~>
rrCFGq>c*Hnc++~>
rrCFGq>c*Hnc++~>
rrCFGq>c*Hnc++~>
rrC=Dq>c*Ho`'F~>
rrC=Dq>c*Ho`'F~>
rrC=Dq>c*Ho`'F~>
rrC1@qZ)3Ip]#a~>
rrC1@qZ)3Ip]#a~>
rrC1@qZ)3Ip]#a~>
rrC(=qZ)3IqYu'~>
rrC(=qZ)3IqYu'~>
rrC(=qZ)3IqYu'~>
rrBt:qZ)3IrVqB~>
rrBt:qZ)3IrVqB~>
rrBt:qZ)3IrVqB~>
rrBk7qZ)3I!<7Q~>
rrBk7qZ)3I!<7Q~>
rrBk7qZ)3I!<7Q~>
rrBb4quD?KJ,~>
rrBb4quD?KJ,~>
rrBb4quD?KJ,~>
rrBY1quDHNJ,~>
rrBY1quDHNJ,~>
rrBY1quDHNJ,~>
rrBS/quDNPJ,~>
rrBS/quDNPJ,~>
rrBS/quDNPJ,~>
rrBJ,r;_]SJ,~>
rrBJ,r;_]SJ,~>
rrBJ,r;_]SJ,~>
rrBD*r;_cUJ,~>
rrBD*r;_cUJ,~>
rrBD*r;_cUJ,~>
rrB>(quDcWJ,~>
rrB>(quDcWJ,~>
rrB>(quDcWJ,~>
rrB8&quDiYJ,~>
rrB8&quDiYJ,~>
rrB8&quDiYJ,~>
rrB/#r;`#\J,~>
rrB/#r;`#\J,~>
rrB/#r;`#\J,~>
rrB)!r;`)^J,~>
rrB)!r;`)^J,~>
rrB)!r;`)^J,~>
rrB"tr;`/`J,~>
rrB"tr;`/`J,~>
rrB"tr;`/`J,~>
rrAqrrW&;bJ,~>
rrAqrrW&;bJ,~>
rrAqrrW&;bJ,~>
rrAkprW&AdJ,~>
rrAkprW&AdJ,~>
rrAkprW&AdJ,~>
rrAhor;`>eJ,~>
rrB;'rr<-#!!)ipr;`>eJ,~>
rrAhor;`>eJ,~>
rrAbmr;`DgJ,~>
rrB;'q>g?kr;`DgJ,~>
rrAbmr;`DgJ,~>
rrA\krW&PiJ,~>
rrB>(pAk$hrW&PiJ,~>
rrA\krW&PiJ,~>
rrAVirW&VkJ,~>
rrB>(p&Opgr;`MjJ,~>
rrAVirW&VkJ,~>
rrAShr;`SlJ,~>
rrBA)p&OmfqZ*AjJ,~>
rrAShr;`SlJ,~>
rrAMfrW&_nJ,~>
rrBA)oDnafq>d;jJ,~>
rrAMfrW&_nJ,~>
rrAGdrW&epJ,~>
rrBD*nGrIdq#I8kJ,~>
rrAGdrW&epJ,~>
rrADcrW&hqJ,~>
rrBD*nGrIdp].2kJ,~>
rrADcrW&hqJ,~>
rrA>arW&nsJ,~>
rrBG+n,WCdo`1rjJ,~>
rrA>arW&nsJ,~>
rrA;`rW&qtJ,~>
rrBG+mK!7dp](<orW&qtJ,~>
rrA;`rW&qtJ,~>
rrA5^rW'#!J,~>
rrBJ,mK!7do`,!lrW'#!J,~>
rrA5^rW'#!J,~>
rrA2]rW'&"J,~>
rrBJ,mK!1bp&G*mrW'&"J,~>
rrA2]rW'&"J,~>
rrA,[rW',$J,~>
rrBM-m/[(ao`5$lrW',$J,~>
rrA,[rW',$J,~>
rrA)ZrW'/%J,~>
rrBG+mK!7do`4sjrW'/%J,~>
rrA)ZrW'/%J,~>
rrA#XrrB;'J,~>
rrBG+mK!:enc8XgrrB;'J,~>
rrA#XrrB;'J,~>
rr@uWrW'8(J,~>
rrBG+m/[.coDnghrW'8(J,~>
rr@uWrW'8(J,~>
rr@rVrW';)J,~>
rrBJ,li@%boDndgrW';)J,~>
rr@rVrW';)J,~>
rr@lTrrBG+J,~>
rrBJ,m/[.cnc8OdrrBG+J,~>
rr@lTrrBG+J,~>
rr@iSrrBJ,J,~>
rrBG+mK!7do)SRcrrBJ,J,~>
rr@iSrrBJ,J,~>
rr@fRrW'G-J,~>
rrBG+li@(co)SRcrW'G-J,~>
rr@fRrW'G-J,~>
rr@cQrW'J.J,~>
rrBG+m/[.cnGrCbrW'J.J,~>
rr@cQrW'J.J,~>
rr@]OrrBV0J,~>
rrBJ,li@%bn,W7`rrBV0J,~>
rr@]OrrBV0J,~>
rr@ZNrrBY1J,~>
rrBJ,m/[.cmf<+^rrBY1J,~>
rr@ZNrrBY1J,~>
rr@WMrrB\2J,~>
rrBJ,m/[(anGr:_rrB\2J,~>
rr@WMrrB\2J,~>
rr@WM!<<#u^&NT~>
rrBG+m/[.cmf<(]rW'Y3J,~>
rr@WM!<<#u^&NT~>
rr@WMs8W&u^Ai]~>
rrBJ,li@%bmf<%\rW'\4J,~>
rr@WMs8W&u^Ai]~>
rr@WMrVult^]/f~>
rrBJ,m/[+bn,W%ZrrBh6J,~>
rr@WMrVult^]/f~>
rr@WMr;Zcs_#Jo~>
rrBM-li?t`nGr+ZrrBk7J,~>
rr@WMr;Zcs_#Jo~>
rr@WMqu?Zr_>f#~>
rrBJ,li@%bmf;nXrrBn8J,~>
rr@WMqu?Zr_>f#~>
rr@WMqZ$Qq_Z,,~>
rrBG+m/[.cn,VqWrrBq9J,~>
rr@WMqZ$Qq_Z,,~>
rr@WMq>^Hp_uG5~>
rrBJ,m/[+bmf;hVrrBt:J,~>
rr@WMq>^Hp_uG5~>
rr@WMq#C?o`;b>~>
rrBJ,m/[(amf;hVrrC";J,~>
rr@WMq#C?o`;b>~>
rr@WMp](6n`W(G~>
rrBJ,li@%bmf;bTrrC%<J,~>
rr@WMp](6n`W(G~>
rr@WMpAb-m`rCP~>
rrBG+m/[.cmJuYSrrC(=J,~>
rr@WMpAb-m`rCP~>
rr@WMp&G$la8^Y~>
rrBJ,m/[+bm/ZPRrrC+>J,~>
rr@WMp&G$la8^Y~>
rr@WMo`+pkaT$b~>
rrBJ,m/[(amf;\RrrC.?J,~>
rr@WMo`+pkaT$b~>
rr@WMoDegjao?k~>
rrBM-m/[(am/ZJPrrC1@J,~>
rr@WMoDegjao?k~>
rr@WMo)J^ib5Zt~>
rrBJ,m/[+bm/ZGOrrC4AJ,~>
rr@WMo)J^ib5Zt~>
rr@WMnc/UhbQ!(~>
rrBJ,m/[+bmJuJNrrC7BJ,~>
rr@WMnc/UhbQ!(~>
rr@WMnGiLgbl<1~>
rrBJ,mK!.amf;PNrrC:CJ,~>
rr@WMnGiLgbl<1~>
rr@WMn,NCfc2W:~>
rrBM-m/[(am/Z>LrrC=DJ,~>
rr@WMn,NCfc2W:~>
rr@WMmf3:ecMrC~>
rrBJ,m/[.cli?2JrrC@EJ,~>
rr@WMmf3:ecMrC~>
rr@WMmJm1dci8L~>
rrBJ,m/[+bm/Z8JrrCCFJ,~>
rr@WMmJm1dci8L~>
rr@WMm/R(cd/SU~>
rrBJ,mK!.am/Z8JrrCFGJ,~>
rr@WMm/R(cd/SU~>
rr@WMm/R(cd/SU~>
rrBM-m/[(am/Z5IrrCFGJ,~>
rr@WMm/R(cd/SU~>
rr@WMli6tbdJn^~>
rrBG+mK!.an,VJJrrCIHJ,~>
rr@WMli6tbdJn^~>
rr@WMlMpkadf4g~>
rrBJ,m/[(amJu8HrrCLIJ,~>
rr@WMlMpkadf4g~>
rr@WMl2Ub`e,Op~>
rrBJ,mK!1bli?&FrrCOJJ,~>
rr@WMl2Ub`e,Op~>
rr@WMkl:Y_eGk%~>
rrBJ,mK!1bm/Z)ErrCRKJ,~>
rr@WMkl:Y_eGk%~>
rr@WMkPtP^ec1.~>
rrBG+mK!1bm/Z)ErrCULJ,~>
rr@WMkPtP^ec1.~>
rr@WMkPtP^ec1.~>
rrBJ,mK!1bli>uDrrCULJ,~>
rr@WMkPtP^ec1.~>
rr@WMk5YG]f)L7~>
rrBD*nGrIdm/Z#CrrCXMJ,~>
rr@WMk5YG]f)L7~>
rr@WMjo>>\fDg@~>
rrBG+mf<:cmJu&BrrC[NJ,~>
rr@WMjo>>\fDg@~>
rr@WMjT#5[f`-I~>
rrBJ,mK!.amJu&BrrC^OJ,~>
rr@WMjT#5[f`-I~>
rr@WMjT#5[f`-I~>
rrBG+mf<:cm/YrArrC^OJ,~>
rr@WMjT#5[f`-I~>
rr@WMj8],Zg&HR~>
rrBG+n,W:amf;,BrrCaPJ,~>
rr@WMj8],Zg&HR~>
rr@WMirB#YgAc[~>
rrBG+mf<7bm/Yo@rrCdQJ,~>
rr@WMirB#YgAc[~>
rr@WMiW&oXg])d~>
rrBJ,mK!1bm/Yi>rrCgRJ,~>
rr@WMiW&oXg])d~>
rr@WMiW&oXg])d~>
rrBG+mf<:cli>c>rrCgRJ,~>
rr@WMiW&oXg])d~>
rr@WMi;`fWh#Dm~>
rrBG+mK!1bm/Yi>rrCjSJ,~>
rr@WMi;`fWh#Dm~>
rr@WMhuE]Vh>`!~>
rrBG+mf<:cm/Yc<rrCmTJ,~>
rr@WMhuE]Vh>`!~>
rr@WMhZ*TUhZ&*~>
rrBD*nGrFcmf:o<rrCpUJ,~>
rr@WMhZ*TUhZ&*~>
rr@WMhZ*TUhZ&*~>
rrBG+mf<7bmJti<rrCpUJ,~>
rr@WMhZ*TUhZ&*~>
rr@WMh>dKThuA3~>
rrBD*n,W@cmJtf;rrCsVJ,~>
rr@WMh>dKThuA3~>
rr@WMh#IBSi;\<~>
rrBD*n,W=bmf:l;rrD!WJ,~>
rr@WMh#IBSi;\<~>
rr@WMh#IBSi;\<~>
rrBA)n,WCdm/Y]:rrD!WJ,~>
rr@WMh#IBSi;\<~>
rr@WMg].9RiW"E~>
rrBD*n,W=bmf:i:rrD$XJ,~>
rr@WMg].9RiW"E~>
rr@WMgAh0Qir=N~>
rrBD*nGrCbmJt`9rrD'YJ,~>
rr@WMgAh0Qir=N~>
rr@WMgAh0Qir=N~>
rrBD*n,W@cm/YW8rrD'YJ,~>
rr@WMgAh0Qir=N~>
rr@WMg&M'Pj8XW~>
rrBD*n,W@cmJtZ7rrD*ZJ,~>
rr@WMg&M'Pj8XW~>
rr@WMg&M'Pj8XW~>
rrBD*n,W@cm/YT7rrD*ZJ,~>
rr@WMg&M'Pj8XW~>
rr@WMf`1sOjSs`~>
rrBA)nGrIdm/YQ6rrD-[J,~>
rr@WMf`1sOjSs`~>
rr@WMfDkjNjo9i~>
rrBD*n,W=bmJtW6rrD0\J,~>
rr@WMfDkjNjo9i~>
rr@WMfDkjNjo9i~>
rrBA)n,WCdm/YN5rrD0\J,~>
rr@WMfDkjNjo9i~>
rr@WMf)PaMk5Tr~>
rrBA)nGrIdmJtQ4rrD3]J,~>
rr@WMf)PaMk5Tr~>
nc47@j8],Zk5Tr~>
nc6H)n,W@cmJtT5rrD3]J,~>
nc47@j8],Zk5Tr~>
!<;EdJcFs6rrD6^J,~>
!<;Ed`;fB.qu?$`cN!nEkPp&~>
!<;EdJcFs6rrD6^J,~>
o)JFaJcG'9rrD9_J,~>
o)JFaa8b`2qZ#s`c2[eDkl6/~>
o)JFaJcG'9rrD9_J,~>
m/Qk]JcG3=rrD9_J,~>
m/Qk]bl@25r;Z*`cN!nEkl6/~>
m/Qk]JcG3=rrD9_J,~>
kl:JZJcG9?rrD<`J,~>
kl:JZcN!J9qZ$!abQ%SBl2Q8~>
kl:JZJcG9?rrD<`J,~>
jT#)WJcGBBrrD<`J,~>
jT#)Wdf8h;qZ$!abl@\Cl2Q8~>
jT#)WJcGBBrrD<`J,~>
iW&fUJcGECrrD?aJ,~>
iW&fUe,T">q>]m`bQ%SBlMlA~>
iW&fUJcGECrrD?aJ,~>
hZ*KRJcGNFrrD?aJ,~>
hZ*KRf)P:@qu?'abQ%SBlMlA~>
hZ*KRJcGNFrrD?aJ,~>
h#I9PJcGQGrrDBbJ,~>
h#I9Pf`1IAqu?*bb5_JAli2J~>
h#I9PJcGQGrrDBbJ,~>
g&M!NJcGWIrrDBbJ,~>
g&M!NgAg[Cqu?*bb5_JAli2J~>
g&M!NJcGWIrrDBbJ,~>
fDkdLJcGZJrrDEcJ,~>
fDkdLh#HmEqu?*baoDA@m/MS~>
fDkdLJcGZJrrDEcJ,~>
ec5RJJcG`LrrDEcJ,~>
ec5RJh>d!Fr;Z3caoDA@m/MS~>
ec5RJJcG`LrrDEcJ,~>
e,T@HJcGcMrrDHdJ,~>
e,T@HhZ*-Hr;Z3caT)8?mJh\~>
e,T@HJcGcMrrDHdJ,~>
dJs.FJcG`MmJh\~>
dJs.FiW&EJr;Z3caT)8?mJh\~>
dJs.FJcG`MmJh\~>
ci<tEJcG`Mmf.e~>
ci<tEiW&HKqu?*baT)8?mf.e~>
ci<tEJcG`Mmf.e~>
c2[bCKE(rOmf.e~>
c2[bCjT"`Mqu?*baT)8?mf.e~>
c2[bCKE(rOmf.e~>
bl@VAK`D&Pn,In~>
bl@VAjo=lOqu?-c`rH&=n,In~>
bl@VAK`D&Pn,In~>
b5_G@L&_/Qn,In~>
b5_G@jo=lOqu?-ca8c/>n,In~>
b5_G@L&_/Qn,In~>
aT)8?L&_/QnGe"~>
aT)8?kPt&Pqu?0d`W,r<nGe"~>
aT)8?L&_/QnGe"~>
a8c,=L]@ASnGe"~>
a8c,=kl:2Rr;Z3c`rH&=nGe"~>
a8c,=L]@ASnGe"~>
`rH#<L]@ASnc++~>
`rH#<lMpASqu?-c`W,r<nc++~>
`rH#<L]@ASnc++~>
`;fi;M#[JTnc++~>
`;fi;li6GSqu?-c`rH&=nc++~>
`;fi;M#[JTnc++~>
_uK]9MZ<\Vnc++~>
_uK]9mJlYUqu?0d`W,r<nc++~>
_uK]9MZ<\Vnc++~>
_Z0T8MZ<\Vo)F4~>
_Z0T8mf2eWqu?-c`;fi;o)F4~>
_Z0T8MZ<\Vo)F4~>
_#OE7MuWeWo)F4~>
_#OE7mf2eWqu?0d`;fi;o)F4~>
_#OE7MuWeWo)F4~>
^]4<6MuWeWoDa=~>
^]4<6n,MkWqu?3e_uK`:oDa=~>
^]4<6MuWeWoDa=~>
^An35N;rnXoDa=~>
^An35nGhtXr;Z9e_uK`:oDa=~>
^An35N;rnXoDa=~>
^&S*4NW9"YoDa=~>
^&S*4nc/+Zqu?-c`;fi;oDa=~>
^&S*4NW9"YoDa=~>
]`8!3NW9"Yo`'F~>
]`8!3oDe7Zqu?0d_uK`:o`'F~>
]`8!3NW9"Yo`'F~>
]Dqm2NrT+Zo`'F~>
]Dqm2oDe=\qZ$*d_Z0W9o`'F~>
]Dqm2NrT+Zo`'F~>
])Vd1NrT+Zp&BO~>
])Vd1oDe=\r;Z6d_Z0W9p&BO~>
])Vd1NrT+Zp&BO~>
\c;[0O8o4[p&BO~>
\c;[0p&FL]qu?0d_Z0W9p&BO~>
\c;[0O8o4[p&BO~>
\GuR/OT5=\p&BO~>
\GuR/p&FR_q>^!c_Z0W9p&BO~>
\GuR/OT5=\p&BO~>
\,ZI.OT5=\pA]X~>
\,ZI.pAaX_qZ$*d_>jN8pA]X~>
\,ZI.OT5=\pA]X~>
[f?@-OoPF]pA]X~>
[f?@-p]'a`q>^$d_>jN8pA]X~>
[f?@-OoPF]pA]X~>
[K$7,P5kO^pA]X~>
[K$7,q#BjaqZ$-e_#OE7pA]X~>
[K$7,P5kO^pA]X~>
[/^.+P5kO^p]#a~>
[/^.+qZ$$bqZ$-e^]4<6p]#a~>
[/^.+P5kO^p]#a~>
[/^.+P5kO^p]#a~>
[/^.+qZ$$bq>^$d_#OE7p]#a~>
[/^.+P5kO^p]#a~>
ZiC%*PQ1X_p]#a~>
ZiC%*qZ$$bqZ$-e_#OE7p]#a~>
ZiC%*PQ1X_p]#a~>
ZN'q)PQ1X_q#>j~>
ZN'q)qu?0dqZ$-e^An35q#>j~>
ZN'q)PQ1X_q#>j~>
Z2ah(PlLa`q#>j~>
Z2ah(r;Z9eq>^$d^]4<6q#>j~>
Z2ah(PlLa`q#>j~>
YlF_'Q2gjaq#>j~>
YlF_'rVu?eqZ$-e^]4<6q#>j~>
YlF_'Q2gjaq#>j~>
YlF_'PlLa`q>Ys~>
YlF_'rVu?eq>^'e^An35q>Ys~>
YlF_'PlLa`q>Ys~>
YQ+V&Q2gjaq>Ys~>
YQ+V&rr;Kgq#C!e^&S*4q>Ys~>
YQ+V&Q2gjaq>Ys~>
Y5eM%QN-sbq>Ys~>
Y5eM%s8VQgqZ$-e^An35q>Ys~>
Y5eM%QN-sbq>Ys~>
Y5eM%Q2gjaqYu'~>
Y5eM%rr;KgqZ$-e^&S*4qYu'~>
Y5eM%Q2gjaqYu'~>
XoJD$QN-sbqYu'~>
XoJD$!<;KfqZ$3g]`8!3qYu'~>
XoJD$QN-sbqYu'~>
XT/;#QiI'cqYu'~>
XT.\gq>^*f]`8!3qYu'~>
XT/;#QiI'cqYu'~>
XT/;#QiI'cqYu'~>
XT/;#!<;Qhq>^'e^&S*4qYu'~>
XT/;#QiI'cqYu'~>
X8i2"QiI'cqu;0~>
X8i2"!<;QhqZ$0f]`8!3qu;0~>
X8i2"QiI'cqu;0~>
X8i2"QiI'cqu;0~>
X8hVgq>^*f]Dqm2qu;0~>
X8i2"QiI'cqu;0~>
WrN)!R/d0dqu;0~>
WrMPgq#C$f]Dqm2qu;0~>
WrN)!R/d0dqu;0~>
WW2tuRK*9equ;0~>
WW2Jgq#C!e]`8!3qu;0~>
WW2tuRK*9equ;0~>
WW2tuR/d0dr;V9~>
WW2Gfq>^*f]Dqm2r;V9~>
WW2tuR/d0dr;V9~>
W;lktRK*9er;V9~>
W;lAfq#C!e]`8!3r;V9~>
W;lktRK*9er;V9~>
W;lktRK*9er;V9~>
W;lDgq#C$f])Vd1r;V9~>
W;lktRK*9er;V9~>
VuQbsRfEBfr;V9~>
VuQ>gq#C!e]Dqm2r;V9~>
VuQbsRfEBfr;V9~>
VuQbsRK*9erVqB~>
VuQ;fq>^*f])Vd1rVqB~>
VuQbsRK*9erVqB~>
VZ6YrRfEBfrVqB~>
VZ65fq#C$f])Vd1rVqB~>
VZ6YrRfEBfrVqB~>
VZ6YrRfEBfrVqB~>
VZ65fq#C'g\c;[0rVqB~>
VZ6YrRfEBfrVqB~>
V>pPqS,`KgrVqB~>
V>p2gp]'sf\c;[0rVqB~>
V>pPqS,`KgrVqB~>
V>pPqS,`KgrVqB~>
V>p/fp]'sf])Vd1rVqB~>
V>pPqS,`KgrVqB~>
V>pPqRfEBfrr7K~>
V>p/fp]($h\,ZI.rr7K~>
V>pPqRfEBfrr7K~>
V#UGpS,`Kgrr7K~>
V#U&eq#C*h\GuR/rr7K~>
V#UGpS,`Kgrr7K~>
V#UGpS,`Kgrr7K~>
V#U,gp&Fgf\GuR/rr7K~>
V#UGpS,`Kgrr7K~>
U]:>oSH&Thrr7K~>
U]:#fq#C'g\GuR/rr7K~>
U]:>oSH&Thrr7K~>
U]:>oSH&Thrr7K~>
U]:#fp]($h\,ZI.rr7K~>
U]:>oSH&Thrr7K~>
U]:>oS,`Kgs8RT~>
U]:#fp]($h[f?@-s8RT~>
U]:>oS,`Kgs8RT~>
UAt5nSH&Ths8RT~>
UAsugpAash[K$7,s8RT~>
UAt5nSH&Ths8RT~>
UAt5nSH&Ths8RT~>
UAsugo`+gh[K$7,s8RT~>
UAt5nSH&Ths8RT~>
UAt5nSH&Ths8RT~>
UAsugoDeah[K$7,s8RT~>
UAt5nSH&Ths8RT~>
U&Y,mScA]is8RT~>
U&Xlfo`"mkZN'q)s8RT~>
U&Y,mScA]is8RT~>
U&Y,mScA]is8RT~>
U&XlfV#UGps8RT~>
U&Y,mScA]is8RT~>
U&Y,mScA]is8RT~>
U&XlfV#UGps8RT~>
U&Y,mScA]is8RT~>
U&Y,mSH&Th!<7Q~>
U&XogUAt5n!<7Q~>
U&Y,mSH&Th!<7Q~>
T`>#lScA]i!<7Q~>
T`=igUAt5n!<7Q~>
T`>#lScA]i!<7Q~>
T`>#lScA]i!<7Q~>
T`=igUAt5n!<7Q~>
T`>#lScA]i!<7Q~>
T`>#lScA]i!<7Q~>
T`=ffU]:>o!<7Q~>
T`>#lScA]i!<7Q~>
T`>#lScA]i!<7Q~>
T`=lhU&Y,m!<7Q~>
T`>#lScA]i!<7Q~>
TE"okT)\fj!<7Q~>
TE"cgUAt5n!<7Q~>
TE"okT)\fj!<7Q~>
TE"okT)\fj!<7Q~>
TE"cgUAt5n!<7Q~>
TE"okT)\fj!<7Q~>
TE"okT)\fj!<7Q~>
TE"iiT`>#l!<7Q~>
TE"okT)\fj!<7Q~>
TE"okT)\fj!<7Q~>
TE"iiT`>#l!<7Q~>
TE"okT)\fj!<7Q~>
TE"okScA]iJ,~>
TE"ljT)\fjJ,~>
TE"okScA]iJ,~>
T)\fjT)\fjJ,~>
T)\fjT)\fjJ,~>
T)\fjT)\fjJ,~>
T)\fjT)\fjJ,~>
T)\fjT)\fjJ,~>
T)\fjT)\fjJ,~>
T)\fjT)\fjJ,~>
T)\fjT)\fjJ,~>
T)\fjT)\fjJ,~>
T)\fjT)\fjJ,~>
T)\fjT)\fjJ,~>
T)\fjT)\fjJ,~>
T)\fjT)\fjJ,~>
T)\fjT)\fjJ,~>
T)\fjT)\fjJ,~>
T)\fjT)\fjJ,~>
T)\fjT)\fjJ,~>
T)\fjT)\fjJ,~>
T)\fjT)\fjJ,~>
T)\fjT)\fjJ,~>
T)\fjT)\fjJ,~>
ScA]iTE"okJ,~>
ScA]iTE"okJ,~>
ScA]iTE"okJ,~>
ScA]iTE"okJ,~>
ScA]iTE"okJ,~>
ScA]iTE"okJ,~>
ScA]iTE"okJ,~>
ScA]iTE"okJ,~>
ScA]iTE"okJ,~>
ScA]iTE"okJ,~>
ScA]iTE"okJ,~>
ScA]iTE"okJ,~>
ScA]iTE"okJ,~>
ScA]iTE"okJ,~>
ScA]iTE"okJ,~>
ScA]iTE"okJ,~>
ScA]iTE"okJ,~>
ScA]iTE"okJ,~>
ScA]iTE"okJ,~>
ScA]iTE"okJ,~>
ScA]iTE"okJ,~>
ScA]iTE"okJ,~>
ScA]iTE"okJ,~>
ScA]iTE"okJ,~>
ScA]iTE"okJ,~>
ScA]iTE"okJ,~>
ScA]iTE"okJ,~>
Sc>/ZJ,~>
Sc>/ZJ,~>
Sc>/ZJ,~>
SH#,[!<7Q~>
SH#,[!<7Q~>
SH#,[!<7Q~>
%%EndData
showpage
%%Trailer
end
%%EOF
