%!PS-Adobe-3.0 EPSF-3.0
%%Creator: GIMP PostScript file plugin V 1.17 by Peter Kirchgessner
%%Title: E2a_Exact_064-032_T1.eps
%%CreationDate: Tue Jul 30 14:27:19 2013
%%DocumentData: Clean7Bit
%%LanguageLevel: 2
%%Pages: 1
%%BoundingBox: 14 14 112 112
%%EndComments
%%BeginProlog
% Use own dictionary to avoid conflicts
10 dict begin
%%EndProlog
%%Page: 1 1
% Translate for offset
14.173228346456694 14.173228346456694 translate
% Translate to begin of first scanline
0 97.424807047633905 translate
96.944881889763792 -97.424807047633905 scale
% Image geometry
202 203 8
% Transformation matrix
[ 202 0 0 203 0 0 ]
% Strings to hold RGB-samples per scanline
/rstr 202 string def
/gstr 202 string def
/bstr 202 string def
{currentfile /ASCII85Decode filter /RunLengthDecode filter rstr readstring pop}
{currentfile /ASCII85Decode filter /RunLengthDecode filter gstr readstring pop}
{currentfile /ASCII85Decode filter /RunLengthDecode filter bstr readstring pop}
true 3
%%BeginData:        13502 ASCII Bytes
colorimage
!<;`mJcEXfJ,~>
!<;`mJcEXfJ,~>
!<;`mJcEXfJ,~>
kl?;7ci8L~>
kl?;7ci8L~>
kl?;7ci8L~>
rrDfnmJqh<f)L7~>
rrDfnmJqh<f)L7~>
rrDfnmJqh<f)L7~>
rrDBboDjIBh#Dm~>
rrDBboDjIBh#Dm~>
rrDBboDjIBh#Dm~>
rrD-[p&K[DiW"E~>
rrD-[p&K[DiW"E~>
rrD-[p&K[DiW"E~>
rrCpUpAfdEk5Tr~>
rrCpUpAfdEk5Tr~>
rrCpUpAfdEk5Tr~>
rrCaPp],mFlMlA~>
rrCaPp],mFlMlA~>
rrCaPp],mFlMlA~>
rrCRKq>c*HmJh\~>
rrCRKq>c*HmJh\~>
rrCRKq>c*HmJh\~>
rrCFGq>c*Hnc++~>
rrCFGq>c*Hnc++~>
rrCFGq>c*Hnc++~>
rrC=Dq>c*Ho`'F~>
rrC=Dq>c*Ho`'F~>
rrC=Dq>c*Ho`'F~>
rrC1@qZ)3Ip]#a~>
rrC1@qZ)3Ip]#a~>
rrC1@qZ)3Ip]#a~>
rrC(=qZ)3IqYu'~>
rrC(=qZ)3IqYu'~>
rrC(=qZ)3IqYu'~>
rrBt:qZ)3IrVqB~>
rrBt:qZ)3IrVqB~>
rrBt:qZ)3IrVqB~>
rrBk7qZ)3I!<7Q~>
rrBk7qZ)3I!<7Q~>
rrBk7qZ)3I!<7Q~>
rrBb4quD?KJ,~>
rrBb4quD?KJ,~>
rrBb4quD?KJ,~>
rrBY1quDHNJ,~>
rrBY1quDHNJ,~>
rrBY1quDHNJ,~>
rrBS/quDNPJ,~>
rrBS/quDNPJ,~>
rrBS/quDNPJ,~>
rrBJ,r;_]SJ,~>
rrBJ,r;_]SJ,~>
rrBJ,r;_]SJ,~>
rrBD*r;_cUJ,~>
rrBD*r;_cUJ,~>
rrBD*r;_cUJ,~>
rrB>(quDcWJ,~>
rrB>(quDcWJ,~>
rrB>(quDcWJ,~>
rrB8&quDiYJ,~>
rrB8&quDiYJ,~>
rrB8&quDiYJ,~>
rrB/#r;`#\J,~>
rrB/#r;`#\J,~>
rrB/#r;`#\J,~>
rrB)!r;`)^J,~>
rrB)!r;`)^J,~>
rrB)!r;`)^J,~>
rrB"tr;`/`J,~>
rrB"tr;`/`J,~>
rrB"tr;`/`J,~>
rrAqrrW&;bJ,~>
rrAqrrW&;bJ,~>
rrAqrrW&;bJ,~>
rrAkprW&AdJ,~>
rrAkprW&AdJ,~>
rrAkprW&AdJ,~>
rrAhor;`>eJ,~>
rrAhor;`>eJ,~>
rrAhor;`>eJ,~>
rrB5%rrDcmr;`DgJ,~>
rrB5%rrDcmr;`DgJ,~>
rrB5%rrDcmr;`DgJ,~>
rrBD*!!)utr;cQkrW&PiJ,~>
rrBD*!!)utr;cQkrW&PiJ,~>
rrBD*!!)utr;cQkrW&PiJ,~>
rrBG+o`4adr;`MjJ,~>
rrBG+o`4adr;`MjJ,~>
rrBG+o`4adr;`MjJ,~>
rrBG+oDn[dqZ*AjJ,~>
rrBG+oDn[dqZ*AjJ,~>
rrBG+oDn[dqZ*AjJ,~>
rrBJ,nGrFcq>d;jJ,~>
rrBJ,nGrFcq>d;jJ,~>
rrBJ,nGrFcq>d;jJ,~>
rrBJ,mf<7bq#I8kJ,~>
rrBJ,mf<7bq#I8kJ,~>
rrBJ,mf<7bq#I8kJ,~>
rrBM-li?q_q>dDmJ,~>
rrBM-li?q_q>dDmJ,~>
rrBM-li?q_q>dDmJ,~>
rrBG+mK!.ap].8mJ,~>
rrBG+mK!.ap].8mJ,~>
rrBG+mK!.ap].8mJ,~>
rrBA)n,WCdqZ-ZrrW&qtJ,~>
rrBA)n,WCdqZ-ZrrW&qtJ,~>
rrBA)n,WCdqZ-ZrrW&qtJ,~>
rrBA)nGrIdqZ-TprW'#!J,~>
rrBA)nGrIdqZ-TprW'#!J,~>
rrBA)nGrIdqZ-TprW'#!J,~>
rrBD*mf<=dq#LBnrW'&"J,~>
rrBD*mf<=dq#LBnrW'&"J,~>
rrBD*mf<=dq#LBnrW'&"J,~>
rrBD*m/[1dpAk0lrW',$J,~>
rrBD*m/[1dpAk0lrW',$J,~>
rrBD*m/[1dpAk0lrW',$J,~>
rrBG+hZ3WTrW'/%J,~>
rrBG+hZ3WTrW'/%J,~>
rrBG+hZ3WTrW'/%J,~>
rrBG+h#RERrrB;'J,~>
rrBG+h#RERrrB;'J,~>
rrBG+h#RERrrB;'J,~>
rrBG+g]7<QrW'8(J,~>
rrBG+g]7<QrW'8(J,~>
rrBG+g]7<QrW'8(J,~>
rrBJ,li@(cnGrOfrW';)J,~>
rrBJ,li@(cnGrOfrW';)J,~>
rrBJ,li@(cnGrOfrW';)J,~>
rrBJ,m/[+bo)SXerrBG+J,~>
rrBJ,m/[+bo)SXerrBG+J,~>
rrBJ,m/[+bo)SXerrBG+J,~>
rrBM-li?q_p&OmfrrBJ,J,~>
rrBM-li?q_p&OmfrrBJ,J,~>
rrBM-li?q_p&OmfrrBJ,J,~>
rrBM-l2^h`oDn[drW'G-J,~>
rrBM-l2^h`oDn[drW'G-J,~>
rrBM-l2^h`oDn[drW'G-J,~>
rrBP.kPtV_nGrCbrW'J.J,~>
rrBP.kPtV_nGrCbrW'J.J,~>
rrBP.kPtV_nGrCbrW'J.J,~>
rrBJ,fDt^HrrBV0J,~>
rrBJ,fDt^HrrBV0J,~>
rrBJ,fDt^HrrBV0J,~>
rrBD*g&UmIrrBY1J,~>
rrBD*g&UmIrrBY1J,~>
rrBD*g&UmIrrBY1J,~>
rrBG+g&UgGrrB\2J,~>
rrBG+g&UgGrrB\2J,~>
rrBG+g&UgGrrB\2J,~>
rrBG+li7%cn,W+\rW'Y3J,~>
rrBG+li7%cn,W+\rW'Y3J,~>
rrBG+li7%cn,W+\rW'Y3J,~>
rrBJ,li@"anGr4]rW'\4J,~>
rrBJ,li@"anGr4]rW'\4J,~>
rrBJ,li@"anGr4]rW'\4J,~>
rrBJ,m/[%`nGr1\rrBh6J,~>
rrBJ,m/[%`nGr1\rrBh6J,~>
rrBJ,m/[%`nGr1\rrBh6J,~>
rrBM-li?t`mf;tZrrBk7J,~>
rrBM-li?t`mf;tZrrBk7J,~>
rrBM-li?t`mf;tZrrBk7J,~>
rrBM-m/[(amf;nXrrBn8J,~>
rrBM-m/[(amf;nXrrBn8J,~>
rrBM-m/[(amf;nXrrBn8J,~>
rrBP.lN$n`n,VqWrrBq9J,~>
rrBP.lN$n`n,VqWrrBq9J,~>
rrBP.lN$n`n,VqWrrBq9J,~>
rrBP.l2^kamJu_UrrBt:J,~>
rrBP.l2^kamJu_UrrBt:J,~>
rrBP.l2^kamJu_UrrBt:J,~>
rrBP.kl:_`m/ZVTrrC";J,~>
rrBP.kl:_`m/ZVTrrC";J,~>
rrBP.kl:_`m/ZVTrrC";J,~>
rrBJ,lN$tbm/ZVTrrC%<J,~>
rrBJ,lN$tbm/ZVTrrC%<J,~>
rrBJ,lN$tbm/ZVTrrC%<J,~>
rrBG+m/[+bmJu\TrrC(=J,~>
rrBG+m/[+bmJu\TrrC(=J,~>
rrBG+m/[+bmJu\TrrC(=J,~>
rrBJ,m/[%`mf;bTrrC+>J,~>
rrBJ,m/[%`mf;bTrrC+>J,~>
rrBJ,m/[%`mf;bTrrC+>J,~>
rrBJ,m/[(amf;\RrrC.?J,~>
rrBJ,m/[(amf;\RrrC.?J,~>
rrBJ,m/[(amf;\RrrC.?J,~>
rrBM-m/[(am/ZJPrrC1@J,~>
rrBM-m/[(am/ZJPrrC1@J,~>
rrBM-m/[(am/ZJPrrC1@J,~>
rrBM-li@"ali?AOrrC4AJ,~>
rrBM-li@"ali?AOrrC4AJ,~>
rrBM-li@"ali?AOrrC4AJ,~>
rrBP.kl:_`l2^/MrrC7BJ,~>
rrBP.kl:_`l2^/MrrC7BJ,~>
rrBP.kl:_`l2^/MrrC7BJ,~>
rrBJ,lMpqbl2^,LrrC:CJ,~>
rrBJ,lMpqbl2^,LrrC:CJ,~>
rrBJ,lMpqbl2^,LrrC:CJ,~>
rrBD*mK!7dli?8LrrC=DJ,~>
rrBD*mK!7dli?8LrrC=DJ,~>
rrBD*mK!7dli?8LrrC=DJ,~>
rrBG+m/[(amf;MMrrC@EJ,~>
rrBG+m/[(amf;MMrrC@EJ,~>
rrBG+m/[(amf;MMrrC@EJ,~>
rrBJ,m/[(amf;GKrrCCFJ,~>
rrBJ,m/[(amf;GKrrCCFJ,~>
rrBJ,m/[(amf;GKrrCCFJ,~>
rrBJ,mK!.amf;DJrrCFGJ,~>
rrBJ,mK!.amf;DJrrCFGJ,~>
rrBJ,mK!.amf;DJrrCFGJ,~>
rrBM-m/[(am/Z5IrrCFGJ,~>
rrBM-m/[(am/Z5IrrCFGJ,~>
rrBM-m/[(am/Z5IrrCFGJ,~>
rrBM-lN$tblN$#GrrCIHJ,~>
rrBM-lN$tblN$#GrrCIHJ,~>
rrBM-lN$tblN$#GrrCIHJ,~>
rrBJ,e,\P/rrCLIJ,~>
rrBJ,e,\P/rrCLIJ,~>
rrBJ,e,\P/rrCLIJ,~>
rrBG+m/[1dlN#rErrCOJJ,~>
rrBG+m/[1dlN#rErrCOJJ,~>
rrBG+m/[1dlN#rErrCOJJ,~>
rrBG+m/[.cm/Z)ErrCRKJ,~>
rrBG+m/[.cm/Z)ErrCRKJ,~>
rrBG+m/[.cm/Z)ErrCRKJ,~>
rrBG+mK!1bm/Z)ErrCULJ,~>
rrBG+mK!1bm/Z)ErrCULJ,~>
rrBG+mK!1bm/Z)ErrCULJ,~>
rrBJ,mK!1blN#oDrrCULJ,~>
rrBJ,mK!1blN#oDrrCULJ,~>
rrBJ,mK!1blN#oDrrCULJ,~>
rrBM-mK!.al2]fCrrCXMJ,~>
rrBM-mK!.al2]fCrrCXMJ,~>
rrBM-mK!.al2]fCrrCXMJ,~>
rrBM-m/[(alN#iBrrC[NJ,~>
rrBM-m/[(alN#iBrrC[NJ,~>
rrBM-m/[(alN#iBrrC[NJ,~>
rrBM-lN$k_mJu)CrrC^OJ,~>
rrBM-lN$k_mJu)CrrC^OJ,~>
rrBM-lN$k_mJu)CrrC^OJ,~>
rrBG+m/[(amf;/CrrC^OJ,~>
rrBG+m/[(amf;/CrrC^OJ,~>
rrBG+m/[(amf;/CrrC^OJ,~>
rrBG+mK!.an,V2BrrCaPJ,~>
rrBG+mK!.an,V2BrrCaPJ,~>
rrBG+mK!.an,V2BrrCaPJ,~>
rrBG+mK!1bmf;&@rrCdQJ,~>
rrBG+mK!1bmf;&@rrCdQJ,~>
rrBG+mK!1bmf;&@rrCdQJ,~>
rrBJ,mK!1bm/Yi>rrCgRJ,~>
rrBJ,mK!1bm/Yi>rrCgRJ,~>
rrBJ,mK!1bm/Yi>rrCgRJ,~>
rrBG+n,WCdlN#Z=rrCgRJ,~>
rrBG+n,WCdlN#Z=rrCgRJ,~>
rrBG+n,WCdlN#Z=rrCgRJ,~>
rrBD*nGrLelN#W<rrCjSJ,~>
rrBD*nGrLelN#W<rrCjSJ,~>
rrBD*nGrLelN#W<rrCjSJ,~>
rrBD*n,WCdm/Yc<rrCmTJ,~>
rrBD*n,WCdm/Yc<rrCmTJ,~>
rrBD*n,WCdm/Yc<rrCmTJ,~>
rrBD*mf<:cmf:o<rrCpUJ,~>
rrBD*mf<:cmf:o<rrCpUJ,~>
rrBD*mf<:cmf:o<rrCpUJ,~>
rrBG+mK!1bmJti<rrCpUJ,~>
rrBG+mK!1bmJti<rrCpUJ,~>
rrBG+mK!1bmJti<rrCpUJ,~>
rrBA)nGrLeli>W:rrCsVJ,~>
rrBA)nGrLeli>W:rrCsVJ,~>
rrBA)nGrLeli>W:rrCsVJ,~>
rrB>(nc8UflN#N9rrD!WJ,~>
rrB>(nc8UflN#N9rrD!WJ,~>
rrB>(nc8UflN#N9rrD!WJ,~>
rrBA)n,WCdm/Y]:rrD!WJ,~>
rrBA)n,WCdm/Y]:rrD!WJ,~>
rrBA)n,WCdm/Y]:rrD!WJ,~>
rrBD*mK!1bmf:i:rrD$XJ,~>
rrBD*mK!1bmf:i:rrD$XJ,~>
rrBD*mK!1bmf:i:rrD$XJ,~>
rrBD*mf<7bmf:f9rrD'YJ,~>
rrBD*mf<7bmf:f9rrD'YJ,~>
rrBD*mf<7bmf:f9rrD'YJ,~>
rrBG+mf<7bm/YW8rrD'YJ,~>
rrBG+mf<7bm/YW8rrD'YJ,~>
rrBG+mf<7bm/YW8rrD'YJ,~>
rrBJ,mK!.ali>N7rrD*ZJ,~>
rrBJ,mK!.ali>N7rrD*ZJ,~>
rrBJ,mK!.ali>N7rrD*ZJ,~>
rrBD*nGrCbm/YW8rrD*ZJ,~>
rrBD*nGrCbm/YW8rrD*ZJ,~>
rrBD*nGrCbm/YW8rrD*ZJ,~>
rrBA)nc8Ibmf:c8rrD-[J,~>
rrBA)nc8Ibmf:c8rrD-[J,~>
rrBA)nc8Ibmf:c8rrD-[J,~>
rrBD*n,W=bmJtW6rrD0\J,~>
rrBD*n,W=bmJtW6rrD0\J,~>
rrBD*n,W=bmJtW6rrD0\J,~>
rrBG+mK!1bli>H5rrD0\J,~>
rrBG+mK!1bli>H5rrD0\J,~>
rrBG+mK!1bli>H5rrD0\J,~>
rrBD*n,W@cli>E4rrD3]J,~>
rrBD*n,W@cli>E4rrD3]J,~>
rrBD*n,W@cli>E4rrD3]J,~>
nc6H)nc8Lcm/YN5rrD3]J,~>
nc6H)nc8Lcm/YN5rrD3]J,~>
nc6H)nc8Lcm/YN5rrD3]J,~>
!<;Ed`;fE/q#Bd_cN!nEkPp&~>
!<;Ed`;fE/q#Bd_cN!nEkPp&~>
!<;Ed`;fE/q#Bd_cN!nEkPp&~>
o)JFaa8b`2qZ#s`c2[eDkl6/~>
o)JFaa8b`2qZ#s`c2[eDkl6/~>
o)JFaa8b`2qZ#s`c2[eDkl6/~>
m/Qk]b5_&5r;Z*`cN!nEkl6/~>
m/Qk]b5_&5r;Z*`cN!nEkl6/~>
m/Qk]b5_&5r;Z*`cN!nEkl6/~>
kl:JZcN!J9qZ#p_c2[eDl2Q8~>
kl:JZcN!J9qZ#p_c2[eDl2Q8~>
kl:JZcN!J9qZ#p_c2[eDl2Q8~>
jT#)Wdf8n=q#Ba^c2[eDl2Q8~>
jT#)Wdf8n=q#Ba^c2[eDl2Q8~>
jT#)Wdf8n=q#Ba^c2[eDl2Q8~>
iW&fUe,T">q>]m`bQ%SBlMlA~>
iW&fUe,T">q>]m`bQ%SBlMlA~>
iW&fUe,T">q>]m`bQ%SBlMlA~>
hZ*KRec54@qu?'abQ%SBlMlA~>
hZ*KRec54@qu?'abQ%SBlMlA~>
hZ*KRec54@qu?'abQ%SBlMlA~>
h#I9PfDkCArVu6bb5_JAli2J~>
h#I9PfDkCArVu6bb5_JAli2J~>
h#I9PfDkCArVu6bb5_JAli2J~>
g&M!NgAgXBrVu6bbQ%SBli2J~>
g&M!NgAgXBrVu6bbQ%SBli2J~>
g&M!NgAgXBrVu6bbQ%SBli2J~>
fDkdLh#HgCrVu9cb5_JAm/MS~>
fDkdLh#HgCrVu9cb5_JAm/MS~>
fDkdLh#HgCrVu9cb5_JAm/MS~>
ec5RJh>d!Fqu?-caoDA@m/MS~>
ec5RJh>d!Fqu?-caoDA@m/MS~>
ec5RJh>d!Fqu?-caoDA@m/MS~>
e,T@HhZ*0Iq>]sbaT)8?mJh\~>
e,T@HhZ*0Iq>]sbaT)8?mJh\~>
e,T@HhZ*0Iq>]sbaT)8?mJh\~>
dJs.FiW&HKq>]sbaT)8?mJh\~>
dJs.FiW&HKq>]sbaT)8?mJh\~>
dJs.FiW&HKq>]sbaT)8?mJh\~>
ci<tEj8\TKqZ$$baT)8?mf.e~>
ci<tEj8\TKqZ$$baT)8?mf.e~>
ci<tEj8\TKqZ$$baT)8?mf.e~>
c2[bCjT"`Mqu?*baT)8?mf.e~>
c2[bCjT"`Mqu?*baT)8?mf.e~>
c2[bCjT"`Mqu?*baT)8?mf.e~>
bl@VAjo=oPqZ$$b`rH&=n,In~>
bl@VAjo=oPqZ$$b`rH&=n,In~>
bl@VAjo=oPqZ$$b`rH&=n,In~>
b5_G@jo=rQq>^!c`W,r<n,In~>
b5_G@jo=rQq>^!c`W,r<n,In~>
b5_G@jo=rQq>^!c`W,r<n,In~>
aT)8?jo=uRq>]sb`W,r<nGe"~>
aT)8?jo=uRq>]sb`W,r<nGe"~>
aT)8?jo=uRq>]sb`W,r<nGe"~>
a8c,=kl:5Squ?*b`rH&=nGe"~>
a8c,=kl:5Squ?*b`rH&=nGe"~>
a8c,=kl:5Squ?*b`rH&=nGe"~>
`rH#<lMpASrVu9c`W,r<nc++~>
`rH#<lMpASrVu9c`W,r<nc++~>
`rH#<lMpASrVu9c`W,r<nc++~>
`;fi;li6GSrVu9c`rH&=nc++~>
`;fi;li6GSrVu9c`rH&=nc++~>
`;fi;li6GSrVu9c`rH&=nc++~>
_uK]9m/QSUr;Z3c`rH&=nc++~>
_uK]9m/QSUr;Z3c`rH&=nc++~>
_uK]9m/QSUr;Z3c`rH&=nc++~>
_Z0T8mJl_Wqu?'a`rH&=o)F4~>
_Z0T8mJl_Wqu?'a`rH&=o)F4~>
_Z0T8mJl_Wqu?'a`rH&=o)F4~>
_#OE7n,MqYq>]sb`;fi;o)F4~>
_#OE7n,MqYq>]sb`;fi;o)F4~>
_#OE7n,MqYq>]sb`;fi;o)F4~>
^]4<6nGi"Yq>^!c_uK`:oDa=~>
^]4<6nGi"Yq>^!c_uK`:oDa=~>
^]4<6nGi"Yq>^!c_uK`:oDa=~>
^An35nGi"YqZ$*d_uK`:oDa=~>
^An35nGi"YqZ$*d_uK`:oDa=~>
^An35nGi"YqZ$*d_uK`:oDa=~>
^&S*4nc/+Zq>^!c`;fi;oDa=~>
^&S*4nc/+Zq>^!c`;fi;oDa=~>
^&S*4nc/+Zq>^!c`;fi;oDa=~>
]`8!3nc/+Zq>^$d_uK`:o`'F~>
]`8!3nc/+Zq>^$d_uK`:o`'F~>
]`8!3nc/+Zq>^$d_uK`:o`'F~>
]Dqm2nc/+Zqu?9g_>jN8o`'F~>
]Dqm2nc/+Zqu?9g_>jN8o`'F~>
]Dqm2nc/+Zqu?9g_>jN8o`'F~>
])Vd1oDe@]qu?3e_#OE7p&BO~>
])Vd1oDe@]qu?3e_#OE7p&BO~>
])Vd1oDe@]qu?3e_#OE7p&BO~>
\c;[0p&FR_q>^!c_>jN8p&BO~>
\c;[0p&FR_q>^!c_>jN8p&BO~>
\c;[0p&FR_q>^!c_>jN8p&BO~>
\GuR/p&FR_q>^$d_>jN8p&BO~>
\GuR/p&FR_q>^$d_>jN8p&BO~>
\GuR/p&FR_q>^$d_>jN8p&BO~>
\,ZI.pAaX_qZ$*d_>jN8pA]X~>
\,ZI.pAaX_qZ$*d_>jN8pA]X~>
\,ZI.pAaX_qZ$*d_>jN8pA]X~>
[f?@-p]'a`q>^$d_>jN8pA]X~>
[f?@-p]'a`q>^$d_>jN8pA]X~>
[f?@-p]'a`q>^$d_>jN8pA]X~>
[K$7,q>]m`qZ$*d_Z0W9pA]X~>
[K$7,q>]m`qZ$*d_Z0W9pA]X~>
[K$7,q>]m`qZ$*d_Z0W9pA]X~>
[/^.+qZ#s`qu?6f_#OE7p]#a~>
[/^.+qZ#s`qu?6f_#OE7p]#a~>
[/^.+qZ#s`qu?6f_#OE7p]#a~>
[/^.+qZ$$bqu?6f^An35p]#a~>
[/^.+qZ$$bqu?6f^An35p]#a~>
[/^.+qZ$$bqu?6f^An35p]#a~>
ZiC%*qZ$*dqZ$*d^]4<6p]#a~>
ZiC%*qZ$*dqZ$*d^]4<6p]#a~>
ZiC%*qZ$*dqZ$*d^]4<6p]#a~>
ZN'q)qZ$*dqZ$-e^An35q#>j~>
ZN'q)qZ$*dqZ$-e^An35q#>j~>
ZN'q)qZ$*dqZ$-e^An35q#>j~>
Z2ah(qu?3eq>^$d^]4<6q#>j~>
Z2ah(qu?3eq>^$d^]4<6q#>j~>
Z2ah(qu?3eq>^$d^]4<6q#>j~>
YlF_'rVu?eqZ$-e^]4<6q#>j~>
YlF_'rVu?eqZ$-e^]4<6q#>j~>
YlF_'rVu?eqZ$-e^]4<6q#>j~>
YlF_'rr;BdqZ$-e^]4<6q>Ys~>
YlF_'rr;BdqZ$-e^]4<6q>Ys~>
YlF_'rr;BdqZ$-e^]4<6q>Ys~>
YQ+V&rr;EeqZ$-e^]4<6q>Ys~>
YQ+V&rr;EeqZ$-e^]4<6q>Ys~>
YQ+V&rr;EeqZ$-e^]4<6q>Ys~>
Y5eM%s8VThp]'md^An35q>Ys~>
Y5eM%s8VThp]'md^An35q>Ys~>
Y5eM%s8VThp]'md^An35q>Ys~>
Y5eM%rr;Nhp]'pe]`8!3qYu'~>
Y5eM%rr;Nhp]'pe]`8!3qYu'~>
Y5eM%rr;Nhp]'pe]`8!3qYu'~>
XoJD$rr;Qip]'pe]`8!3qYu'~>
XoJD$rr;Qip]'pe]`8!3qYu'~>
XoJD$rr;Qip]'pe]`8!3qYu'~>
XT/;#s8VWiqZ$0f]`8!3qYu'~>
XT/;#s8VWiqZ$0f]`8!3qYu'~>
XT/;#s8VWiqZ$0f]`8!3qYu'~>
XT/;#rr;QiqZ$-e^&S*4qYu'~>
XT/;#rr;QiqZ$-e^&S*4qYu'~>
XT/;#rr;QiqZ$-e^&S*4qYu'~>
X8i2"!<;QhqZ$0f]`8!3qu;0~>
X8i2"!<;QhqZ$0f]`8!3qu;0~>
X8i2"!<;QhqZ$0f]`8!3qu;0~>
X8hSfqZ$-e^&S*4qu;0~>
X8hSfqZ$-e^&S*4qu;0~>
X8hSfqZ$-e^&S*4qu;0~>
WrMJeqZ$3g]`8!3qu;0~>
WrMJeqZ$3g]`8!3qu;0~>
WrMJeqZ$3g]`8!3qu;0~>
WW2DeqZ$9i])Vd1qu;0~>
WW2DeqZ$9i])Vd1qu;0~>
WW2DeqZ$9i])Vd1qu;0~>
WW2Gfq>^-g])Vd1r;V9~>
WW2Gfq>^-g])Vd1r;V9~>
WW2Gfq>^-g])Vd1r;V9~>
W;lDgp]'sf])Vd1r;V9~>
W;lDgp]'sf])Vd1r;V9~>
W;lDgp]'sf])Vd1r;V9~>
W;lDgp]'sf])Vd1r;V9~>
W;lDgp]'sf])Vd1r;V9~>
W;lDgp]'sf])Vd1r;V9~>
VuQ>gpAaje]Dqm2r;V9~>
VuQ>gpAaje]Dqm2r;V9~>
VuQ>gpAaje]Dqm2r;V9~>
VuQ;fp]'sf])Vd1rVqB~>
VuQ;fp]'sf])Vd1rVqB~>
VuQ;fp]'sf])Vd1rVqB~>
VZ65fp]'sf])Vd1rVqB~>
VZ65fp]'sf])Vd1rVqB~>
VZ65fp]'sf])Vd1rVqB~>
VZ62eqZ$<j\,ZI.rVqB~>
VZ62eqZ$<j\,ZI.rVqB~>
VZ62eqZ$<j\,ZI.rVqB~>
V>p,eqZ$9i\GuR/rVqB~>
V>p,eqZ$9i\GuR/rVqB~>
V>p,eqZ$9i\GuR/rVqB~>
V>p,eqZ$9i\GuR/rVqB~>
V>p,eqZ$9i\GuR/rVqB~>
V>p,eqZ$9i\GuR/rVqB~>
V>p/fq>^0h\,ZI.rr7K~>
V>p/fq>^0h\,ZI.rr7K~>
V>p/fq>^0h\,ZI.rr7K~>
V#U,gp]'sf\GuR/rr7K~>
V#U,gp]'sf\GuR/rr7K~>
V#U,gp]'sf\GuR/rr7K~>
V#U,gp]'sf\GuR/rr7K~>
V#U,gp]'sf\GuR/rr7K~>
V#U,gp]'sf\GuR/rr7K~>
U]:#fq#C'g\GuR/rr7K~>
U]:#fq#C'g\GuR/rr7K~>
U]:#fq#C'g\GuR/rr7K~>
U]:#fp](*j[K$7,rr7K~>
U]:#fp](*j[K$7,rr7K~>
U]:#fp](*j[K$7,rr7K~>
U]:#fp](6n!<;ut[K$7,s8RT~>
U]:#fp](6n!<;ut[K$7,s8RT~>
U]:#fp](6n!<;ut[K$7,s8RT~>
UAsoeo`+mj[K$7,s8RT~>
UAsoeo`+mj[K$7,s8RT~>
UAsoeo`+mj[K$7,s8RT~>
UAsoeo`+pk[/^.+s8RT~>
UAsoeo`+pk[/^.+s8RT~>
UAsoeo`+pk[/^.+s8RT~>
UAsoeV>pPqs8RT~>
UAsoeV>pPqs8RT~>
UAsoeV>pPqs8RT~>
U&XrhUAt5ns8RT~>
U&XrhUAt5ns8RT~>
U&XrhUAt5ns8RT~>
U&XrhUAt5ns8RT~>
U&XrhUAt5ns8RT~>
U&XrhUAt5ns8RT~>
U&XogU]:>os8RT~>
U&XogU]:>os8RT~>
U&XogU]:>os8RT~>
U&XogUAt5n!<7Q~>
U&XogUAt5n!<7Q~>
U&XogUAt5n!<7Q~>
T`=igUAt5n!<7Q~>
T`=igUAt5n!<7Q~>
T`=igUAt5n!<7Q~>
T`=igUAt5n!<7Q~>
T`=igUAt5n!<7Q~>
T`=igUAt5n!<7Q~>
T`=ffU]:>o!<7Q~>
T`=ffU]:>o!<7Q~>
T`=ffU]:>o!<7Q~>
T`=ffU]:>o!<7Q~>
T`=ffU]:>o!<7Q~>
T`=ffU]:>o!<7Q~>
TE"iiT`>#l!<7Q~>
TE"iiT`>#l!<7Q~>
TE"iiT`>#l!<7Q~>
TE"iiT`>#l!<7Q~>
TE"iiT`>#l!<7Q~>
TE"iiT`>#l!<7Q~>
TE"iiT`>#l!<7Q~>
TE"iiT`>#l!<7Q~>
TE"iiT`>#l!<7Q~>
TE"iiT`>#l!<7Q~>
TE"iiT`>#l!<7Q~>
TE"iiT`>#l!<7Q~>
TE"fhT`>#lJ,~>
TE"fhT`>#lJ,~>
TE"fhT`>#lJ,~>
T)\ciTE"okJ,~>
T)\ciTE"okJ,~>
T)\ciTE"okJ,~>
T)\fjT)\fjJ,~>
T)\fjT)\fjJ,~>
T)\fjT)\fjJ,~>
T)\fjT)\fjJ,~>
T)\fjT)\fjJ,~>
T)\fjT)\fjJ,~>
T)\fjT)\fjJ,~>
T)\fjT)\fjJ,~>
T)\fjT)\fjJ,~>
T)\fjT)\fjJ,~>
T)\fjT)\fjJ,~>
T)\fjT)\fjJ,~>
T)\fjT)\fjJ,~>
T)\fjT)\fjJ,~>
T)\fjT)\fjJ,~>
T)\fjT)\fjJ,~>
T)\fjT)\fjJ,~>
T)\fjT)\fjJ,~>
ScA]iTE"okJ,~>
ScA]iTE"okJ,~>
ScA]iTE"okJ,~>
ScA]iTE"okJ,~>
ScA]iTE"okJ,~>
ScA]iTE"okJ,~>
ScA]iTE"okJ,~>
ScA]iTE"okJ,~>
ScA]iTE"okJ,~>
ScA]iTE"okJ,~>
ScA]iTE"okJ,~>
ScA]iTE"okJ,~>
ScA]iTE"okJ,~>
ScA]iTE"okJ,~>
ScA]iTE"okJ,~>
ScA]iTE"okJ,~>
ScA]iTE"okJ,~>
ScA]iTE"okJ,~>
ScA]iTE"okJ,~>
ScA]iTE"okJ,~>
ScA]iTE"okJ,~>
ScA]iTE"okJ,~>
ScA]iTE"okJ,~>
ScA]iTE"okJ,~>
ScA]iTE"okJ,~>
ScA]iTE"okJ,~>
ScA]iTE"okJ,~>
Sc>/ZJ,~>
Sc>/ZJ,~>
Sc>/ZJ,~>
SH#,[!<7Q~>
SH#,[!<7Q~>
SH#,[!<7Q~>
%%EndData
showpage
%%Trailer
end
%%EOF
