%!PS-Adobe-3.0 EPSF-3.0
%%Creator: GIMP PostScript file plugin V 1.17 by Peter Kirchgessner
%%Title: E2a_Est22_064-032_T1.eps
%%CreationDate: Tue Jul 30 14:23:12 2013
%%DocumentData: Clean7Bit
%%LanguageLevel: 2
%%Pages: 1
%%BoundingBox: 14 14 112 112
%%EndComments
%%BeginProlog
% Use own dictionary to avoid conflicts
10 dict begin
%%EndProlog
%%Page: 1 1
% Translate for offset
14.173228346456694 14.173228346456694 translate
% Translate to begin of first scanline
0 97.424807047633905 translate
96.944881889763792 -97.424807047633905 scale
% Image geometry
202 203 8
% Transformation matrix
[ 202 0 0 203 0 0 ]
% Strings to hold RGB-samples per scanline
/rstr 202 string def
/gstr 202 string def
/bstr 202 string def
{currentfile /ASCII85Decode filter /RunLengthDecode filter rstr readstring pop}
{currentfile /ASCII85Decode filter /RunLengthDecode filter gstr readstring pop}
{currentfile /ASCII85Decode filter /RunLengthDecode filter bstr readstring pop}
true 3
%%BeginData:        11187 ASCII Bytes
colorimage
!<;`mJcEXfJ,~>
!<;`mJcEXfJ,~>
!<;`mJcEXfJ,~>
kl?;7ci8L~>
kl?;7ci8L~>
kl?;7ci8L~>
rrDfnmJqh<f)L7~>
rrDfnmJqh<f)L7~>
rrDfnmJqh<f)L7~>
rrDBboDjIBh#Dm~>
rrDBboDjIBh#Dm~>
rrDBboDjIBh#Dm~>
rrD-[p&K[DiW"E~>
rrD-[p&K[DiW"E~>
rrD-[p&K[DiW"E~>
rrCpUpAfdEk5Tr~>
rrCpUpAfdEk5Tr~>
rrCpUpAfdEk5Tr~>
rrCaPp],mFlMlA~>
rrCaPp],mFlMlA~>
rrCaPp],mFlMlA~>
rrCRKq>c*HmJh\~>
rrCRKq>c*HmJh\~>
rrCRKq>c*HmJh\~>
rrCFGq>c*Hnc++~>
rrCFGq>c*Hnc++~>
rrCFGq>c*Hnc++~>
rrC=Dq>c*Ho`'F~>
rrC=Dq>c*Ho`'F~>
rrC=Dq>c*Ho`'F~>
rrC1@qZ)3Ip]#a~>
rrC1@qZ)3Ip]#a~>
rrC1@qZ)3Ip]#a~>
rrC(=qZ)3IqYu'~>
rrC(=qZ)3IqYu'~>
rrC(=qZ)3IqYu'~>
rrBt:qZ)3IrVqB~>
rrBt:qZ)3IrVqB~>
rrBt:qZ)3IrVqB~>
rrBk7qZ)3I!<7Q~>
rrBk7qZ)3I!<7Q~>
rrBk7qZ)3I!<7Q~>
rrBb4quD?KJ,~>
rrBb4quD?KJ,~>
rrBb4quD?KJ,~>
rrBY1quDHNJ,~>
rrBY1quDHNJ,~>
rrBY1quDHNJ,~>
rrBS/quDNPJ,~>
rrBS/quDNPJ,~>
rrBS/quDNPJ,~>
rrBJ,r;_]SJ,~>
rrBJ,r;_]SJ,~>
rrBJ,r;_]SJ,~>
rrBD*r;_cUJ,~>
rrBD*r;_cUJ,~>
rrBD*r;_cUJ,~>
rrB>(quDcWJ,~>
rrB>(quDcWJ,~>
rrB>(quDcWJ,~>
rrB8&quDiYJ,~>
rrB8&quDiYJ,~>
rrB8&quDiYJ,~>
rrB/#r;`#\J,~>
rrB/#r;`#\J,~>
rrB/#r;`#\J,~>
rrB)!r;`)^J,~>
rrB)!r;`)^J,~>
rrB)!r;`)^J,~>
rrB"tr;`/`J,~>
rrB"tr;`/`J,~>
rrB"tr;`/`J,~>
rrAqrrW&;bJ,~>
rrAqrrW&;bJ,~>
rrAqrrW&;bJ,~>
rrAkprW&AdJ,~>
rrBA)!!)ZkrW&AdJ,~>
rrAkprW&AdJ,~>
rrAhor;`>eJ,~>
rrBD*quHHjr;`>eJ,~>
rrAhor;`>eJ,~>
rrAbmr;`DgJ,~>
rrBD*q>g6hr;`DgJ,~>
rrAbmr;`DgJ,~>
rrA\krW&PiJ,~>
rrBD*p]1$frW&PiJ,~>
rrA\krW&PiJ,~>
rrAVirW&VkJ,~>
rrBG+o`4adr;`MjJ,~>
rrAVirW&VkJ,~>
rrAShr;`SlJ,~>
rrBG+oDn[dqZ*AjJ,~>
rrAShr;`SlJ,~>
rrAMfrW&_nJ,~>
rrBJ,nGrFcq>d;jJ,~>
rrAMfrW&_nJ,~>
rrAGdrW&epJ,~>
rrBJ,mf<7bq#I8kJ,~>
rrAGdrW&epJ,~>
rrADcrW&hqJ,~>
rrBM-li?q_q>dDmJ,~>
rrADcrW&hqJ,~>
rrA>arW&nsJ,~>
rrBG+mK!.ap].8mJ,~>
rrA>arW&nsJ,~>
rrA;`rW&qtJ,~>
rrBA)n,WCdqZ-ZrrW&qtJ,~>
rrA;`rW&qtJ,~>
rrA5^rW'#!J,~>
rrBA)nGrIdqZ-TprW'#!J,~>
rrA5^rW'#!J,~>
rrA2]rW'&"J,~>
rrBD*mf<=dq#LBnrW'&"J,~>
rrA2]rW'&"J,~>
rrA,[rW',$J,~>
rrBD*m/[1dpAk0lrW',$J,~>
rrA,[rW',$J,~>
rrA)ZrW'/%J,~>
rrBG+hZ3WTrW'/%J,~>
rrA)ZrW'/%J,~>
rrA#XrrB;'J,~>
rrBG+h#RERrrB;'J,~>
rrA#XrrB;'J,~>
rr@uWrW'8(J,~>
rrBG+g]7<QrW'8(J,~>
rr@uWrW'8(J,~>
rr@rVrW';)J,~>
rrBJ,li@(cnGrOfrW';)J,~>
rr@rVrW';)J,~>
rr@lTrrBG+J,~>
rrBJ,m/[+bo)SXerrBG+J,~>
rr@lTrrBG+J,~>
rr@iSrrBJ,J,~>
rrBM-li?q_p&OmfrrBJ,J,~>
rr@iSrrBJ,J,~>
rr@fRrW'G-J,~>
rrBM-l2^h`oDn[drW'G-J,~>
rr@fRrW'G-J,~>
rr@cQrW'J.J,~>
rrBP.kPtV_nGrCbrW'J.J,~>
rr@cQrW'J.J,~>
rr@]OrrBV0J,~>
rrBJ,fDt^HrrBV0J,~>
rr@]OrrBV0J,~>
rr@ZNrrBY1J,~>
rrBD*g&UmIrrBY1J,~>
rr@ZNrrBY1J,~>
rr@WMrrB\2J,~>
rrBG+g&UgGrrB\2J,~>
rr@WMrrB\2J,~>
rr@WM!<<#u^&NT~>
rrBG+g&UdFrW'Y3J,~>
rr@WM!<<#u^&NT~>
rr@WMs8W&u^Ai]~>
rrBJ,fDtRDrW'\4J,~>
rr@WMs8W&u^Ai]~>
rr@WMrVult^]/f~>
rrBJ,f)YFBrrBh6J,~>
rr@WMrVult^]/f~>
rr@WMr;Zcs_#Jo~>
rrBM-eH#4@rrBk7J,~>
rr@WMr;Zcs_#Jo~>
rr@WMqu?Zr_>f#~>
rrBM-ec>7?rrBn8J,~>
rr@WMqu?Zr_>f#~>
rr@WMqZ$Qq_Z,,~>
rrBP.ec>1=rrBq9J,~>
rr@WMqZ$Qq_Z,,~>
rr@WMq>^Hp_uG5~>
rrBP.eH#(<rrBt:J,~>
rr@WMq>^Hp_uG5~>
rr@WMq#C?o`;b>~>
rrBP.kl:_`m/ZVTrrC";J,~>
rr@WMq#C?o`;b>~>
rr@WMp](6n`W(G~>
rrBJ,lN$tbm/ZVTrrC%<J,~>
rr@WMp](6n`W(G~>
rr@WMpAb-m`rCP~>
rrBG+m/[+bmJu\TrrC(=J,~>
rr@WMpAb-m`rCP~>
rr@WMp&G$la8^Y~>
rrBJ,m/[%`mf;bTrrC+>J,~>
rr@WMp&G$la8^Y~>
rr@WMo`+pkaT$b~>
rrBJ,m/[(amf;\RrrC.?J,~>
rr@WMo`+pkaT$b~>
rr@WMoDegjao?k~>
rrBM-m/[(amf;VPrrC1@J,~>
rr@WMoDegjao?k~>
rr@WMo)J^ib5Zt~>
rrBM-li@"an,VYOrrC4AJ,~>
rr@WMo)J^ib5Zt~>
rr@WMnc/UhbQ!(~>
rrBP.kl:_`mJuGMrrC7BJ,~>
rr@WMnc/UhbQ!(~>
rr@WMnGiLgbl<1~>
rrBJ,lMpqbm/Z>LrrC:CJ,~>
rr@WMnGiLgbl<1~>
rr@WMn,NCfc2W:~>
rrBD*mK!7dm/Z>LrrC=DJ,~>
rr@WMn,NCfc2W:~>
rr@WMmf3:ecMrC~>
rrBG+m/[(amf;MMrrC@EJ,~>
rr@WMmf3:ecMrC~>
rr@WMmJm1dci8L~>
rrBJ,m/[(amf;GKrrCCFJ,~>
rr@WMmJm1dci8L~>
rr@WMm/R(cd/SU~>
rrBJ,mK!.amf;DJrrCFGJ,~>
rr@WMm/R(cd/SU~>
rr@WMm/R(cd/SU~>
rrBM-m/[(am/Z5IrrCFGJ,~>
rr@WMm/R(cd/SU~>
rr@WMli6tbdJn^~>
rrBM-lN$tblN$#GrrCIHJ,~>
rr@WMli6tbdJn^~>
rr@WMlMpkadf4g~>
rrBJ,e,\P/rrCLIJ,~>
rr@WMlMpkadf4g~>
rr@WMl2Ub`e,Op~>
rrBG+m/[1dlN#rErrCOJJ,~>
rr@WMl2Ub`e,Op~>
rr@WMkl:Y_eGk%~>
rrBG+m/[.cm/Z)ErrCRKJ,~>
rr@WMkl:Y_eGk%~>
rr@WMkPtP^ec1.~>
rrBG+mK!1bm/Z)ErrCULJ,~>
rr@WMkPtP^ec1.~>
rr@WMkPtP^ec1.~>
rrBJ,mK!1blN#oDrrCULJ,~>
rr@WMkPtP^ec1.~>
rr@WMk5YG]f)L7~>
rrBM-mK!.al2]fCrrCXMJ,~>
rr@WMk5YG]f)L7~>
rr@WMjo>>\fDg@~>
rrBM-m/[(alN#iBrrC[NJ,~>
rr@WMjo>>\fDg@~>
rr@WMjT#5[f`-I~>
rrBM-lN$k_mJu)CrrC^OJ,~>
rr@WMjT#5[f`-I~>
rr@WMjT#5[f`-I~>
rrBG+m/[(amf;/CrrC^OJ,~>
rr@WMjT#5[f`-I~>
rr@WMj8],Zg&HR~>
rrBG+mK!.an,V2BrrCaPJ,~>
rr@WMj8],Zg&HR~>
rr@WMirB#YgAc[~>
rrBG+mK!1bmf;&@rrCdQJ,~>
rr@WMirB#YgAc[~>
rr@WMiW&oXg])d~>
rrBJ,mK!1bm/Yi>rrCgRJ,~>
rr@WMiW&oXg])d~>
rr@WMiW&oXg])d~>
rrBG+n,WCdlN#Z=rrCgRJ,~>
rr@WMiW&oXg])d~>
rr@WMi;`fWh#Dm~>
rrBD*nGrLelN#W<rrCjSJ,~>
rr@WMi;`fWh#Dm~>
rr@WMhuE]Vh>`!~>
rrBD*n,WCdm/Yc<rrCmTJ,~>
rr@WMhuE]Vh>`!~>
rr@WMhZ*TUhZ&*~>
rrBD*mf<:cmf:o<rrCpUJ,~>
rr@WMhZ*TUhZ&*~>
rr@WMhZ*TUhZ&*~>
rrBG+mK!1bmJti<rrCpUJ,~>
rr@WMhZ*TUhZ&*~>
rr@WMh>dKThuA3~>
rrBA)nGrLeli>W:rrCsVJ,~>
rr@WMh>dKThuA3~>
rr@WMh#IBSi;\<~>
rrB>(o)S[flN#N9rrD!WJ,~>
rr@WMh#IBSi;\<~>
rr@WMh#IBSi;\<~>
rrBA)o)SUdm/Y]:rrD!WJ,~>
rr@WMh#IBSi;\<~>
rr@WMg].9RiW"E~>
rrBD*nc8Ibmf:i:rrD$XJ,~>
rr@WMg].9RiW"E~>
rr@WMgAh0Qir=N~>
rrBD*nGrCbmf:f9rrD'YJ,~>
rr@WMgAh0Qir=N~>
rr@WMgAh0Qir=N~>
rrBG+mf<7bm/YW8rrD'YJ,~>
rr@WMgAh0Qir=N~>
rr@WMg&M'Pj8XW~>
rrBJ,mK!.ali>N7rrD*ZJ,~>
rr@WMg&M'Pj8XW~>
rr@WMg&M'Pj8XW~>
rrBD*nGrCbm/YW8rrD*ZJ,~>
rr@WMg&M'Pj8XW~>
rr@WMf`1sOjSs`~>
rrBA)nc8Ibmf:c8rrD-[J,~>
rr@WMf`1sOjSs`~>
rr@WMfDkjNjo9i~>
rrB>(nc8OdmJtW6rrD0\J,~>
rr@WMfDkjNjo9i~>
rr@WMfDkjNjo9i~>
rrB8&o)S^gli>H5rrD0\J,~>
rr@WMfDkjNjo9i~>
rr@WMf)PaMk5Tr~>
rrB;'o)S[fli>E4rrD3]J,~>
rr@WMf)PaMk5Tr~>
nc47@j8],Zk5Tr~>
nc6E(o)SUdm/YN5rrD3]J,~>
nc47@j8],Zk5Tr~>
!<;EdJcFs6rrD6^J,~>
!<;Ed`;fE/q#Bd_cN!nEkPp&~>
!<;EdJcFs6rrD6^J,~>
o)JFaJcG'9rrD9_J,~>
o)JFaa8b`2qZ#s`c2[eDkl6/~>
o)JFaJcG'9rrD9_J,~>
m/Qk]JcG3=rrD9_J,~>
m/Qk]b5_&5r;Z*`cN!nEkl6/~>
m/Qk]JcG3=rrD9_J,~>
kl:JZJcG9?rrD<`J,~>
kl:JZcN!J9qZ#p_c2[eDl2Q8~>
kl:JZJcG9?rrD<`J,~>
jT#)WJcGBBrrD<`J,~>
jT#)Wdf8n=q#Ba^c2[eDl2Q8~>
jT#)WJcGBBrrD<`J,~>
iW&fUJcGECrrD?aJ,~>
iW&fUe,T">q>]m`bQ%SBlMlA~>
iW&fUJcGECrrD?aJ,~>
hZ*KRJcGNFrrD?aJ,~>
hZ*KRec54@qu?'abQ%SBlMlA~>
hZ*KRJcGNFrrD?aJ,~>
h#I9PJcGQGrrDBbJ,~>
h#I9PfDkCArVu6bb5_JAli2J~>
h#I9PJcGQGrrDBbJ,~>
g&M!NJcGWIrrDBbJ,~>
g&M!NgAgXBrVu6bbQ%SBli2J~>
g&M!NJcGWIrrDBbJ,~>
fDkdLJcGZJrrDEcJ,~>
fDkdLh#HgCrVu9cb5_JAm/MS~>
fDkdLJcGZJrrDEcJ,~>
ec5RJJcG`LrrDEcJ,~>
ec5RJh>d!Fqu?-caoDA@m/MS~>
ec5RJJcG`LrrDEcJ,~>
e,T@HJcGcMrrDHdJ,~>
e,T@HhZ*0Iq>]sbaT)8?mJh\~>
e,T@HJcGcMrrDHdJ,~>
dJs.FJcG`MmJh\~>
dJs.FiW&HKq>]sbaT)8?mJh\~>
dJs.FJcG`MmJh\~>
ci<tEJcG`Mmf.e~>
ci<tEj8\TKqZ$$baT)8?mf.e~>
ci<tEJcG`Mmf.e~>
c2[bCKE(rOmf.e~>
c2[bCjT"`Mqu?*baT)8?mf.e~>
c2[bCKE(rOmf.e~>
bl@VAK`D&Pn,In~>
bl@VAjo=oPqZ$$b`rH&=n,In~>
bl@VAK`D&Pn,In~>
b5_G@L&_/Qn,In~>
b5_G@jo=rQq>^!c`W,r<n,In~>
b5_G@L&_/Qn,In~>
aT)8?L&_/QnGe"~>
aT)8?jo=uRq>]sb`W,r<nGe"~>
aT)8?L&_/QnGe"~>
a8c,=L]@ASnGe"~>
a8c,=kl:5Squ?*b`rH&=nGe"~>
a8c,=L]@ASnGe"~>
`rH#<L]@ASnc++~>
`rH#<lMpASrVu9c`W,r<nc++~>
`rH#<L]@ASnc++~>
`;fi;M#[JTnc++~>
`;fi;li6GSrVu9c`rH&=nc++~>
`;fi;M#[JTnc++~>
_uK]9MZ<\Vnc++~>
_uK]9m/QSUr;Z3c`rH&=nc++~>
_uK]9MZ<\Vnc++~>
_Z0T8MZ<\Vo)F4~>
_Z0T8mJl_Wqu?'a`rH&=o)F4~>
_Z0T8MZ<\Vo)F4~>
_#OE7MuWeWo)F4~>
_#OE7n,MqYq>]sb`;fi;o)F4~>
_#OE7MuWeWo)F4~>
^]4<6MuWeWoDa=~>
^]4<6nGi"Yq>^!c_uK`:oDa=~>
^]4<6MuWeWoDa=~>
^An35N;rnXoDa=~>
^An35nGi"YqZ$*d_uK`:oDa=~>
^An35N;rnXoDa=~>
^&S*4NW9"YoDa=~>
^&S*4nc/+Zq>^!c`;fi;oDa=~>
^&S*4NW9"YoDa=~>
]`8!3NW9"Yo`'F~>
]`8!3nc/+Zq>^$d_uK`:o`'F~>
]`8!3NW9"Yo`'F~>
]Dqm2NrT+Zo`'F~>
]Dqm2nc/+Zqu?9g_>jN8o`'F~>
]Dqm2NrT+Zo`'F~>
])Vd1NrT+Zp&BO~>
])Vd1oDe@]qu?3e_#OE7p&BO~>
])Vd1NrT+Zp&BO~>
\c;[0O8o4[p&BO~>
\c;[0p&FR_q>^!c_>jN8p&BO~>
\c;[0O8o4[p&BO~>
\GuR/OT5=\p&BO~>
\GuR/p&FR_q>^$d_>jN8p&BO~>
\GuR/OT5=\p&BO~>
\,ZI.OT5=\pA]X~>
\,ZI.pAaX_qZ$*d_>jN8pA]X~>
\,ZI.OT5=\pA]X~>
[f?@-OoPF]pA]X~>
[f?@-p]'a`q>^$d_>jN8pA]X~>
[f?@-OoPF]pA]X~>
[K$7,P5kO^pA]X~>
[K$7,q>]m`qZ$*d_Z0W9pA]X~>
[K$7,P5kO^pA]X~>
[/^.+P5kO^p]#a~>
[/^.+qZ#s`qu?6f_#OE7p]#a~>
[/^.+P5kO^p]#a~>
[/^.+P5kO^p]#a~>
[/^.+qZ$$bqu?6f^An35p]#a~>
[/^.+P5kO^p]#a~>
ZiC%*PQ1X_p]#a~>
ZiC%*qZ$*dqZ$*d^]4<6p]#a~>
ZiC%*PQ1X_p]#a~>
ZN'q)PQ1X_q#>j~>
ZN'q)qZ$*dqZ$-e^An35q#>j~>
ZN'q)PQ1X_q#>j~>
Z2ah(PlLa`q#>j~>
Z2ah(qu?3eq>^$d^]4<6q#>j~>
Z2ah(PlLa`q#>j~>
YlF_'Q2gjaq#>j~>
YlF_'rVu?eqZ$-e^]4<6q#>j~>
YlF_'Q2gjaq#>j~>
YlF_'PlLa`q>Ys~>
YlF_'rr;BdqZ$-e^]4<6q>Ys~>
YlF_'PlLa`q>Ys~>
YQ+V&Q2gjaq>Ys~>
YQ+V&rr;EeqZ$-e^]4<6q>Ys~>
YQ+V&Q2gjaq>Ys~>
Y5eM%QN-sbq>Ys~>
Y5eM%s8VThp]'md^An35q>Ys~>
Y5eM%QN-sbq>Ys~>
Y5eM%Q2gjaqYu'~>
Y5eM%rr;Nhp]'pe]`8!3qYu'~>
Y5eM%Q2gjaqYu'~>
XoJD$QN-sbqYu'~>
XoJD$rr;Qip]'pe]`8!3qYu'~>
XoJD$QN-sbqYu'~>
XT/;#QiI'cqYu'~>
XT.\gqZ$0f]`8!3qYu'~>
XT/;#QiI'cqYu'~>
XT/;#QiI'cqYu'~>
XT.\gqZ$-e^&S*4qYu'~>
XT/;#QiI'cqYu'~>
X8i2"QiI'cqu;0~>
X8hSfqZ$0f]`8!3qu;0~>
X8i2"QiI'cqu;0~>
X8i2"QiI'cqu;0~>
X8hSfqZ$-e^&S*4qu;0~>
X8i2"QiI'cqu;0~>
WrN)!R/d0dqu;0~>
WrMJeqZ$3g]`8!3qu;0~>
WrN)!R/d0dqu;0~>
WW2tuRK*9equ;0~>
WW2DeqZ$9i])Vd1qu;0~>
WW2tuRK*9equ;0~>
WW2tuR/d0dr;V9~>
WW2Gfq>^-g])Vd1r;V9~>
WW2tuR/d0dr;V9~>
W;lktRK*9er;V9~>
W;lDgp]'sf])Vd1r;V9~>
W;lktRK*9er;V9~>
W;lktRK*9er;V9~>
W;lDgp]'sf])Vd1r;V9~>
W;lktRK*9er;V9~>
VuQbsRfEBfr;V9~>
VuQ>gpAaje]Dqm2r;V9~>
VuQbsRfEBfr;V9~>
VuQbsRK*9erVqB~>
VuQ;fp]'sf])Vd1rVqB~>
VuQbsRK*9erVqB~>
VZ6YrRfEBfrVqB~>
VZ65fp]'sf])Vd1rVqB~>
VZ6YrRfEBfrVqB~>
VZ6YrRfEBfrVqB~>
VZ62ep](*j\,ZI.rVqB~>
VZ6YrRfEBfrVqB~>
V>pPqS,`KgrVqB~>
V>p,ep]('i\GuR/rVqB~>
V>pPqS,`KgrVqB~>
V>pPqS,`KgrVqB~>
V>p,ep]('i\GuR/rVqB~>
V>pPqS,`KgrVqB~>
V>pPqRfEBfrr7K~>
V>p/fq>^0h\,ZI.rr7K~>
V>pPqRfEBfrr7K~>
V#UGpS,`Kgrr7K~>
V#U,gp]'sf\GuR/rr7K~>
V#UGpS,`Kgrr7K~>
V#UGpS,`Kgrr7K~>
V#U,gp]'sf\GuR/rr7K~>
V#UGpS,`Kgrr7K~>
U]:>oSH&Thrr7K~>
U]:#fq#C'g\GuR/rr7K~>
U]:>oSH&Thrr7K~>
U]:>oSH&Thrr7K~>
U]:#fp](*j[K$7,rr7K~>
U]:>oSH&Thrr7K~>
U]:>oS,`Kgs8RT~>
U]:#fp](6n!<;ut[K$7,s8RT~>
U]:>oS,`Kgs8RT~>
UAt5nSH&Ths8RT~>
UAsoeo`+mj[K$7,s8RT~>
UAt5nSH&Ths8RT~>
UAt5nSH&Ths8RT~>
UAsoeo`+pk[/^.+s8RT~>
UAt5nSH&Ths8RT~>
UAt5nSH&Ths8RT~>
UAsoeV>pPqs8RT~>
UAt5nSH&Ths8RT~>
U&Y,mScA]is8RT~>
U&XrhUAt5ns8RT~>
U&Y,mScA]is8RT~>
U&Y,mScA]is8RT~>
U&XrhUAt5ns8RT~>
U&Y,mScA]is8RT~>
U&Y,mScA]is8RT~>
U&XogU]:>os8RT~>
U&Y,mScA]is8RT~>
U&Y,mSH&Th!<7Q~>
U&XogUAt5n!<7Q~>
U&Y,mSH&Th!<7Q~>
T`>#lScA]i!<7Q~>
T`=igUAt5n!<7Q~>
T`>#lScA]i!<7Q~>
T`>#lScA]i!<7Q~>
T`=igUAt5n!<7Q~>
T`>#lScA]i!<7Q~>
T`>#lScA]i!<7Q~>
T`=ffU]:>o!<7Q~>
T`>#lScA]i!<7Q~>
T`>#lScA]i!<7Q~>
T`=ffU]:>o!<7Q~>
T`>#lScA]i!<7Q~>
TE"okT)\fj!<7Q~>
TE"iiT`>#l!<7Q~>
TE"okT)\fj!<7Q~>
TE"okT)\fj!<7Q~>
TE"iiT`>#l!<7Q~>
TE"okT)\fj!<7Q~>
TE"okT)\fj!<7Q~>
TE"iiT`>#l!<7Q~>
TE"okT)\fj!<7Q~>
TE"okT)\fj!<7Q~>
TE"iiT`>#l!<7Q~>
TE"okT)\fj!<7Q~>
TE"okScA]iJ,~>
TE"fhT`>#lJ,~>
TE"okScA]iJ,~>
T)\fjT)\fjJ,~>
T)\ciTE"okJ,~>
T)\fjT)\fjJ,~>
T)\fjT)\fjJ,~>
T)\fjT)\fjJ,~>
T)\fjT)\fjJ,~>
T)\fjT)\fjJ,~>
T)\fjT)\fjJ,~>
T)\fjT)\fjJ,~>
T)\fjT)\fjJ,~>
T)\fjT)\fjJ,~>
T)\fjT)\fjJ,~>
T)\fjT)\fjJ,~>
T)\fjT)\fjJ,~>
T)\fjT)\fjJ,~>
T)\fjT)\fjJ,~>
T)\fjT)\fjJ,~>
T)\fjT)\fjJ,~>
T)\fjT)\fjJ,~>
T)\fjT)\fjJ,~>
T)\fjT)\fjJ,~>
ScA]iTE"okJ,~>
ScA]iTE"okJ,~>
ScA]iTE"okJ,~>
ScA]iTE"okJ,~>
ScA]iTE"okJ,~>
ScA]iTE"okJ,~>
ScA]iTE"okJ,~>
ScA]iTE"okJ,~>
ScA]iTE"okJ,~>
ScA]iTE"okJ,~>
ScA]iTE"okJ,~>
ScA]iTE"okJ,~>
ScA]iTE"okJ,~>
ScA]iTE"okJ,~>
ScA]iTE"okJ,~>
ScA]iTE"okJ,~>
ScA]iTE"okJ,~>
ScA]iTE"okJ,~>
ScA]iTE"okJ,~>
ScA]iTE"okJ,~>
ScA]iTE"okJ,~>
ScA]iTE"okJ,~>
ScA]iTE"okJ,~>
ScA]iTE"okJ,~>
ScA]iTE"okJ,~>
ScA]iTE"okJ,~>
ScA]iTE"okJ,~>
Sc>/ZJ,~>
Sc>/ZJ,~>
Sc>/ZJ,~>
SH#,[!<7Q~>
SH#,[!<7Q~>
SH#,[!<7Q~>
%%EndData
showpage
%%Trailer
end
%%EOF
