%!PS-Adobe-3.0 EPSF-3.0
%%Creator: GIMP PostScript file plugin V 1.17 by Peter Kirchgessner
%%Title: E2a_Est11_032-016_T1.eps
%%CreationDate: Tue Jul 30 14:22:55 2013
%%DocumentData: Clean7Bit
%%LanguageLevel: 2
%%Pages: 1
%%BoundingBox: 14 14 112 112
%%EndComments
%%BeginProlog
% Use own dictionary to avoid conflicts
10 dict begin
%%EndProlog
%%Page: 1 1
% Translate for offset
14.173228346456694 14.173228346456694 translate
% Translate to begin of first scanline
0 97.424807047633905 translate
96.944881889763792 -97.424807047633905 scale
% Image geometry
202 203 8
% Transformation matrix
[ 202 0 0 203 0 0 ]
% Strings to hold RGB-samples per scanline
/rstr 202 string def
/gstr 202 string def
/bstr 202 string def
{currentfile /ASCII85Decode filter /RunLengthDecode filter rstr readstring pop}
{currentfile /ASCII85Decode filter /RunLengthDecode filter gstr readstring pop}
{currentfile /ASCII85Decode filter /RunLengthDecode filter bstr readstring pop}
true 3
%%BeginData:        10972 ASCII Bytes
colorimage
!<;`mJcEXfJ,~>
!<;`mJcEXfJ,~>
!<;`mJcEXfJ,~>
kl?;7ci8L~>
kl?;7ci8L~>
kl?;7ci8L~>
rrDfnmJqh<f)L7~>
rrDfnmJqh<f)L7~>
rrDfnmJqh<f)L7~>
rrDBboDjIBh#Dm~>
rrDBboDjIBh#Dm~>
rrDBboDjIBh#Dm~>
rrD-[p&K[DiW"E~>
rrD-[p&K[DiW"E~>
rrD-[p&K[DiW"E~>
rrCpUpAfdEk5Tr~>
rrCpUpAfdEk5Tr~>
rrCpUpAfdEk5Tr~>
rrCaPp],mFlMlA~>
rrCaPp],mFlMlA~>
rrCaPp],mFlMlA~>
rrCRKq>c*HmJh\~>
rrCRKq>c*HmJh\~>
rrCRKq>c*HmJh\~>
rrCFGq>c*Hnc++~>
rrCFGq>c*Hnc++~>
rrCFGq>c*Hnc++~>
rrC=Dq>c*Ho`'F~>
rrC=Dq>c*Ho`'F~>
rrC=Dq>c*Ho`'F~>
rrC1@qZ)3Ip]#a~>
rrC1@qZ)3Ip]#a~>
rrC1@qZ)3Ip]#a~>
rrC(=qZ)3IqYu'~>
rrC(=qZ)3IqYu'~>
rrC(=qZ)3IqYu'~>
rrBt:qZ)3IrVqB~>
rrBt:qZ)3IrVqB~>
rrBt:qZ)3IrVqB~>
rrBk7qZ)3I!<7Q~>
rrBk7qZ)3I!<7Q~>
rrBk7qZ)3I!<7Q~>
rrBb4quD?KJ,~>
rrBb4quD?KJ,~>
rrBb4quD?KJ,~>
rrBY1quDHNJ,~>
rrBY1quDHNJ,~>
rrBY1quDHNJ,~>
rrBS/quDNPJ,~>
rrBS/quDNPJ,~>
rrBS/quDNPJ,~>
rrBJ,r;_]SJ,~>
rrBJ,r;_]SJ,~>
rrBJ,r;_]SJ,~>
rrBD*r;_cUJ,~>
rrBD*r;_cUJ,~>
rrBD*r;_cUJ,~>
rrB>(quDcWJ,~>
rrB>(quDcWJ,~>
rrB>(quDcWJ,~>
rrB8&quDiYJ,~>
rrB8&quDiYJ,~>
rrB8&quDiYJ,~>
rrB/#r;`#\J,~>
rrB/#r;`#\J,~>
rrB/#r;`#\J,~>
rrB)!r;`)^J,~>
rrB)!r;`)^J,~>
rrB)!r;`)^J,~>
rrB"tr;`/`J,~>
rrB"tr;`/`J,~>
rrB"tr;`/`J,~>
rrAqrrW&;bJ,~>
rrAqrrW&;bJ,~>
rrAqrrW&;bJ,~>
rrAkprW&AdJ,~>
rrBA)!!)ZkrW&AdJ,~>
rrAkprW&AdJ,~>
rrAhor;`>eJ,~>
rrBD*r;cNjr;`>eJ,~>
rrAhor;`>eJ,~>
rrAbmr;`DgJ,~>
rrBD*q>g6hr;`DgJ,~>
rrAbmr;`DgJ,~>
rrA\krW&PiJ,~>
rrBD*p]1$frW&PiJ,~>
rrA\krW&PiJ,~>
rrAVirW&VkJ,~>
rrBG+o`4^crW&VkJ,~>
rrAVirW&VkJ,~>
rrAShr;`SlJ,~>
rrBG+oDnUbr;`SlJ,~>
rrAShr;`SlJ,~>
rrAMfrW&_nJ,~>
rrBJ,nGr:_rW&_nJ,~>
rrAMfrW&_nJ,~>
rrAGdrW&epJ,~>
rrBJ,mf<(]rW&epJ,~>
rrAGdrW&epJ,~>
rrADcrW&hqJ,~>
rrBM-li?e[rW&hqJ,~>
rrADcrW&hqJ,~>
rrA>arW&nsJ,~>
rrBM-l2^SYrW&nsJ,~>
rrA>arW&nsJ,~>
rrA;`rW&qtJ,~>
rrBP.kQ(AWrW&qtJ,~>
rrA;`rW&qtJ,~>
rrA5^rW'#!J,~>
rrBP.joG/UrW'#!J,~>
rrA5^rW'#!J,~>
rrA2]rW'&"J,~>
rrBS/j8erSrW'&"J,~>
rrA2]rW'&"J,~>
rrA,[rW',$J,~>
rrBS/iW/`QrW',$J,~>
rrA,[rW',$J,~>
rrA)ZrW'/%J,~>
rrBS/huNQPrW'/%J,~>
rrA)ZrW'/%J,~>
rrA#XrrB;'J,~>
rrBV0h>m<MrrB;'J,~>
rrA#XrrB;'J,~>
rr@uWrW'8(J,~>
rrBV0h#R3LrW'8(J,~>
rr@uWrW'8(J,~>
rr@rVrW';)J,~>
rrBV0gAq$KrW';)J,~>
rr@rVrW';)J,~>
rr@lTrrBG+J,~>
rrBP.g]7*KrrBG+J,~>
rr@lTrrBG+J,~>
rr@iSrrBJ,J,~>
rrBJ,g]7-LrrBJ,J,~>
rr@iSrrBJ,J,~>
rr@fRrW'G-J,~>
rrBA)h>m?NrW'G-J,~>
rr@fRrW'G-J,~>
rr@cQrW'J.J,~>
rrBA)h#R6MrW'J.J,~>
rr@cQrW'J.J,~>
rr@]OrrBV0J,~>
rrBD*g&UpJrrBV0J,~>
rr@]OrrBV0J,~>
rr@ZNrrBY1J,~>
rrBD*f`:gIrrBY1J,~>
rr@ZNrrBY1J,~>
rr@WMrrB\2J,~>
rrBG+f)YUGrrB\2J,~>
rr@WMrrB\2J,~>
rr@WM!<<#u^&NT~>
rrBG+eH#FFrW'Y3J,~>
rr@WM!<<#u^&NT~>
rr@WMs8W&u^Ai]~>
rrBJ,e,]:DrW'\4J,~>
rr@WMs8W&u^Ai]~>
rr@WMrVult^]/f~>
rrBJ,eH#:BrrBh6J,~>
rr@WMrVult^]/f~>
rr@WMr;Zcs_#Jo~>
rrBM-eH#4@rrBk7J,~>
rr@WMr;Zcs_#Jo~>
rr@WMqu?Zr_>f#~>
rrBM-ec>7?rrBn8J,~>
rr@WMqu?Zr_>f#~>
rr@WMqZ$Qq_Z,,~>
rrBP.ec>1=rrBq9J,~>
rr@WMqZ$Qq_Z,,~>
rr@WMq>^Hp_uG5~>
rrBP.eH#(<rrBt:J,~>
rr@WMq>^Hp_uG5~>
rr@WMq#C?o`;b>~>
rrBS/dfAk:rrC";J,~>
rr@WMq#C?o`;b>~>
rr@WMp](6n`W(G~>
rrBS/dK&b9rrC%<J,~>
rr@WMp](6n`W(G~>
rr@WMpAb-m`rCP~>
rrBV0cN*J7rrC(=J,~>
rr@WMpAb-m`rCP~>
rr@WMp&G$la8^Y~>
rrBV0c2dA6rrC+>J,~>
rr@WMp&G$la8^Y~>
rr@WMo`+pkaT$b~>
rrBY1bQ./4rrC.?J,~>
rr@WMo`+pkaT$b~>
rr@WMoDegjao?k~>
rrBY1bQ.,3rrC1@J,~>
rr@WMoDegjao?k~>
rr@WMo)J^ib5Zt~>
rrBV0c2d83rrC4AJ,~>
rr@WMo)J^ib5Zt~>
rr@WMnc/UhbQ!(~>
rrBP.d/`M4rrC7BJ,~>
rr@WMnc/UhbQ!(~>
rr@WMnGiLgbl<1~>
rrBJ,dfA\5rrC:CJ,~>
rr@WMnGiLgbl<1~>
rr@WMn,NCfc2W:~>
rrBD*ec=q6rrC=DJ,~>
rr@WMn,NCfc2W:~>
rr@WMmf3:ecMrC~>
rrBG+ec=k4rrC@EJ,~>
rr@WMmf3:ecMrC~>
rr@WMmJm1dci8L~>
rrBJ,ec=e2rrCCFJ,~>
rr@WMmJm1dci8L~>
rr@WMm/R(cd/SU~>
rrBJ,f)Xh1rrCFGJ,~>
rr@WMm/R(cd/SU~>
rr@WMm/R(cd/SU~>
rrBM-f)Xe0rrCFGJ,~>
rr@WMm/R(cd/SU~>
rr@WMli6tbdJn^~>
rrBM-fDsh/rrCIHJ,~>
rr@WMli6tbdJn^~>
rr@WMlMpkadf4g~>
rrBP.ec=V-rrCLIJ,~>
rr@WMlMpkadf4g~>
rr@WMl2Ub`e,Op~>
rrBP.eH"M,rrCOJJ,~>
rr@WMl2Ub`e,Op~>
rr@WMkl:Y_eGk%~>
rrBS/dfA;*rrCRKJ,~>
rr@WMkl:Y_eGk%~>
rr@WMkPtP^ec1.~>
rrBV0ciE#(rrCULJ,~>
rr@WMkPtP^ec1.~>
rr@WMkPtP^ec1.~>
rrBV0cN)r(rrCULJ,~>
rr@WMkPtP^ec1.~>
rr@WMk5YG]f)L7~>
rrBV0c2ci'rrCXMJ,~>
rr@WMk5YG]f)L7~>
rr@WMjo>>\fDg@~>
rrBS/ciDu'rrC[NJ,~>
rr@WMjo>>\fDg@~>
rr@WMjT#5[f`-I~>
rrBM-dfA5(rrC^OJ,~>
rr@WMjT#5[f`-I~>
rr@WMjT#5[f`-I~>
rrBG+m/R.dlN#`?rrC^OJ,~>
rr@WMjT#5[f`-I~>
rr@WMj8],Zg&HR~>
rrBG+mK!7dm/Yl?rrCaPJ,~>
rr@WMj8],Zg&HR~>
rr@WMirB#YgAc[~>
rrBG+mK!4cmJtr?rrCdQJ,~>
rr@WMirB#YgAc[~>
rr@WMiW&oXg])d~>
rrBJ,mK!.amJtr?rrCgRJ,~>
rr@WMiW&oXg])d~>
rr@WMiW&oXg])d~>
rrBM-mK!%^mf;)ArrCgRJ,~>
rr@WMiW&oXg])d~>
rr@WMi;`fWh#Dm~>
rrBM-mK!"]mf;)ArrCjSJ,~>
rr@WMi;`fWh#Dm~>
rr@WMhuE]Vh>`!~>
rrBP.li?k]m/Yl?rrCmTJ,~>
rr@WMhuE]Vh>`!~>
rr@WMhZ*TUhZ&*~>
rrBJ,m/[%`lN#Z=rrCpUJ,~>
rr@WMhZ*TUhZ&*~>
rr@WMhZ*TUhZ&*~>
rrBG+li@%bl2]Q<rrCpUJ,~>
rr@WMhZ*TUhZ&*~>
rr@WMh>dKThuA3~>
rrBA)m/R.dl2]K:rrCsVJ,~>
rr@WMh>dKThuA3~>
rr@WMh#IBSi;\<~>
rrB>(mJm7elN#N9rrD!WJ,~>
rr@WMh#IBSi;\<~>
rr@WMh#IBSi;\<~>
rrBA)mK!7dm/Y]:rrD!WJ,~>
rr@WMh#IBSi;\<~>
rr@WMg].9RiW"E~>
rrBD*mK!1bmf:i:rrD$XJ,~>
rr@WMg].9RiW"E~>
rr@WMgAh0Qir=N~>
rrBD*mf<4an,Uo:rrD'YJ,~>
rr@WMgAh0Qir=N~>
rr@WMgAh0Qir=N~>
rrBG+mf<._n,Ur;rrD'YJ,~>
rr@WMgAh0Qir=N~>
rr@WMg&M'Pj8XW~>
rrBJ,mK!"]n,Ur;rrD*ZJ,~>
rr@WMg&M'Pj8XW~>
rr@WMg&M'Pj8XW~>
rrBD*nGr=`mJtc:rrD*ZJ,~>
rr@WMg&M'Pj8XW~>
rr@WMf`1sOjSs`~>
rrBA)o)SObli>Q8rrD-[J,~>
rr@WMf`1sOjSs`~>
rr@WMfDkjNjo9i~>
rrB>(o`4adl2]?6rrD0\J,~>
rr@WMfDkjNjo9i~>
rr@WMfDkjNjo9i~>
rrB8&p]1'gklB65rrD0\J,~>
rr@WMfDkjNjo9i~>
rr@WMf)PaMk5Tr~>
rrB;'p&OmflN#?4rrD3]J,~>
rr@WMf)PaMk5Tr~>
nc47@j8],Zk5Tr~>
nc6E(oDn[dm/YN5rrD3]J,~>
nc47@j8],Zk5Tr~>
!<;EdJcFs6rrD6^J,~>
!<;Ed`W,K/q#Bd_cN!nEkPp&~>
!<;EdJcFs6rrD6^J,~>
o)JFaJcG'9rrD9_J,~>
o)JFaaoCl2q#Bg`c2[eDkl6/~>
o)JFaJcG'9rrD9_J,~>
m/Qk]JcG3=rrD9_J,~>
m/Qk]cN!>5q#Bg`cN!nEkl6/~>
m/Qk]JcG3=rrD9_J,~>
kl:JZJcG9?rrD<`J,~>
kl:JZd/WV9pAaX_c2[eDl2Q8~>
kl:JZJcG9?rrD<`J,~>
jT#)WJcGBBrrD<`J,~>
jT#)Wdf8n=p]'X]cN!nEl2Q8~>
jT#)WJcGBBrrD<`J,~>
iW&fUJcGECrrD?aJ,~>
iW&fUe,T(@p]'R[cN!nElMlA~>
iW&fUJcGECrrD?aJ,~>
hZ*KRJcGNFrrD?aJ,~>
hZ*KRec5@Dp]'LYci="FlMlA~>
hZ*KRJcGNFrrD?aJ,~>
h#I9PJcGQGrrDBbJ,~>
h#I9Pec5CEq>][ZcN!nEli2J~>
h#I9PJcGQGrrDBbJ,~>
g&M!NJcGWIrrDBbJ,~>
g&M!Nf)POGq#BX[c2[eDli2J~>
g&M!NJcGWIrrDBbJ,~>
fDkdLJcGZJrrDEcJ,~>
fDkdLfDkXHq#Ba^b5_JAm/MS~>
fDkdLJcGZJrrDEcJ,~>
ec5RJJcG`LrrDEcJ,~>
ec5RJf`1aIq#Bg`aoDA@m/MS~>
ec5RJJcG`LrrDEcJ,~>
e,T@HJcGcMrrDHdJ,~>
e,T@HgAgpJq#BjaaT)8?mJh\~>
e,T@HJcGcMrrDHdJ,~>
dJs.FJcG`MmJh\~>
dJs.Fh>d0Kq>]sbaT)8?mJh\~>
dJs.FJcG`MmJh\~>
ci<tEJcG`Mmf.e~>
ci<tEhuE<KqZ$$baT)8?mf.e~>
ci<tEJcG`Mmf.e~>
c2[bCKE(rOmf.e~>
c2[bCirAQLr;Z0baoDA@mf.e~>
c2[bCKE(rOmf.e~>
bl@VAK`D&Pn,In~>
bl@VAjo=fMrr;?caT)8?n,In~>
bl@VAK`D&Pn,In~>
b5_G@L&_/Qn,In~>
b5_G@jo=!6aoDA@n,In~>
b5_G@L&_/Qn,In~>
aT)8?L&_/QnGe"~>
aT)8?jo=lO!<;9`aoDA@nGe"~>
aT)8?L&_/QnGe"~>
a8c,=L]@ASnGe"~>
a8c,=k5Y&Rrr;<ba8c/>nGe"~>
a8c,=L]@ASnGe"~>
`rH#<L]@ASnc++~>
`rH#<k5Y,Tr;Z0b`W,r<nc++~>
`rH#<L]@ASnc++~>
`;fi;M#[JTnc++~>
`;fi;kPt;Wq>]sb_uK`:nc++~>
`;fi;M#[JTnc++~>
_uK]9MZ<\Vnc++~>
_uK]9lMpPXqZ$'c_uK`:nc++~>
_uK]9MZ<\Vnc++~>
_Z0T8MZ<\Vo)F4~>
_Z0T8mJleYq>^!c_Z0W9o)F4~>
_Z0T8MZ<\Vo)F4~>
_#OE7MuWeWo)F4~>
_#OE7n,MqYq>^!c_uK`:o)F4~>
_#OE7MuWeWo)F4~>
^]4<6MuWeWoDa=~>
^]4<6nGi"Yq>^!c_uK`:oDa=~>
^]4<6MuWeWoDa=~>
^An35N;rnXoDa=~>
^An35nGi"YqZ$*d_uK`:oDa=~>
^An35N;rnXoDa=~>
^&S*4NW9"YoDa=~>
^&S*4nc/+Zq>^!c`;fi;oDa=~>
^&S*4NW9"YoDa=~>
]`8!3NW9"Yo`'F~>
]`8!3nc/+Zq>^$d_uK`:o`'F~>
]`8!3NW9"Yo`'F~>
]Dqm2NrT+Zo`'F~>
]Dqm2nc/+Zqu?9g_>jN8o`'F~>
]Dqm2NrT+Zo`'F~>
])Vd1NrT+Zp&BO~>
])Vd1oDe:[rVuKi^An35p&BO~>
])Vd1NrT+Zp&BO~>
\c;[0O8o4[p&BO~>
\c;[0p&FF[s8V]k^&S*4p&BO~>
\c;[0O8o4[p&BO~>
\GuR/OT5=\p&BO~>
\GuR/p]'U\!<;Wj^&S*4p&BO~>
\GuR/OT5=\p&BO~>
\,ZI.OT5=\pA]X~>
\,ZI.q>]g^s8VWi^&S*4pA]X~>
\,ZI.OT5=\pA]X~>
[f?@-OoPF]pA]X~>
[f?@-qZ$!ar;Z<f^An35pA]X~>
[f?@-OoPF]pA]X~>
[K$7,P5kO^pA]X~>
[K$7,qZ$'cqZ$-e^An35pA]X~>
[K$7,P5kO^pA]X~>
[/^.+P5kO^p]#a~>
[/^.+qZ$*dqZ$*d^An35p]#a~>
[/^.+P5kO^p]#a~>
[/^.+P5kO^p]#a~>
[/^.+qZ$'cqZ$-e^An35p]#a~>
[/^.+P5kO^p]#a~>
ZiC%*PQ1X_p]#a~>
ZiC%*qZ$*dqZ$*d^]4<6p]#a~>
ZiC%*PQ1X_p]#a~>
ZN'q)PQ1X_q#>j~>
ZN'q)qZ$*dqZ$-e^An35q#>j~>
ZN'q)PQ1X_q#>j~>
Z2ah(PlLa`q#>j~>
Z2ah(qZ$-eq>^$d^]4<6q#>j~>
Z2ah(PlLa`q#>j~>
YlF_'Q2gjaq#>j~>
YlF_'qu?3eqZ$-e^]4<6q#>j~>
YlF_'Q2gjaq#>j~>
YlF_'PlLa`q>Ys~>
YlF_'qZ$*dqZ$-e^]4<6q>Ys~>
YlF_'PlLa`q>Ys~>
YQ+V&Q2gjaq>Ys~>
YQ+V&rVu?eqZ$-e^]4<6q>Ys~>
YQ+V&Q2gjaq>Ys~>
Y5eM%QN-sbq>Ys~>
Y5eM%s8VKeqZ$3g^An35q>Ys~>
Y5eM%QN-sbq>Ys~>
Y5eM%Q2gjaqYu'~>
Y5dbeqZ$<j])Vd1qYu'~>
Y5eM%Q2gjaqYu'~>
XoJD$QN-sbqYu'~>
XoI\eq>^9k\c;[0qYu'~>
XoJD$QN-sbqYu'~>
XT/;#QiI'cqYu'~>
XT.\gp]('i\c;[0qYu'~>
XT/;#QiI'cqYu'~>
XT/;#QiI'cqYu'~>
XT.bio`+dg\c;[0qYu'~>
XT/;#QiI'cqYu'~>
X8i2"QiI'cqu;0~>
X8h_joDeXe\c;[0qu;0~>
X8i2"QiI'cqu;0~>
X8i2"QiI'cqu;0~>
X8h\ioDe[f\c;[0qu;0~>
X8i2"QiI'cqu;0~>
WrN)!R/d0dqu;0~>
WrMVioDeXe])Vd1qu;0~>
WrN)!R/d0dqu;0~>
WW2tuRK*9equ;0~>
WW2Mho`+af])Vd1qu;0~>
WW2tuRK*9equ;0~>
WW2tuR/d0dr;V9~>
WW2MhoDeXe])Vd1r;V9~>
WW2tuR/d0dr;V9~>
W;lktRK*9er;V9~>
W;lDgo`+af])Vd1r;V9~>
W;lktRK*9er;V9~>
W;lktRK*9er;V9~>
W;lDgpAamf])Vd1r;V9~>
W;lktRK*9er;V9~>
VuQbsRfEBfr;V9~>
VuQ>gq#C!e]Dqm2r;V9~>
VuQbsRfEBfr;V9~>
VuQbsRK*9erVqB~>
VuQ;fqZ$0f])Vd1rVqB~>
VuQbsRK*9erVqB~>
VZ6YrRfEBfrVqB~>
VZ65fqZ$0f])Vd1rVqB~>
VZ6YrRfEBfrVqB~>
VZ6YrRfEBfrVqB~>
VZ62equ?Bj\,ZI.rVqB~>
VZ6YrRfEBfrVqB~>
V>pPqS,`KgrVqB~>
V>p,eqZ$Em[/^.+rVqB~>
V>pPqS,`KgrVqB~>
V>pPqS,`KgrVqB~>
V>p,eqZ$NpZ2ah(rVqB~>
V>pPqS,`KgrVqB~>
V>pPqRfEBfrr7K~>
V>p)dVuQbsrr7K~>
V>pPqRfEBfrr7K~>
V#UGpS,`Kgrr7K~>
V#U#dVuQbsrr7K~>
V#UGpS,`Kgrr7K~>
V#UGpS,`Kgrr7K~>
V#TucW;lktrr7K~>
V#UGpS,`Kgrr7K~>
U]:>oSH&Thrr7K~>
U]:#fV>pPqrr7K~>
U]:>oSH&Thrr7K~>
U]:>oSH&Thrr7K~>
U]:,iUAt5nrr7K~>
U]:>oSH&Thrr7K~>
U]:>oS,`Kgs8RT~>
U]:,iU&Y,ms8RT~>
U]:>oS,`Kgs8RT~>
UAt5nSH&Ths8RT~>
UAt&iU&Y,ms8RT~>
UAt5nSH&Ths8RT~>
UAt5nSH&Ths8RT~>
UAt#hUAt5ns8RT~>
UAt5nSH&Ths8RT~>
UAt5nSH&Ths8RT~>
UAt#hUAt5ns8RT~>
UAt5nSH&Ths8RT~>
U&Y,mScA]is8RT~>
U&XrhUAt5ns8RT~>
U&Y,mScA]is8RT~>
U&Y,mScA]is8RT~>
U&XrhUAt5ns8RT~>
U&Y,mScA]is8RT~>
U&Y,mScA]is8RT~>
U&XogU]:>os8RT~>
U&Y,mScA]is8RT~>
U&Y,mSH&Th!<7Q~>
U&XogUAt5n!<7Q~>
U&Y,mSH&Th!<7Q~>
T`>#lScA]i!<7Q~>
T`=igUAt5n!<7Q~>
T`>#lScA]i!<7Q~>
T`>#lScA]i!<7Q~>
T`=igUAt5n!<7Q~>
T`>#lScA]i!<7Q~>
T`>#lScA]i!<7Q~>
T`=ffU]:>o!<7Q~>
T`>#lScA]i!<7Q~>
T`>#lScA]i!<7Q~>
T`=ffU]:>o!<7Q~>
T`>#lScA]i!<7Q~>
TE"okT)\fj!<7Q~>
TE"`fU]:>o!<7Q~>
TE"okT)\fj!<7Q~>
TE"okT)\fj!<7Q~>
TE"`fU]:>o!<7Q~>
TE"okT)\fj!<7Q~>
TE"okT)\fj!<7Q~>
TE"`fU]:>o!<7Q~>
TE"okT)\fj!<7Q~>
TE"okT)\fj!<7Q~>
TE"okT)\fj!<7Q~>
TE"okT)\fj!<7Q~>
TE"okScA]iJ,~>
TE"okScA]iJ,~>
TE"okScA]iJ,~>
T)\fjT)\fjJ,~>
T)\fjT)\fjJ,~>
T)\fjT)\fjJ,~>
T)\fjT)\fjJ,~>
T)\fjT)\fjJ,~>
T)\fjT)\fjJ,~>
T)\fjT)\fjJ,~>
T)\fjT)\fjJ,~>
T)\fjT)\fjJ,~>
T)\fjT)\fjJ,~>
T)\fjT)\fjJ,~>
T)\fjT)\fjJ,~>
T)\fjT)\fjJ,~>
T)\fjT)\fjJ,~>
T)\fjT)\fjJ,~>
T)\fjT)\fjJ,~>
T)\fjT)\fjJ,~>
T)\fjT)\fjJ,~>
T)\fjT)\fjJ,~>
T)\fjT)\fjJ,~>
T)\fjT)\fjJ,~>
ScA]iTE"okJ,~>
ScA]iTE"okJ,~>
ScA]iTE"okJ,~>
ScA]iTE"okJ,~>
ScA]iTE"okJ,~>
ScA]iTE"okJ,~>
ScA]iTE"okJ,~>
ScA]iTE"okJ,~>
ScA]iTE"okJ,~>
ScA]iTE"okJ,~>
ScA]iTE"okJ,~>
ScA]iTE"okJ,~>
ScA]iTE"okJ,~>
ScA]iTE"okJ,~>
ScA]iTE"okJ,~>
ScA]iTE"okJ,~>
ScA]iTE"okJ,~>
ScA]iTE"okJ,~>
ScA]iTE"okJ,~>
ScA]iTE"okJ,~>
ScA]iTE"okJ,~>
ScA]iTE"okJ,~>
ScA]iTE"okJ,~>
ScA]iTE"okJ,~>
ScA]iTE"okJ,~>
ScA]iTE"okJ,~>
ScA]iTE"okJ,~>
Sc>/ZJ,~>
Sc>/ZJ,~>
Sc>/ZJ,~>
SH#,[!<7Q~>
SH#,[!<7Q~>
SH#,[!<7Q~>
%%EndData
showpage
%%Trailer
end
%%EOF
