%!PS-Adobe-3.0 EPSF-3.0
%%Creator: GIMP PostScript file plugin V 1.17 by Peter Kirchgessner
%%Title: E2a_Exact_032-016_T1.eps
%%CreationDate: Tue Jul 30 14:27:11 2013
%%DocumentData: Clean7Bit
%%LanguageLevel: 2
%%Pages: 1
%%BoundingBox: 14 14 112 112
%%EndComments
%%BeginProlog
% Use own dictionary to avoid conflicts
10 dict begin
%%EndProlog
%%Page: 1 1
% Translate for offset
14.173228346456694 14.173228346456694 translate
% Translate to begin of first scanline
0 97.424807047633905 translate
96.944881889763792 -97.424807047633905 scale
% Image geometry
202 203 8
% Transformation matrix
[ 202 0 0 203 0 0 ]
% Strings to hold RGB-samples per scanline
/rstr 202 string def
/gstr 202 string def
/bstr 202 string def
{currentfile /ASCII85Decode filter /RunLengthDecode filter rstr readstring pop}
{currentfile /ASCII85Decode filter /RunLengthDecode filter gstr readstring pop}
{currentfile /ASCII85Decode filter /RunLengthDecode filter bstr readstring pop}
true 3
%%BeginData:        12707 ASCII Bytes
colorimage
!<;`mJcEXfJ,~>
!<;`mJcEXfJ,~>
!<;`mJcEXfJ,~>
kl?;7ci8L~>
kl?;7ci8L~>
kl?;7ci8L~>
rrDfnmJqh<f)L7~>
rrDfnmJqh<f)L7~>
rrDfnmJqh<f)L7~>
rrDBboDjIBh#Dm~>
rrDBboDjIBh#Dm~>
rrDBboDjIBh#Dm~>
rrD-[p&K[DiW"E~>
rrD-[p&K[DiW"E~>
rrD-[p&K[DiW"E~>
rrCpUpAfdEk5Tr~>
rrCpUpAfdEk5Tr~>
rrCpUpAfdEk5Tr~>
rrCaPp],mFlMlA~>
rrCaPp],mFlMlA~>
rrCaPp],mFlMlA~>
rrCRKq>c*HmJh\~>
rrCRKq>c*HmJh\~>
rrCRKq>c*HmJh\~>
rrCFGq>c*Hnc++~>
rrCFGq>c*Hnc++~>
rrCFGq>c*Hnc++~>
rrC=Dq>c*Ho`'F~>
rrC=Dq>c*Ho`'F~>
rrC=Dq>c*Ho`'F~>
rrC1@qZ)3Ip]#a~>
rrC1@qZ)3Ip]#a~>
rrC1@qZ)3Ip]#a~>
rrC(=qZ)3IqYu'~>
rrC(=qZ)3IqYu'~>
rrC(=qZ)3IqYu'~>
rrBt:qZ)3IrVqB~>
rrBt:qZ)3IrVqB~>
rrBt:qZ)3IrVqB~>
rrBk7qZ)3I!<7Q~>
rrBk7qZ)3I!<7Q~>
rrBk7qZ)3I!<7Q~>
rrBb4quD?KJ,~>
rrBb4quD?KJ,~>
rrBb4quD?KJ,~>
rrBY1quDHNJ,~>
rrBY1quDHNJ,~>
rrBY1quDHNJ,~>
rrBS/quDNPJ,~>
rrBS/quDNPJ,~>
rrBS/quDNPJ,~>
rrBJ,r;_]SJ,~>
rrBJ,r;_]SJ,~>
rrBJ,r;_]SJ,~>
rrBD*r;_cUJ,~>
rrBD*r;_cUJ,~>
rrBD*r;_cUJ,~>
rrB>(quDcWJ,~>
rrB>(quDcWJ,~>
rrB>(quDcWJ,~>
rrB8&quDiYJ,~>
rrB8&quDiYJ,~>
rrB8&quDiYJ,~>
rrB/#r;`#\J,~>
rrB/#r;`#\J,~>
rrB/#r;`#\J,~>
rrB)!r;`)^J,~>
rrB)!r;`)^J,~>
rrB)!r;`)^J,~>
rrB"tr;`/`J,~>
rrB"tr;`/`J,~>
rrB"tr;`/`J,~>
rrAqrrW&;bJ,~>
rrAqrrW&;bJ,~>
rrAqrrW&;bJ,~>
rrBA)!!)ZkrW&AdJ,~>
rrBA)!!)ZkrW&AdJ,~>
rrBA)!!)ZkrW&AdJ,~>
rrBD*r;cNjr;`>eJ,~>
rrBD*r;cNjr;`>eJ,~>
rrBD*r;cNjr;`>eJ,~>
rrBD*q>g6hr;`DgJ,~>
rrBD*q>g6hr;`DgJ,~>
rrBD*q>g6hr;`DgJ,~>
rrBD*p]1$frW&PiJ,~>
rrBD*p]1$frW&PiJ,~>
rrBD*p]1$frW&PiJ,~>
rrBG+o`4^crW&VkJ,~>
rrBG+o`4^crW&VkJ,~>
rrBG+o`4^crW&VkJ,~>
rrBG+oDnUbr;`SlJ,~>
rrBG+oDnUbr;`SlJ,~>
rrBG+oDnUbr;`SlJ,~>
rrBJ,nGr:_rW&_nJ,~>
rrBJ,nGr:_rW&_nJ,~>
rrBJ,nGr:_rW&_nJ,~>
rrBJ,mf<(]rW&epJ,~>
rrBJ,mf<(]rW&epJ,~>
rrBJ,mf<(]rW&epJ,~>
rrBM-li?e[rW&hqJ,~>
rrBM-li?e[rW&hqJ,~>
rrBM-li?e[rW&hqJ,~>
rrBM-l2^SYrW&nsJ,~>
rrBM-l2^SYrW&nsJ,~>
rrBM-l2^SYrW&nsJ,~>
rrBP.kQ(AWrW&qtJ,~>
rrBP.kQ(AWrW&qtJ,~>
rrBP.kQ(AWrW&qtJ,~>
rrBP.joG/UrW'#!J,~>
rrBP.joG/UrW'#!J,~>
rrBP.joG/UrW'#!J,~>
rrBS/j8erSrW'&"J,~>
rrBS/j8erSrW'&"J,~>
rrBS/j8erSrW'&"J,~>
rrBS/iW/`QrW',$J,~>
rrBS/iW/`QrW',$J,~>
rrBS/iW/`QrW',$J,~>
rrBS/huNQPrW'/%J,~>
rrBS/huNQPrW'/%J,~>
rrBS/huNQPrW'/%J,~>
rrBV0h>m<MrrB;'J,~>
rrBV0h>m<MrrB;'J,~>
rrBV0h>m<MrrB;'J,~>
rrBV0h#R3LrW'8(J,~>
rrBV0h#R3LrW'8(J,~>
rrBV0h#R3LrW'8(J,~>
rrBV0gAq$KrW';)J,~>
rrBV0gAq$KrW';)J,~>
rrBV0gAq$KrW';)J,~>
rrBP.g]7*KrrBG+J,~>
rrBP.g]7*KrrBG+J,~>
rrBP.g]7*KrrBG+J,~>
rrBJ,g]7-LrrBJ,J,~>
rrBJ,g]7-LrrBJ,J,~>
rrBJ,g]7-LrrBJ,J,~>
rrBA)h>m?NrW'G-J,~>
rrBA)h>m?NrW'G-J,~>
rrBA)h>m?NrW'G-J,~>
rrBA)h#R6MrW'J.J,~>
rrBA)h#R6MrW'J.J,~>
rrBA)h#R6MrW'J.J,~>
rrBD*g&UpJrrBV0J,~>
rrBD*g&UpJrrBV0J,~>
rrBD*g&UpJrrBV0J,~>
rrBD*f`:gIrrBY1J,~>
rrBD*f`:gIrrBY1J,~>
rrBD*f`:gIrrBY1J,~>
rrBG+f)YUGrrB\2J,~>
rrBG+f)YUGrrB\2J,~>
rrBG+f)YUGrrB\2J,~>
rrBG+eH#FFrW'Y3J,~>
rrBG+eH#FFrW'Y3J,~>
rrBG+eH#FFrW'Y3J,~>
rrBJ,e,]:DrW'\4J,~>
rrBJ,e,]:DrW'\4J,~>
rrBJ,e,]:DrW'\4J,~>
rrBJ,eH#:BrrBh6J,~>
rrBJ,eH#:BrrBh6J,~>
rrBJ,eH#:BrrBh6J,~>
rrBM-eH#4@rrBk7J,~>
rrBM-eH#4@rrBk7J,~>
rrBM-eH#4@rrBk7J,~>
rrBM-ec>7?rrBn8J,~>
rrBM-ec>7?rrBn8J,~>
rrBM-ec>7?rrBn8J,~>
rrBP.ec>1=rrBq9J,~>
rrBP.ec>1=rrBq9J,~>
rrBP.ec>1=rrBq9J,~>
rrBP.eH#(<rrBt:J,~>
rrBP.eH#(<rrBt:J,~>
rrBP.eH#(<rrBt:J,~>
rrBS/dfAk:rrC";J,~>
rrBS/dfAk:rrC";J,~>
rrBS/dfAk:rrC";J,~>
rrBS/dK&b9rrC%<J,~>
rrBS/dK&b9rrC%<J,~>
rrBS/dK&b9rrC%<J,~>
rrBV0cN*J7rrC(=J,~>
rrBV0cN*J7rrC(=J,~>
rrBV0cN*J7rrC(=J,~>
rrBV0c2dA6rrC+>J,~>
rrBV0c2dA6rrC+>J,~>
rrBV0c2dA6rrC+>J,~>
rrBY1bQ./4rrC.?J,~>
rrBY1bQ./4rrC.?J,~>
rrBY1bQ./4rrC.?J,~>
rrBY1bQ.,3rrC1@J,~>
rrBY1bQ.,3rrC1@J,~>
rrBY1bQ.,3rrC1@J,~>
rrBV0c2d83rrC4AJ,~>
rrBV0c2d83rrC4AJ,~>
rrBV0c2d83rrC4AJ,~>
rrBP.d/`M4rrC7BJ,~>
rrBP.d/`M4rrC7BJ,~>
rrBP.d/`M4rrC7BJ,~>
rrBJ,dfA\5rrC:CJ,~>
rrBJ,dfA\5rrC:CJ,~>
rrBJ,dfA\5rrC:CJ,~>
rrBD*ec=q6rrC=DJ,~>
rrBD*ec=q6rrC=DJ,~>
rrBD*ec=q6rrC=DJ,~>
rrBG+ec=k4rrC@EJ,~>
rrBG+ec=k4rrC@EJ,~>
rrBG+ec=k4rrC@EJ,~>
rrBJ,ec=e2rrCCFJ,~>
rrBJ,ec=e2rrCCFJ,~>
rrBJ,ec=e2rrCCFJ,~>
rrBJ,f)Xh1rrCFGJ,~>
rrBJ,f)Xh1rrCFGJ,~>
rrBJ,f)Xh1rrCFGJ,~>
rrBM-f)Xe0rrCFGJ,~>
rrBM-f)Xe0rrCFGJ,~>
rrBM-f)Xe0rrCFGJ,~>
rrBM-fDsh/rrCIHJ,~>
rrBM-fDsh/rrCIHJ,~>
rrBM-fDsh/rrCIHJ,~>
rrBJ,fDsh/rrCLIJ,~>
rrBJ,fDsh/rrCLIJ,~>
rrBJ,fDsh/rrCLIJ,~>
rrBG+fDsh/rrCOJJ,~>
rrBG+fDsh/rrCOJJ,~>
rrBG+fDsh/rrCOJJ,~>
rrBA)f`9q0rrCRKJ,~>
rrBA)f`9q0rrCRKJ,~>
rrBA)f`9q0rrCRKJ,~>
rrB>(fDsk0rrCULJ,~>
rrB>(fDsk0rrCULJ,~>
rrB>(fDsk0rrCULJ,~>
rrB;'fDsn1rrCULJ,~>
rrB;'fDsn1rrCULJ,~>
rrB;'fDsn1rrCULJ,~>
rrB>(ec=\/rrCXMJ,~>
rrB>(ec=\/rrCXMJ,~>
rrB>(ec=\/rrCXMJ,~>
rrBA)ec=V-rrC[NJ,~>
rrBA)ec=V-rrC[NJ,~>
rrBA)ec=V-rrC[NJ,~>
rrBA)f)XY,rrC^OJ,~>
rrBA)f)XY,rrC^OJ,~>
rrBA)f)XY,rrC^OJ,~>
rrBD*mJm7elN#`?rrC^OJ,~>
rrBD*mJm7elN#`?rrC^OJ,~>
rrBD*mJm7elN#`?rrC^OJ,~>
rrBG+mK!7dm/Yl?rrCaPJ,~>
rrBG+mK!7dm/Yl?rrCaPJ,~>
rrBG+mK!7dm/Yl?rrCaPJ,~>
rrBG+mK!4cmJtr?rrCdQJ,~>
rrBG+mK!4cmJtr?rrCdQJ,~>
rrBG+mK!4cmJtr?rrCdQJ,~>
rrBJ,mK!.amJtr?rrCgRJ,~>
rrBJ,mK!.amJtr?rrCgRJ,~>
rrBJ,mK!.amJtr?rrCgRJ,~>
rrBM-mK!%^mf;)ArrCgRJ,~>
rrBM-mK!%^mf;)ArrCgRJ,~>
rrBM-mK!%^mf;)ArrCgRJ,~>
rrBM-mK!"]mf;)ArrCjSJ,~>
rrBM-mK!"]mf;)ArrCjSJ,~>
rrBM-mK!"]mf;)ArrCjSJ,~>
rrBP.li?k]m/Yl?rrCmTJ,~>
rrBP.li?k]m/Yl?rrCmTJ,~>
rrBP.li?k]m/Yl?rrCmTJ,~>
rrBJ,m/[%`lN#Z=rrCpUJ,~>
rrBJ,m/[%`lN#Z=rrCpUJ,~>
rrBJ,m/[%`lN#Z=rrCpUJ,~>
rrBG+li@%bl2]Q<rrCpUJ,~>
rrBG+li@%bl2]Q<rrCpUJ,~>
rrBG+li@%bl2]Q<rrCpUJ,~>
rrBA)m/R.dl2]K:rrCsVJ,~>
rrBA)m/R.dl2]K:rrCsVJ,~>
rrBA)m/R.dl2]K:rrCsVJ,~>
rrB>(mJm7elN#N9rrD!WJ,~>
rrB>(mJm7elN#N9rrD!WJ,~>
rrB>(mJm7elN#N9rrD!WJ,~>
rrBA)mK!7dm/Y]:rrD!WJ,~>
rrBA)mK!7dm/Y]:rrD!WJ,~>
rrBA)mK!7dm/Y]:rrD!WJ,~>
rrBD*mK!1bmf:i:rrD$XJ,~>
rrBD*mK!1bmf:i:rrD$XJ,~>
rrBD*mK!1bmf:i:rrD$XJ,~>
rrBD*mf<4an,Uo:rrD'YJ,~>
rrBD*mf<4an,Uo:rrD'YJ,~>
rrBD*mf<4an,Uo:rrD'YJ,~>
rrBG+mf<._n,Ur;rrD'YJ,~>
rrBG+mf<._n,Ur;rrD'YJ,~>
rrBG+mf<._n,Ur;rrD'YJ,~>
rrBJ,mK!"]n,Ur;rrD*ZJ,~>
rrBJ,mK!"]n,Ur;rrD*ZJ,~>
rrBJ,mK!"]n,Ur;rrD*ZJ,~>
rrBD*nGr=`mJtc:rrD*ZJ,~>
rrBD*nGr=`mJtc:rrD*ZJ,~>
rrBD*nGr=`mJtc:rrD*ZJ,~>
rrBA)o)SObli>Q8rrD-[J,~>
rrBA)o)SObli>Q8rrD-[J,~>
rrBA)o)SObli>Q8rrD-[J,~>
rrB>(o`4adl2]?6rrD0\J,~>
rrB>(o`4adl2]?6rrD0\J,~>
rrB>(o`4adl2]?6rrD0\J,~>
rrB8&p]1'gklB65rrD0\J,~>
rrB8&p]1'gklB65rrD0\J,~>
rrB8&p]1'gklB65rrD0\J,~>
rrB;'p&OmflN#?4rrD3]J,~>
rrB;'p&OmflN#?4rrD3]J,~>
rrB;'p&OmflN#?4rrD3]J,~>
nc6E(oDn[dm/YN5rrD3]J,~>
nc6E(oDn[dm/YN5rrD3]J,~>
nc6E(oDn[dm/YN5rrD3]J,~>
!<;Ed`W,K/q#Bd_cN!nEkPp&~>
!<;Ed`W,K/q#Bd_cN!nEkPp&~>
!<;Ed`W,K/q#Bd_cN!nEkPp&~>
o)JFaaoCl2q#Bg`c2[eDkl6/~>
o)JFaaoCl2q#Bg`c2[eDkl6/~>
o)JFaaoCl2q#Bg`c2[eDkl6/~>
m/Qk]cN!>5q#Bg`cN!nEkl6/~>
m/Qk]cN!>5q#Bg`cN!nEkl6/~>
m/Qk]cN!>5q#Bg`cN!nEkl6/~>
kl:JZd/WP7q#Bjac2[eDl2Q8~>
kl:JZd/WP7q#Bjac2[eDl2Q8~>
kl:JZd/WP7q#Bjac2[eDl2Q8~>
jT#)Wdf8b9qu?'acN!nEl2Q8~>
jT#)Wdf8b9qu?'acN!nEl2Q8~>
jT#)Wdf8b9qu?'acN!nEl2Q8~>
iW&fUe,Sk:rVu3acN!nElMlA~>
iW&fUe,Sk:rVu3acN!nElMlA~>
iW&fUe,Sk:rVu3acN!nElMlA~>
hZ*KRec5(<s8V?aci="FlMlA~>
hZ*KRec5(<s8V?aci="FlMlA~>
hZ*KRec5(<s8V?aci="FlMlA~>
h#I9Pec48%cN!nEli2J~>
h#I9Pec48%cN!nEli2J~>
h#I9Pec48%cN!nEli2J~>
g&M!Nf)P:@s8VBbc2[eDli2J~>
g&M!Nf)P:@s8VBbc2[eDli2J~>
g&M!Nf)P:@s8VBbc2[eDli2J~>
fDkdLfDkICrVu9cb5_JAm/MS~>
fDkdLfDkICrVu9cb5_JAm/MS~>
fDkdLfDkICrVu9cb5_JAm/MS~>
ec5RJf`1XFqu?-caoDA@m/MS~>
ec5RJf`1XFqu?-caoDA@m/MS~>
ec5RJf`1XFqu?-caoDA@m/MS~>
e,T@HgAgmIq>]sbaT)8?mJh\~>
e,T@HgAgmIq>]sbaT)8?mJh\~>
e,T@HgAgmIq>]sbaT)8?mJh\~>
dJs.Fh>d0Kq>]sbaT)8?mJh\~>
dJs.Fh>d0Kq>]sbaT)8?mJh\~>
dJs.Fh>d0Kq>]sbaT)8?mJh\~>
ci<tEhuE<KqZ$$baT)8?mf.e~>
ci<tEhuE<KqZ$$baT)8?mf.e~>
ci<tEhuE<KqZ$$baT)8?mf.e~>
c2[bCirAQLr;Z0baoDA@mf.e~>
c2[bCirAQLr;Z0baoDA@mf.e~>
c2[bCirAQLr;Z0baoDA@mf.e~>
bl@VAjo=fMrr;?caT)8?n,In~>
bl@VAjo=fMrr;?caT)8?n,In~>
bl@VAjo=fMrr;?caT)8?n,In~>
b5_G@jo=!6aoDA@n,In~>
b5_G@jo=!6aoDA@n,In~>
b5_G@jo=!6aoDA@n,In~>
aT)8?jo=lO!<;9`aoDA@nGe"~>
aT)8?jo=lO!<;9`aoDA@nGe"~>
aT)8?jo=lO!<;9`aoDA@nGe"~>
a8c,=k5Y&Rrr;<ba8c/>nGe"~>
a8c,=k5Y&Rrr;<ba8c/>nGe"~>
a8c,=k5Y&Rrr;<ba8c/>nGe"~>
`rH#<k5Y,Tr;Z0b`W,r<nc++~>
`rH#<k5Y,Tr;Z0b`W,r<nc++~>
`rH#<k5Y,Tr;Z0b`W,r<nc++~>
`;fi;kPt;Wq>]sb_uK`:nc++~>
`;fi;kPt;Wq>]sb_uK`:nc++~>
`;fi;kPt;Wq>]sb_uK`:nc++~>
_uK]9lMpPXqZ$'c_uK`:nc++~>
_uK]9lMpPXqZ$'c_uK`:nc++~>
_uK]9lMpPXqZ$'c_uK`:nc++~>
_Z0T8mJleYq>^!c_Z0W9o)F4~>
_Z0T8mJleYq>^!c_Z0W9o)F4~>
_Z0T8mJleYq>^!c_Z0W9o)F4~>
_#OE7n,MqYq>^!c_uK`:o)F4~>
_#OE7n,MqYq>^!c_uK`:o)F4~>
_#OE7n,MqYq>^!c_uK`:o)F4~>
^]4<6nGi"Yq>^!c_uK`:oDa=~>
^]4<6nGi"Yq>^!c_uK`:oDa=~>
^]4<6nGi"Yq>^!c_uK`:oDa=~>
^An35nGi"YqZ$*d_uK`:oDa=~>
^An35nGi"YqZ$*d_uK`:oDa=~>
^An35nGi"YqZ$*d_uK`:oDa=~>
^&S*4nc/+Zq>^!c`;fi;oDa=~>
^&S*4nc/+Zq>^!c`;fi;oDa=~>
^&S*4nc/+Zq>^!c`;fi;oDa=~>
]`8!3nc/+Zq>^$d_uK`:o`'F~>
]`8!3nc/+Zq>^$d_uK`:o`'F~>
]`8!3nc/+Zq>^$d_uK`:o`'F~>
]Dqm2nc/+Zqu?9g_>jN8o`'F~>
]Dqm2nc/+Zqu?9g_>jN8o`'F~>
]Dqm2nc/+Zqu?9g_>jN8o`'F~>
])Vd1oDe:[rVuKi^An35p&BO~>
])Vd1oDe:[rVuKi^An35p&BO~>
])Vd1oDe:[rVuKi^An35p&BO~>
\c;[0p&FF[s8V]k^&S*4p&BO~>
\c;[0p&FF[s8V]k^&S*4p&BO~>
\c;[0p&FF[s8V]k^&S*4p&BO~>
\GuR/p]'U\!<;Wj^&S*4p&BO~>
\GuR/p]'U\!<;Wj^&S*4p&BO~>
\GuR/p]'U\!<;Wj^&S*4p&BO~>
\,ZI.q>]g^s8VWi^&S*4pA]X~>
\,ZI.q>]g^s8VWi^&S*4pA]X~>
\,ZI.q>]g^s8VWi^&S*4pA]X~>
[f?@-qZ$!ar;Z<f^An35pA]X~>
[f?@-qZ$!ar;Z<f^An35pA]X~>
[f?@-qZ$!ar;Z<f^An35pA]X~>
[K$7,qZ$'cqZ$-e^An35pA]X~>
[K$7,qZ$'cqZ$-e^An35pA]X~>
[K$7,qZ$'cqZ$-e^An35pA]X~>
[/^.+qZ$*dqZ$*d^An35p]#a~>
[/^.+qZ$*dqZ$*d^An35p]#a~>
[/^.+qZ$*dqZ$*d^An35p]#a~>
[/^.+qZ$'cqZ$-e^An35p]#a~>
[/^.+qZ$'cqZ$-e^An35p]#a~>
[/^.+qZ$'cqZ$-e^An35p]#a~>
ZiC%*qZ$*dqZ$*d^]4<6p]#a~>
ZiC%*qZ$*dqZ$*d^]4<6p]#a~>
ZiC%*qZ$*dqZ$*d^]4<6p]#a~>
ZN'q)qZ$*dqZ$-e^An35q#>j~>
ZN'q)qZ$*dqZ$-e^An35q#>j~>
ZN'q)qZ$*dqZ$-e^An35q#>j~>
Z2ah(qZ$-eq>^$d^]4<6q#>j~>
Z2ah(qZ$-eq>^$d^]4<6q#>j~>
Z2ah(qZ$-eq>^$d^]4<6q#>j~>
YlF_'qu?3eqZ$-e^]4<6q#>j~>
YlF_'qu?3eqZ$-e^]4<6q#>j~>
YlF_'qu?3eqZ$-e^]4<6q#>j~>
YlF_'qZ$*dqZ$-e^]4<6q>Ys~>
YlF_'qZ$*dqZ$-e^]4<6q>Ys~>
YlF_'qZ$*dqZ$-e^]4<6q>Ys~>
YQ+V&rVu?eqZ$-e^]4<6q>Ys~>
YQ+V&rVu?eqZ$-e^]4<6q>Ys~>
YQ+V&rVu?eqZ$-e^]4<6q>Ys~>
Y5eM%s8VKeqZ$3g^An35q>Ys~>
Y5eM%s8VKeqZ$3g^An35q>Ys~>
Y5eM%s8VKeqZ$3g^An35q>Ys~>
Y5dbeqZ$<j])Vd1qYu'~>
Y5dbeqZ$<j])Vd1qYu'~>
Y5dbeqZ$<j])Vd1qYu'~>
XoI\eq>^9k\c;[0qYu'~>
XoI\eq>^9k\c;[0qYu'~>
XoI\eq>^9k\c;[0qYu'~>
XT.\gp]('i\c;[0qYu'~>
XT.\gp]('i\c;[0qYu'~>
XT.\gp]('i\c;[0qYu'~>
XT.bio`+dg\c;[0qYu'~>
XT.bio`+dg\c;[0qYu'~>
XT.bio`+dg\c;[0qYu'~>
X8h_joDeXe\c;[0qu;0~>
X8h_joDeXe\c;[0qu;0~>
X8h_joDeXe\c;[0qu;0~>
X8h\ioDe[f\c;[0qu;0~>
X8h\ioDe[f\c;[0qu;0~>
X8h\ioDe[f\c;[0qu;0~>
WrMVioDeXe])Vd1qu;0~>
WrMVioDeXe])Vd1qu;0~>
WrMVioDeXe])Vd1qu;0~>
WW2Mho`+af])Vd1qu;0~>
WW2Mho`+af])Vd1qu;0~>
WW2Mho`+af])Vd1qu;0~>
WW2MhoDeXe])Vd1r;V9~>
WW2MhoDeXe])Vd1r;V9~>
WW2MhoDeXe])Vd1r;V9~>
W;lDgo`+af])Vd1r;V9~>
W;lDgo`+af])Vd1r;V9~>
W;lDgo`+af])Vd1r;V9~>
W;lDgpAamf])Vd1r;V9~>
W;lDgpAamf])Vd1r;V9~>
W;lDgpAamf])Vd1r;V9~>
VuQ>gq#C!e]Dqm2r;V9~>
VuQ>gq#C!e]Dqm2r;V9~>
VuQ>gq#C!e]Dqm2r;V9~>
VuQ;fqZ$0f])Vd1rVqB~>
VuQ;fqZ$0f])Vd1rVqB~>
VuQ;fqZ$0f])Vd1rVqB~>
VZ65fqZ$0f])Vd1rVqB~>
VZ65fqZ$0f])Vd1rVqB~>
VZ65fqZ$0f])Vd1rVqB~>
VZ62equ?Bj\,ZI.rVqB~>
VZ62equ?Bj\,ZI.rVqB~>
VZ62equ?Bj\,ZI.rVqB~>
V>p,eqZ$Em[/^.+rVqB~>
V>p,eqZ$Em[/^.+rVqB~>
V>p,eqZ$Em[/^.+rVqB~>
V>p,eqZ$NpZ2ah(rVqB~>
V>p,eqZ$NpZ2ah(rVqB~>
V>p,eqZ$NpZ2ah(rVqB~>
V>p)dVuQbsrr7K~>
V>p)dVuQbsrr7K~>
V>p)dVuQbsrr7K~>
V#U#dVuQbsrr7K~>
V#U#dVuQbsrr7K~>
V#U#dVuQbsrr7K~>
V#TucW;lktrr7K~>
V#TucW;lktrr7K~>
V#TucW;lktrr7K~>
U]:#fV>pPqrr7K~>
U]:#fV>pPqrr7K~>
U]:#fV>pPqrr7K~>
U]:,iUAt5nrr7K~>
U]:,iUAt5nrr7K~>
U]:,iUAt5nrr7K~>
U]:,iU&Y,ms8RT~>
U]:,iU&Y,ms8RT~>
U]:,iU&Y,ms8RT~>
UAt&iU&Y,ms8RT~>
UAt&iU&Y,ms8RT~>
UAt&iU&Y,ms8RT~>
UAt#hUAt5ns8RT~>
UAt#hUAt5ns8RT~>
UAt#hUAt5ns8RT~>
UAt#hUAt5ns8RT~>
UAt#hUAt5ns8RT~>
UAt#hUAt5ns8RT~>
U&XrhUAt5ns8RT~>
U&XrhUAt5ns8RT~>
U&XrhUAt5ns8RT~>
U&XrhUAt5ns8RT~>
U&XrhUAt5ns8RT~>
U&XrhUAt5ns8RT~>
U&XogU]:>os8RT~>
U&XogU]:>os8RT~>
U&XogU]:>os8RT~>
U&XogUAt5n!<7Q~>
U&XogUAt5n!<7Q~>
U&XogUAt5n!<7Q~>
T`=igUAt5n!<7Q~>
T`=igUAt5n!<7Q~>
T`=igUAt5n!<7Q~>
T`=igUAt5n!<7Q~>
T`=igUAt5n!<7Q~>
T`=igUAt5n!<7Q~>
T`=ffU]:>o!<7Q~>
T`=ffU]:>o!<7Q~>
T`=ffU]:>o!<7Q~>
T`=ffU]:>o!<7Q~>
T`=ffU]:>o!<7Q~>
T`=ffU]:>o!<7Q~>
TE"`fU]:>o!<7Q~>
TE"`fU]:>o!<7Q~>
TE"`fU]:>o!<7Q~>
TE"`fU]:>o!<7Q~>
TE"`fU]:>o!<7Q~>
TE"`fU]:>o!<7Q~>
TE"`fU]:>o!<7Q~>
TE"`fU]:>o!<7Q~>
TE"`fU]:>o!<7Q~>
TE"okT)\fj!<7Q~>
TE"okT)\fj!<7Q~>
TE"okT)\fj!<7Q~>
TE"okScA]iJ,~>
TE"okScA]iJ,~>
TE"okScA]iJ,~>
T)\fjT)\fjJ,~>
T)\fjT)\fjJ,~>
T)\fjT)\fjJ,~>
T)\fjT)\fjJ,~>
T)\fjT)\fjJ,~>
T)\fjT)\fjJ,~>
T)\fjT)\fjJ,~>
T)\fjT)\fjJ,~>
T)\fjT)\fjJ,~>
T)\fjT)\fjJ,~>
T)\fjT)\fjJ,~>
T)\fjT)\fjJ,~>
T)\fjT)\fjJ,~>
T)\fjT)\fjJ,~>
T)\fjT)\fjJ,~>
T)\fjT)\fjJ,~>
T)\fjT)\fjJ,~>
T)\fjT)\fjJ,~>
T)\fjT)\fjJ,~>
T)\fjT)\fjJ,~>
T)\fjT)\fjJ,~>
ScA]iTE"okJ,~>
ScA]iTE"okJ,~>
ScA]iTE"okJ,~>
ScA]iTE"okJ,~>
ScA]iTE"okJ,~>
ScA]iTE"okJ,~>
ScA]iTE"okJ,~>
ScA]iTE"okJ,~>
ScA]iTE"okJ,~>
ScA]iTE"okJ,~>
ScA]iTE"okJ,~>
ScA]iTE"okJ,~>
ScA]iTE"okJ,~>
ScA]iTE"okJ,~>
ScA]iTE"okJ,~>
ScA]iTE"okJ,~>
ScA]iTE"okJ,~>
ScA]iTE"okJ,~>
ScA]iTE"okJ,~>
ScA]iTE"okJ,~>
ScA]iTE"okJ,~>
ScA]iTE"okJ,~>
ScA]iTE"okJ,~>
ScA]iTE"okJ,~>
ScA]iTE"okJ,~>
ScA]iTE"okJ,~>
ScA]iTE"okJ,~>
Sc>/ZJ,~>
Sc>/ZJ,~>
Sc>/ZJ,~>
SH#,[!<7Q~>
SH#,[!<7Q~>
SH#,[!<7Q~>
%%EndData
showpage
%%Trailer
end
%%EOF
