%!PS-Adobe-3.0 EPSF-3.0
%%Creator: GIMP PostScript file plugin V 1.17 by Peter Kirchgessner
%%Title: E2a_Exact_128-064_T1.eps
%%CreationDate: Tue Jul 30 14:27:26 2013
%%DocumentData: Clean7Bit
%%LanguageLevel: 2
%%Pages: 1
%%BoundingBox: 14 14 112 112
%%EndComments
%%BeginProlog
% Use own dictionary to avoid conflicts
10 dict begin
%%EndProlog
%%Page: 1 1
% Translate for offset
14.173228346456694 14.173228346456694 translate
% Translate to begin of first scanline
0 97.424807047633905 translate
96.944881889763792 -97.424807047633905 scale
% Image geometry
202 203 8
% Transformation matrix
[ 202 0 0 203 0 0 ]
% Strings to hold RGB-samples per scanline
/rstr 202 string def
/gstr 202 string def
/bstr 202 string def
{currentfile /ASCII85Decode filter /RunLengthDecode filter rstr readstring pop}
{currentfile /ASCII85Decode filter /RunLengthDecode filter gstr readstring pop}
{currentfile /ASCII85Decode filter /RunLengthDecode filter bstr readstring pop}
true 3
%%BeginData:        13637 ASCII Bytes
colorimage
!<;`mJcEXfJ,~>
!<;`mJcEXfJ,~>
!<;`mJcEXfJ,~>
kl?;7ci8L~>
kl?;7ci8L~>
kl?;7ci8L~>
rrDfnmJqh<f)L7~>
rrDfnmJqh<f)L7~>
rrDfnmJqh<f)L7~>
rrDBboDjIBh#Dm~>
rrDBboDjIBh#Dm~>
rrDBboDjIBh#Dm~>
rrD-[p&K[DiW"E~>
rrD-[p&K[DiW"E~>
rrD-[p&K[DiW"E~>
rrCpUpAfdEk5Tr~>
rrCpUpAfdEk5Tr~>
rrCpUpAfdEk5Tr~>
rrCaPp],mFlMlA~>
rrCaPp],mFlMlA~>
rrCaPp],mFlMlA~>
rrCRKq>c*HmJh\~>
rrCRKq>c*HmJh\~>
rrCRKq>c*HmJh\~>
rrCFGq>c*Hnc++~>
rrCFGq>c*Hnc++~>
rrCFGq>c*Hnc++~>
rrC=Dq>c*Ho`'F~>
rrC=Dq>c*Ho`'F~>
rrC=Dq>c*Ho`'F~>
rrC1@qZ)3Ip]#a~>
rrC1@qZ)3Ip]#a~>
rrC1@qZ)3Ip]#a~>
rrC(=qZ)3IqYu'~>
rrC(=qZ)3IqYu'~>
rrC(=qZ)3IqYu'~>
rrBt:qZ)3IrVqB~>
rrBt:qZ)3IrVqB~>
rrBt:qZ)3IrVqB~>
rrBk7qZ)3I!<7Q~>
rrBk7qZ)3I!<7Q~>
rrBk7qZ)3I!<7Q~>
rrBb4quD?KJ,~>
rrBb4quD?KJ,~>
rrBb4quD?KJ,~>
rrBY1quDHNJ,~>
rrBY1quDHNJ,~>
rrBY1quDHNJ,~>
rrBS/quDNPJ,~>
rrBS/quDNPJ,~>
rrBS/quDNPJ,~>
rrBJ,r;_]SJ,~>
rrBJ,r;_]SJ,~>
rrBJ,r;_]SJ,~>
rrBD*r;_cUJ,~>
rrBD*r;_cUJ,~>
rrBD*r;_cUJ,~>
rrB>(quDcWJ,~>
rrB>(quDcWJ,~>
rrB>(quDcWJ,~>
rrB8&quDiYJ,~>
rrB8&quDiYJ,~>
rrB8&quDiYJ,~>
rrB/#r;`#\J,~>
rrB/#r;`#\J,~>
rrB/#r;`#\J,~>
rrB)!r;`)^J,~>
rrB)!r;`)^J,~>
rrB)!r;`)^J,~>
rrB"tr;`/`J,~>
rrB"tr;`/`J,~>
rrB"tr;`/`J,~>
rrAqrrW&;bJ,~>
rrAqrrW&;bJ,~>
rrAqrrW&;bJ,~>
rrAkprW&AdJ,~>
rrAkprW&AdJ,~>
rrAkprW&AdJ,~>
rrB;'rrDcmr;`>eJ,~>
rrB;'rrDcmr;`>eJ,~>
rrB;'rrDcmr;`>eJ,~>
rrB;'r;Zp!!!)ipr;`DgJ,~>
rrB;'r;Zp!!!)ipr;`DgJ,~>
rrB;'r;Zp!!!)ipr;`DgJ,~>
rrB>(pAk$hrW&PiJ,~>
rrB>(pAk$hrW&PiJ,~>
rrB>(pAk$hrW&PiJ,~>
rrB>(p&Opgr;`MjJ,~>
rrB>(p&Opgr;`MjJ,~>
rrB>(p&Opgr;`MjJ,~>
rrBA)p&OjequEJkJ,~>
rrBA)p&OjequEJkJ,~>
rrBA)p&OjequEJkJ,~>
rrBA)oDn[dquEMlJ,~>
rrBA)oDn[dquEMlJ,~>
rrBA)oDn[dquEMlJ,~>
rrBD*nGrIdq#I8kJ,~>
rrBD*nGrIdq#I8kJ,~>
rrBD*nGrIdq#I8kJ,~>
rrBD*nGrIdp].2kJ,~>
rrBD*nGrIdp].2kJ,~>
rrBD*nGrIdp].2kJ,~>
rrBG+n,WCdo`1rjJ,~>
rrBG+n,WCdo`1rjJ,~>
rrBG+n,WCdo`1rjJ,~>
rrBG+mK!7dp](<orW&qtJ,~>
rrBG+mK!7dp](<orW&qtJ,~>
rrBG+mK!7dp](<orW&qtJ,~>
rrBJ,mK!.ap](<orW'#!J,~>
rrBJ,mK!.ap](<orW'#!J,~>
rrBJ,mK!.ap](<orW'#!J,~>
rrBG+mf<:cp&G*mrW'&"J,~>
rrBG+mf<:cp&G*mrW'&"J,~>
rrBG+mf<:cp&G*mrW'&"J,~>
rrBD*n,WCdo`5$lrW',$J,~>
rrBD*n,WCdo`5$lrW',$J,~>
rrBD*n,WCdo`5$lrW',$J,~>
rrBG+mK!4cp&P'krW'/%J,~>
rrBG+mK!4cp&P'krW'/%J,~>
rrBG+mK!4cp&P'krW'/%J,~>
rrBG+mK!1bo`4sjrrB;'J,~>
rrBG+mK!1bo`4sjrrB;'J,~>
rrBG+mK!1bo`4sjrrB;'J,~>
rrBG+m/[+bo`4pirW'8(J,~>
rrBG+m/[+bo`4pirW'8(J,~>
rrBG+m/[+bo`4pirW'8(J,~>
rrBJ,li@%boDndgrW';)J,~>
rrBJ,li@%boDndgrW';)J,~>
rrBJ,li@%boDndgrW';)J,~>
rrBJ,m/[+bo)SXerrBG+J,~>
rrBJ,m/[+bo)SXerrBG+J,~>
rrBJ,m/[+bo)SXerrBG+J,~>
rrBG+mK!.ap&OmfrrBJ,J,~>
rrBG+mK!.ap&OmfrrBJ,J,~>
rrBG+mK!.ap&OmfrrBJ,J,~>
rrBG+li@%boDn[drW'G-J,~>
rrBG+li@%boDn[drW'G-J,~>
rrBG+li@%boDn[drW'G-J,~>
rrBG+m/[.cnGrCbrW'J.J,~>
rrBG+m/[.cnGrCbrW'J.J,~>
rrBG+m/[.cnGrCbrW'J.J,~>
rrBJ,li@%bn,W7`rrBV0J,~>
rrBJ,li@%bn,W7`rrBV0J,~>
rrBJ,li@%bn,W7`rrBV0J,~>
rrBJ,m/[.cmf<+^rrBY1J,~>
rrBJ,m/[.cmf<+^rrBY1J,~>
rrBJ,m/[.cmf<+^rrBY1J,~>
rrBJ,m/[(anGr:_rrB\2J,~>
rrBJ,m/[(anGr:_rrB\2J,~>
rrBJ,m/[(anGr:_rrB\2J,~>
rrBG+m/[.cmf<(]rW'Y3J,~>
rrBG+m/[.cmf<(]rW'Y3J,~>
rrBG+m/[.cmf<(]rW'Y3J,~>
rrBJ,li@%bmf<%\rW'\4J,~>
rrBJ,li@%bmf<%\rW'\4J,~>
rrBJ,li@%bmf<%\rW'\4J,~>
rrBJ,m/[+bmf;tZrrBh6J,~>
rrBJ,m/[+bmf;tZrrBh6J,~>
rrBJ,m/[+bmf;tZrrBh6J,~>
rrBM-li?t`mf;tZrrBk7J,~>
rrBM-li?t`mf;tZrrBk7J,~>
rrBM-li?t`mf;tZrrBk7J,~>
rrBJ,li@%bmf;nXrrBn8J,~>
rrBJ,li@%bmf;nXrrBn8J,~>
rrBJ,li@%bmf;nXrrBn8J,~>
rrBG+m/[.cn,VqWrrBq9J,~>
rrBG+m/[.cn,VqWrrBq9J,~>
rrBG+m/[.cn,VqWrrBq9J,~>
rrBJ,m/[+bmf;hVrrBt:J,~>
rrBJ,m/[+bmf;hVrrBt:J,~>
rrBJ,m/[+bmf;hVrrBt:J,~>
rrBJ,m/[(amf;hVrrC";J,~>
rrBJ,m/[(amf;hVrrC";J,~>
rrBJ,m/[(amf;hVrrC";J,~>
rrBM-lN$qamf;bTrrC%<J,~>
rrBM-lN$qamf;bTrrC%<J,~>
rrBM-lN$qamf;bTrrC%<J,~>
rrBM-lN$qamJuYSrrC(=J,~>
rrBM-lN$qamJuYSrrC(=J,~>
rrBM-lN$qamJuYSrrC(=J,~>
rrBJ,m/[+bm/ZPRrrC+>J,~>
rrBJ,m/[+bm/ZPRrrC+>J,~>
rrBJ,m/[+bm/ZPRrrC+>J,~>
rrBJ,m/[(amf;\RrrC.?J,~>
rrBJ,m/[(amf;\RrrC.?J,~>
rrBJ,m/[(amf;\RrrC.?J,~>
rrBM-m/[(am/ZJPrrC1@J,~>
rrBM-m/[(am/ZJPrrC1@J,~>
rrBM-m/[(am/ZJPrrC1@J,~>
rrBJ,m/[+bm/ZGOrrC4AJ,~>
rrBJ,m/[+bm/ZGOrrC4AJ,~>
rrBJ,m/[+bm/ZGOrrC4AJ,~>
rrBJ,m/[+bmJuJNrrC7BJ,~>
rrBJ,m/[+bmJuJNrrC7BJ,~>
rrBJ,m/[+bmJuJNrrC7BJ,~>
rrBJ,mK!.amf;PNrrC:CJ,~>
rrBJ,mK!.amf;PNrrC:CJ,~>
rrBJ,mK!.amf;PNrrC:CJ,~>
rrBM-m/[(am/Z>LrrC=DJ,~>
rrBM-m/[(am/Z>LrrC=DJ,~>
rrBM-m/[(am/Z>LrrC=DJ,~>
rrBJ,m/[.cli?2JrrC@EJ,~>
rrBJ,m/[.cli?2JrrC@EJ,~>
rrBJ,m/[.cli?2JrrC@EJ,~>
rrBJ,m/[+bm/Z8JrrCCFJ,~>
rrBJ,m/[+bm/Z8JrrCCFJ,~>
rrBJ,m/[+bm/Z8JrrCCFJ,~>
rrBJ,mK!.am/Z8JrrCFGJ,~>
rrBJ,mK!.am/Z8JrrCFGJ,~>
rrBJ,mK!.am/Z8JrrCFGJ,~>
rrBM-m/[(am/Z5IrrCFGJ,~>
rrBM-m/[(am/Z5IrrCFGJ,~>
rrBM-m/[(am/Z5IrrCFGJ,~>
rrBG+mK!.an,VJJrrCIHJ,~>
rrBG+mK!.an,VJJrrCIHJ,~>
rrBG+mK!.an,VJJrrCIHJ,~>
rrBJ,m/[(amJu8HrrCLIJ,~>
rrBJ,m/[(amJu8HrrCLIJ,~>
rrBJ,m/[(amJu8HrrCLIJ,~>
rrBJ,mK!1bli?&FrrCOJJ,~>
rrBJ,mK!1bli?&FrrCOJJ,~>
rrBJ,mK!1bli?&FrrCOJJ,~>
rrBJ,mK!1bm/Z)ErrCRKJ,~>
rrBJ,mK!1bm/Z)ErrCRKJ,~>
rrBJ,mK!1bm/Z)ErrCRKJ,~>
rrBG+mK!1bm/Z)ErrCULJ,~>
rrBG+mK!1bm/Z)ErrCULJ,~>
rrBG+mK!1bm/Z)ErrCULJ,~>
rrBJ,mK!1bli>uDrrCULJ,~>
rrBJ,mK!1bli>uDrrCULJ,~>
rrBJ,mK!1bli>uDrrCULJ,~>
rrBM-mK!.am/Z#CrrCXMJ,~>
rrBM-mK!.am/Z#CrrCXMJ,~>
rrBM-mK!.am/Z#CrrCXMJ,~>
rrBJ,mK!1bmJu&BrrC[NJ,~>
rrBJ,mK!1bmJu&BrrC[NJ,~>
rrBJ,mK!1bmJu&BrrC[NJ,~>
rrBJ,mK!.amJu&BrrC^OJ,~>
rrBJ,mK!.amJu&BrrC^OJ,~>
rrBJ,mK!.amJu&BrrC^OJ,~>
rrBG+mf<:cm/YrArrC^OJ,~>
rrBG+mf<:cm/YrArrC^OJ,~>
rrBG+mf<:cm/YrArrC^OJ,~>
rrBG+n,W:amf;,BrrCaPJ,~>
rrBG+n,W:amf;,BrrCaPJ,~>
rrBG+n,W:amf;,BrrCaPJ,~>
rrBG+mf<7bm/Yo@rrCdQJ,~>
rrBG+mf<7bm/Yo@rrCdQJ,~>
rrBG+mf<7bm/Yo@rrCdQJ,~>
rrBJ,mK!1bm/Yi>rrCgRJ,~>
rrBJ,mK!1bm/Yi>rrCgRJ,~>
rrBJ,mK!1bm/Yi>rrCgRJ,~>
rrBG+mf<:cli>c>rrCgRJ,~>
rrBG+mf<:cli>c>rrCgRJ,~>
rrBG+mf<:cli>c>rrCgRJ,~>
rrBG+mK!1bm/Yi>rrCjSJ,~>
rrBG+mK!1bm/Yi>rrCjSJ,~>
rrBG+mK!1bm/Yi>rrCjSJ,~>
rrBG+mf<:cm/Yc<rrCmTJ,~>
rrBG+mf<:cm/Yc<rrCmTJ,~>
rrBG+mf<:cm/Yc<rrCmTJ,~>
rrBD*nGrFcmf:o<rrCpUJ,~>
rrBD*nGrFcmf:o<rrCpUJ,~>
rrBD*nGrFcmf:o<rrCpUJ,~>
rrBG+mf<7bmJti<rrCpUJ,~>
rrBG+mf<7bmJti<rrCpUJ,~>
rrBG+mf<7bmJti<rrCpUJ,~>
rrBD*n,W@cmJtf;rrCsVJ,~>
rrBD*n,W@cmJtf;rrCsVJ,~>
rrBD*n,W@cmJtf;rrCsVJ,~>
rrBD*n,W=bmf:l;rrD!WJ,~>
rrBD*n,W=bmf:l;rrD!WJ,~>
rrBD*n,W=bmf:l;rrD!WJ,~>
rrBG+mK!1bm/Y]:rrD!WJ,~>
rrBG+mK!1bm/Y]:rrD!WJ,~>
rrBG+mK!1bm/Y]:rrD!WJ,~>
rrBD*n,W=bmf:i:rrD$XJ,~>
rrBD*n,W=bmf:i:rrD$XJ,~>
rrBD*n,W=bmf:i:rrD$XJ,~>
rrBD*nGrCbmJt`9rrD'YJ,~>
rrBD*nGrCbmJt`9rrD'YJ,~>
rrBD*nGrCbmJt`9rrD'YJ,~>
rrBD*n,W@cm/YW8rrD'YJ,~>
rrBD*n,W@cm/YW8rrD'YJ,~>
rrBD*n,W@cm/YW8rrD'YJ,~>
rrBD*n,W@cmJtZ7rrD*ZJ,~>
rrBD*n,W@cmJtZ7rrD*ZJ,~>
rrBD*n,W@cmJtZ7rrD*ZJ,~>
rrBD*n,W@cm/YT7rrD*ZJ,~>
rrBD*n,W@cm/YT7rrD*ZJ,~>
rrBD*n,W@cm/YT7rrD*ZJ,~>
rrBA)nGrIdm/YQ6rrD-[J,~>
rrBA)nGrIdm/YQ6rrD-[J,~>
rrBA)nGrIdm/YQ6rrD-[J,~>
rrBD*n,W=bmJtW6rrD0\J,~>
rrBD*n,W=bmJtW6rrD0\J,~>
rrBD*n,W=bmJtW6rrD0\J,~>
rrBA)n,WCdm/YN5rrD0\J,~>
rrBA)n,WCdm/YN5rrD0\J,~>
rrBA)n,WCdm/YN5rrD0\J,~>
rrBA)nGrIdmJtQ4rrD3]J,~>
rrBA)nGrIdmJtQ4rrD3]J,~>
rrBA)nGrIdmJtQ4rrD3]J,~>
nc6H)n,W@cmJtT5rrD3]J,~>
nc6H)n,W@cmJtT5rrD3]J,~>
nc6H)n,W@cmJtT5rrD3]J,~>
!<;Ed`W,H.qu?$`cN!nEkPp&~>
!<;Ed`W,H.qu?$`cN!nEkPp&~>
!<;Ed`W,H.qu?$`cN!nEkPp&~>
o)JFaaoCl2qZ#s`c2[eDkl6/~>
o)JFaaoCl2qZ#s`c2[eDkl6/~>
o)JFaaoCl2qZ#s`c2[eDkl6/~>
m/Qk]bl@25r;Z*`cN!nEkl6/~>
m/Qk]bl@25r;Z*`cN!nEkl6/~>
m/Qk]bl@25r;Z*`cN!nEkl6/~>
kl:JZcN!J9qZ$!abQ%SBl2Q8~>
kl:JZcN!J9qZ$!abQ%SBl2Q8~>
kl:JZcN!J9qZ$!abQ%SBl2Q8~>
jT#)Wdf8h;qZ$!abl@\Cl2Q8~>
jT#)Wdf8h;qZ$!abl@\Cl2Q8~>
jT#)Wdf8h;qZ$!abl@\Cl2Q8~>
iW&fUe,T">q>]m`bQ%SBlMlA~>
iW&fUe,T">q>]m`bQ%SBlMlA~>
iW&fUe,T">q>]m`bQ%SBlMlA~>
hZ*KRf)P:@qu?'abQ%SBlMlA~>
hZ*KRf)P:@qu?'abQ%SBlMlA~>
hZ*KRf)P:@qu?'abQ%SBlMlA~>
h#I9Pf`1IAqu?*bb5_JAli2J~>
h#I9Pf`1IAqu?*bb5_JAli2J~>
h#I9Pf`1IAqu?*bb5_JAli2J~>
g&M!NgAg[Cqu?*bb5_JAli2J~>
g&M!NgAg[Cqu?*bb5_JAli2J~>
g&M!NgAg[Cqu?*bb5_JAli2J~>
fDkdLh#HmEqu?*baoDA@m/MS~>
fDkdLh#HmEqu?*baoDA@m/MS~>
fDkdLh#HmEqu?*baoDA@m/MS~>
ec5RJh>d!Fr;Z0bb5_JAm/MS~>
ec5RJh>d!Fr;Z0bb5_JAm/MS~>
ec5RJh>d!Fr;Z0bb5_JAm/MS~>
e,T@HhZ*0Iqu?'aaoDA@mJh\~>
e,T@HhZ*0Iqu?'aaoDA@mJh\~>
e,T@HhZ*0Iqu?'aaoDA@mJh\~>
dJs.FiW&HKqu?'aaoDA@mJh\~>
dJs.FiW&HKqu?'aaoDA@mJh\~>
dJs.FiW&HKqu?'aaoDA@mJh\~>
ci<tEiW&HKqu?*baT)8?mf.e~>
ci<tEiW&HKqu?*baT)8?mf.e~>
ci<tEiW&HKqu?*baT)8?mf.e~>
c2[bCjT"`Mqu?*baT)8?mf.e~>
c2[bCjT"`Mqu?*baT)8?mf.e~>
c2[bCjT"`Mqu?*baT)8?mf.e~>
bl@VAjo=lOqu?-c`rH&=n,In~>
bl@VAjo=lOqu?-c`rH&=n,In~>
bl@VAjo=lOqu?-c`rH&=n,In~>
b5_G@kPt#Oqu?-ca8c/>n,In~>
b5_G@kPt#Oqu?-ca8c/>n,In~>
b5_G@kPt#Oqu?-ca8c/>n,In~>
aT)8?kPt&Pqu?0d`W,r<nGe"~>
aT)8?kPt&Pqu?0d`W,r<nGe"~>
aT)8?kPt&Pqu?0d`W,r<nGe"~>
a8c,=kl:2Rr;Z3c`rH&=nGe"~>
a8c,=kl:2Rr;Z3c`rH&=nGe"~>
a8c,=kl:2Rr;Z3c`rH&=nGe"~>
`rH#<lMpASqu?-c`W,r<nc++~>
`rH#<lMpASqu?-c`W,r<nc++~>
`rH#<lMpASqu?-c`W,r<nc++~>
`;fi;li6JTqZ$$b`rH&=nc++~>
`;fi;li6JTqZ$$b`rH&=nc++~>
`;fi;li6JTqZ$$b`rH&=nc++~>
_uK]9mJl\VqZ$'c`W,r<nc++~>
_uK]9mJl\VqZ$'c`W,r<nc++~>
_uK]9mJl\VqZ$'c`W,r<nc++~>
_Z0T8mf2eWqu?-c`;fi;o)F4~>
_Z0T8mf2eWqu?-c`;fi;o)F4~>
_Z0T8mf2eWqu?-c`;fi;o)F4~>
_#OE7mf2eWqu?0d`;fi;o)F4~>
_#OE7mf2eWqu?0d`;fi;o)F4~>
_#OE7mf2eWqu?0d`;fi;o)F4~>
^]4<6n,MqYq>^!c_uK`:oDa=~>
^]4<6n,MqYq>^!c_uK`:oDa=~>
^]4<6n,MqYq>^!c_uK`:oDa=~>
^An35nGi"Yqu?0d_uK`:oDa=~>
^An35nGi"Yqu?0d_uK`:oDa=~>
^An35nGi"Yqu?0d_uK`:oDa=~>
^&S*4nc/+Zqu?-c`;fi;oDa=~>
^&S*4nc/+Zqu?-c`;fi;oDa=~>
^&S*4nc/+Zqu?-c`;fi;oDa=~>
]`8!3oDe7Zqu?0d_uK`:o`'F~>
]`8!3oDe7Zqu?0d_uK`:o`'F~>
]`8!3oDe7Zqu?0d_uK`:o`'F~>
]Dqm2oDe=\qZ$*d_Z0W9o`'F~>
]Dqm2oDe=\qZ$*d_Z0W9o`'F~>
]Dqm2oDe=\qZ$*d_Z0W9o`'F~>
])Vd1oDe=\r;Z6d_Z0W9p&BO~>
])Vd1oDe=\r;Z6d_Z0W9p&BO~>
])Vd1oDe=\r;Z6d_Z0W9p&BO~>
\c;[0p&FL]qu?0d_Z0W9p&BO~>
\c;[0p&FL]qu?0d_Z0W9p&BO~>
\c;[0p&FL]qu?0d_Z0W9p&BO~>
\GuR/p&FR_q>^!c_Z0W9p&BO~>
\GuR/p&FR_q>^!c_Z0W9p&BO~>
\GuR/p&FR_q>^!c_Z0W9p&BO~>
\,ZI.pAaX_qZ$*d_>jN8pA]X~>
\,ZI.pAaX_qZ$*d_>jN8pA]X~>
\,ZI.pAaX_qZ$*d_>jN8pA]X~>
[f?@-p]'a`q>^$d_>jN8pA]X~>
[f?@-p]'a`q>^$d_>jN8pA]X~>
[f?@-p]'a`q>^$d_>jN8pA]X~>
[K$7,q#BjaqZ$'c_Z0W9pA]X~>
[K$7,q#BjaqZ$'c_Z0W9pA]X~>
[K$7,q#BjaqZ$'c_Z0W9pA]X~>
[/^.+qZ$$bqZ$*d_#OE7p]#a~>
[/^.+qZ$$bqZ$*d_#OE7p]#a~>
[/^.+qZ$$bqZ$*d_#OE7p]#a~>
[/^.+qZ$$bq>^$d_#OE7p]#a~>
[/^.+qZ$$bq>^$d_#OE7p]#a~>
[/^.+qZ$$bq>^$d_#OE7p]#a~>
ZiC%*qZ$$bqZ$-e_#OE7p]#a~>
ZiC%*qZ$$bqZ$-e_#OE7p]#a~>
ZiC%*qZ$$bqZ$-e_#OE7p]#a~>
ZN'q)qu?0dqZ$-e^An35q#>j~>
ZN'q)qu?0dqZ$-e^An35q#>j~>
ZN'q)qu?0dqZ$-e^An35q#>j~>
Z2ah(r;Z9eq>^$d^]4<6q#>j~>
Z2ah(r;Z9eq>^$d^]4<6q#>j~>
Z2ah(r;Z9eq>^$d^]4<6q#>j~>
YlF_'rVu?eqZ$-e^]4<6q#>j~>
YlF_'rVu?eqZ$-e^]4<6q#>j~>
YlF_'rVu?eqZ$-e^]4<6q#>j~>
YlF_'rVu?eq>^'e^An35q>Ys~>
YlF_'rVu?eq>^'e^An35q>Ys~>
YlF_'rVu?eq>^'e^An35q>Ys~>
YQ+V&rr;Kgq#C!e^&S*4q>Ys~>
YQ+V&rr;Kgq#C!e^&S*4q>Ys~>
YQ+V&rr;Kgq#C!e^&S*4q>Ys~>
Y5eM%s8VQgqZ$-e^An35q>Ys~>
Y5eM%s8VQgqZ$-e^An35q>Ys~>
Y5eM%s8VQgqZ$-e^An35q>Ys~>
Y5eM%rr;KgqZ$-e^&S*4qYu'~>
Y5eM%rr;KgqZ$-e^&S*4qYu'~>
Y5eM%rr;KgqZ$-e^&S*4qYu'~>
XoJD$rr;Qiq#C!e]`8!3qYu'~>
XoJD$rr;Qiq#C!e]`8!3qYu'~>
XoJD$rr;Qiq#C!e]`8!3qYu'~>
XT.\gq>^*f]`8!3qYu'~>
XT.\gq>^*f]`8!3qYu'~>
XT.\gq>^*f]`8!3qYu'~>
XT/;#!<;Qhq>^'e^&S*4qYu'~>
XT/;#!<;Qhq>^'e^&S*4qYu'~>
XT/;#!<;Qhq>^'e^&S*4qYu'~>
X8i2"!<;QhqZ$0f]`8!3qu;0~>
X8i2"!<;QhqZ$0f]`8!3qu;0~>
X8i2"!<;QhqZ$0f]`8!3qu;0~>
X8hVgq>^$d^&S*4qu;0~>
X8hVgq>^$d^&S*4qu;0~>
X8hVgq>^$d^&S*4qu;0~>
WrMPgq#C!e]`8!3qu;0~>
WrMPgq#C!e]`8!3qu;0~>
WrMPgq#C!e]`8!3qu;0~>
WW2Jgq#C!e]`8!3qu;0~>
WW2Jgq#C!e]`8!3qu;0~>
WW2Jgq#C!e]`8!3qu;0~>
WW2Gfq>^*f]Dqm2r;V9~>
WW2Gfq>^*f]Dqm2r;V9~>
WW2Gfq>^*f]Dqm2r;V9~>
W;lAfq#C!e]`8!3r;V9~>
W;lAfq#C!e]`8!3r;V9~>
W;lAfq#C!e]`8!3r;V9~>
W;lDgq#C$f])Vd1r;V9~>
W;lDgq#C$f])Vd1r;V9~>
W;lDgq#C$f])Vd1r;V9~>
VuQ>gq#C!e]Dqm2r;V9~>
VuQ>gq#C!e]Dqm2r;V9~>
VuQ>gq#C!e]Dqm2r;V9~>
VuQ;fq>^*f])Vd1rVqB~>
VuQ;fq>^*f])Vd1rVqB~>
VuQ;fq>^*f])Vd1rVqB~>
VZ65fq#C$f])Vd1rVqB~>
VZ65fq#C$f])Vd1rVqB~>
VZ65fq#C$f])Vd1rVqB~>
VZ65fq#C'g\c;[0rVqB~>
VZ65fq#C'g\c;[0rVqB~>
VZ65fq#C'g\c;[0rVqB~>
V>p2gp]'sf\c;[0rVqB~>
V>p2gp]'sf\c;[0rVqB~>
V>p2gp]'sf\c;[0rVqB~>
V>p/fp]'sf])Vd1rVqB~>
V>p/fp]'sf])Vd1rVqB~>
V>p/fp]'sf])Vd1rVqB~>
V>p/fp]($h\,ZI.rr7K~>
V>p/fp]($h\,ZI.rr7K~>
V>p/fp]($h\,ZI.rr7K~>
V#U&eq#C*h\GuR/rr7K~>
V#U&eq#C*h\GuR/rr7K~>
V#U&eq#C*h\GuR/rr7K~>
V#U,gp&Fgf\GuR/rr7K~>
V#U,gp&Fgf\GuR/rr7K~>
V#U,gp&Fgf\GuR/rr7K~>
U]:#fpAapg\GuR/rr7K~>
U]:#fpAapg\GuR/rr7K~>
U]:#fpAapg\GuR/rr7K~>
U]:#fpAash\,ZI.rr7K~>
U]:#fpAash\,ZI.rr7K~>
U]:#fpAash\,ZI.rr7K~>
U]:#fp&Fmh[f?@-s8RT~>
U]:#fp&Fmh[f?@-s8RT~>
U]:#fp&Fmh[f?@-s8RT~>
UAsoepAb!i[f?@-s8RT~>
UAsoepAb!i[f?@-s8RT~>
UAsoepAb!i[f?@-s8RT~>
UAsrfp&Fpi[K$7,s8RT~>
UAsrfp&Fpi[K$7,s8RT~>
UAsrfp&Fpi[K$7,s8RT~>
UAsugoDeah[K$7,s8RT~>
UAsugoDeah[K$7,s8RT~>
UAsugoDeah[K$7,s8RT~>
U&Xlfo`+mj[/^.+s8RT~>
U&Xlfo`+mj[/^.+s8RT~>
U&Xlfo`+mj[/^.+s8RT~>
U&Xlfo)A[i[/^.+s8RT~>
U&Xlfo)A[i[/^.+s8RT~>
U&Xlfo)A[i[/^.+s8RT~>
U&XlfV#UGps8RT~>
U&XlfV#UGps8RT~>
U&XlfV#UGps8RT~>
U&XogUAt5n!<7Q~>
U&XogUAt5n!<7Q~>
U&XogUAt5n!<7Q~>
T`=igUAt5n!<7Q~>
T`=igUAt5n!<7Q~>
T`=igUAt5n!<7Q~>
T`=igUAt5n!<7Q~>
T`=igUAt5n!<7Q~>
T`=igUAt5n!<7Q~>
T`=ffU]:>o!<7Q~>
T`=ffU]:>o!<7Q~>
T`=ffU]:>o!<7Q~>
T`=lhU&Y,m!<7Q~>
T`=lhU&Y,m!<7Q~>
T`=lhU&Y,m!<7Q~>
TE"cgUAt5n!<7Q~>
TE"cgUAt5n!<7Q~>
TE"cgUAt5n!<7Q~>
TE"cgUAt5n!<7Q~>
TE"cgUAt5n!<7Q~>
TE"cgUAt5n!<7Q~>
TE"cgUAt5n!<7Q~>
TE"cgUAt5n!<7Q~>
TE"cgUAt5n!<7Q~>
TE"iiT`>#l!<7Q~>
TE"iiT`>#l!<7Q~>
TE"iiT`>#l!<7Q~>
TE"ljT)\fjJ,~>
TE"ljT)\fjJ,~>
TE"ljT)\fjJ,~>
T)\fjT)\fjJ,~>
T)\fjT)\fjJ,~>
T)\fjT)\fjJ,~>
T)\fjT)\fjJ,~>
T)\fjT)\fjJ,~>
T)\fjT)\fjJ,~>
T)\fjT)\fjJ,~>
T)\fjT)\fjJ,~>
T)\fjT)\fjJ,~>
T)\fjT)\fjJ,~>
T)\fjT)\fjJ,~>
T)\fjT)\fjJ,~>
T)\fjT)\fjJ,~>
T)\fjT)\fjJ,~>
T)\fjT)\fjJ,~>
T)\fjT)\fjJ,~>
T)\fjT)\fjJ,~>
T)\fjT)\fjJ,~>
T)\fjT)\fjJ,~>
T)\fjT)\fjJ,~>
T)\fjT)\fjJ,~>
ScA]iTE"okJ,~>
ScA]iTE"okJ,~>
ScA]iTE"okJ,~>
ScA]iTE"okJ,~>
ScA]iTE"okJ,~>
ScA]iTE"okJ,~>
ScA]iTE"okJ,~>
ScA]iTE"okJ,~>
ScA]iTE"okJ,~>
ScA]iTE"okJ,~>
ScA]iTE"okJ,~>
ScA]iTE"okJ,~>
ScA]iTE"okJ,~>
ScA]iTE"okJ,~>
ScA]iTE"okJ,~>
ScA]iTE"okJ,~>
ScA]iTE"okJ,~>
ScA]iTE"okJ,~>
ScA]iTE"okJ,~>
ScA]iTE"okJ,~>
ScA]iTE"okJ,~>
ScA]iTE"okJ,~>
ScA]iTE"okJ,~>
ScA]iTE"okJ,~>
ScA]iTE"okJ,~>
ScA]iTE"okJ,~>
ScA]iTE"okJ,~>
Sc>/ZJ,~>
Sc>/ZJ,~>
Sc>/ZJ,~>
SH#,[!<7Q~>
SH#,[!<7Q~>
SH#,[!<7Q~>
%%EndData
showpage
%%Trailer
end
%%EOF
