%!PS-Adobe-3.0 EPSF-3.0
%%Creator: GIMP PostScript file plugin V 1.17 by Peter Kirchgessner
%%Title: E2b_Exact_064-032_T1.eps
%%CreationDate: Tue Jul 30 14:18:06 2013
%%DocumentData: Clean7Bit
%%LanguageLevel: 2
%%Pages: 1
%%BoundingBox: 14 14 112 112
%%EndComments
%%BeginProlog
% Use own dictionary to avoid conflicts
10 dict begin
%%EndProlog
%%Page: 1 1
% Translate for offset
14.173228346456694 14.173228346456694 translate
% Translate to begin of first scanline
0 97.424807047633905 translate
96.944881889763792 -97.424807047633905 scale
% Image geometry
202 203 8
% Transformation matrix
[ 202 0 0 203 0 0 ]
% Strings to hold RGB-samples per scanline
/rstr 202 string def
/gstr 202 string def
/bstr 202 string def
{currentfile /ASCII85Decode filter /RunLengthDecode filter rstr readstring pop}
{currentfile /ASCII85Decode filter /RunLengthDecode filter gstr readstring pop}
{currentfile /ASCII85Decode filter /RunLengthDecode filter bstr readstring pop}
true 3
%%BeginData:        13082 ASCII Bytes
colorimage
!<;`mJcEXfJ,~>
!<;`mJcEXfJ,~>
!<;`mJcEXfJ,~>
kl?;7ci8L~>
kl?;7ci8L~>
kl?;7ci8L~>
rrDfnmJqh<f)L7~>
rrDfnmJqh<f)L7~>
rrDfnmJqh<f)L7~>
rrDBboDjIBh#Dm~>
rrDBboDjIBh#Dm~>
rrDBboDjIBh#Dm~>
rrD-[p&K[DiW"E~>
rrD-[p&K[DiW"E~>
rrD-[p&K[DiW"E~>
rrCpUpAfdEk5Tr~>
rrCpUpAfdEk5Tr~>
rrCpUpAfdEk5Tr~>
rrCaPp],mFlMlA~>
rrCaPp],mFlMlA~>
rrCaPp],mFlMlA~>
rrCRKq>c*HmJh\~>
rrCRKq>c*HmJh\~>
rrCRKq>c*HmJh\~>
rrCFGq>c*Hnc++~>
rrCFGq>c*Hnc++~>
rrCFGq>c*Hnc++~>
rrC=Dq>c*Ho`'F~>
rrC=Dq>c*Ho`'F~>
rrC=Dq>c*Ho`'F~>
rrC1@qZ)3Ip]#a~>
rrC1@qZ)3Ip]#a~>
rrC1@qZ)3Ip]#a~>
rrC(=qZ)3IqYu'~>
rrC(=qZ)3IqYu'~>
rrC(=qZ)3IqYu'~>
rrBt:qZ)3IrVqB~>
rrBt:qZ)3IrVqB~>
rrBt:qZ)3IrVqB~>
rrBk7qZ)3I!<7Q~>
rrBk7qZ)3I!<7Q~>
rrBk7qZ)3I!<7Q~>
rrBb4quD?KJ,~>
rrBb4quD?KJ,~>
rrBb4quD?KJ,~>
rrBY1quDHNJ,~>
rrBY1quDHNJ,~>
rrBY1quDHNJ,~>
rrBS/quDNPJ,~>
rrBS/quDNPJ,~>
rrBS/quDNPJ,~>
rrBJ,r;_]SJ,~>
rrBJ,r;_]SJ,~>
rrBJ,r;_]SJ,~>
rrBD*r;_cUJ,~>
rrBD*r;_cUJ,~>
rrBD*r;_cUJ,~>
rrB>(quDcWJ,~>
rrB>(quDcWJ,~>
rrB>(quDcWJ,~>
rrB8&quDiYJ,~>
rrB8&quDiYJ,~>
rrB8&quDiYJ,~>
rrB/#r;`#\J,~>
rrB/#r;`#\J,~>
rrB/#r;`#\J,~>
rrB)!r;`)^J,~>
rrB)!r;`)^J,~>
rrB)!r;`)^J,~>
rrB"tr;`/`J,~>
rrB"tr;`/`J,~>
rrB"tr;`/`J,~>
rrB/#!!)rsrW&;bJ,~>
rrB/#!!)rsrW&;bJ,~>
rrB/#!!)rsrW&;bJ,~>
rrB2$r;ccqrW&AdJ,~>
rrB2$r;ccqrW&AdJ,~>
rrB2$r;ccqrW&AdJ,~>
rrB2$qZ-Tpr;`>eJ,~>
rrB2$qZ-Tpr;`>eJ,~>
rrB2$qZ-Tpr;`>eJ,~>
rrB5%p]19mr;`DgJ,~>
rrB5%p]19mr;`DgJ,~>
rrB5%p]19mr;`DgJ,~>
rrB5%pAk-krW&PiJ,~>
rrB5%pAk-krW&PiJ,~>
rrB5%pAk-krW&PiJ,~>
rrBV0rrDlpoDnjir;`MjJ,~>
rrBV0rrDlpoDnjir;`MjJ,~>
rrBV0rrDlpoDnjir;`MjJ,~>
rrBY1quHWonc8^iqZ*AjJ,~>
rrBY1quHWonc8^iqZ*AjJ,~>
rrBY1quHWonc8^iqZ*AjJ,~>
rrBY1q>gNpkQ%CXJ,~>
rrBY1q>gNpkQ%CXJ,~>
rrBY1q>gNpkQ%CXJ,~>
rrBY1g]42NJ,~>
rrBY1g]42NJ,~>
rrBY1g]42NJ,~>
rrB\2g&S#MJ,~>
rrB\2g&S#MJ,~>
rrB\2g&S#MJ,~>
rrB\2fDqlMJ,~>
rrB\2fDqlMJ,~>
rrB\2fDqlMJ,~>
rrBV0q>^NqjoGG]rW&qtJ,~>
rrBV0q>^NqjoGG]rW&qtJ,~>
rrBV0q>^NqjoGG]rW&qtJ,~>
rrBP.quH`rkQ(S]rW'#!J,~>
rrBP.quH`rkQ(S]rW'#!J,~>
rrBP.quH`rkQ(S]rW'#!J,~>
rrBS/quHWoklC\^rW'&"J,~>
rrBS/quHWoklC\^rW'&"J,~>
rrBS/quHWoklC\^rW'&"J,~>
rrBS/qZ-TpjoGA[rW',$J,~>
rrBS/qZ-TpjoGA[rW',$J,~>
rrBS/qZ-TpjoGA[rW',$J,~>
rrBS/q#LHpjT,8ZrW'/%J,~>
rrBS/q#LHpjT,8ZrW'/%J,~>
rrBS/q#LHpjT,8ZrW'/%J,~>
rrBV0gAq*MrrB;'J,~>
rrBV0gAq*MrrB;'J,~>
rrBV0gAq*MrrB;'J,~>
rrBV0g]7-LrW'8(J,~>
rrBV0g]7-LrW'8(J,~>
rrBV0g]7-LrW'8(J,~>
rrBY1g&UpJrW';)J,~>
rrBY1g&UpJrW';)J,~>
rrBY1g&UpJrW';)J,~>
rrBY1f`:dHrrBG+J,~>
rrBY1f`:dHrrBG+J,~>
rrBY1f`:dHrrBG+J,~>
rrB\2ec>LFrrBJ,J,~>
rrB\2ec>LFrrBJ,J,~>
rrB\2ec>LFrrBJ,J,~>
rrB\2ec>IErW'G-J,~>
rrB\2ec>IErW'G-J,~>
rrB\2ec>IErW'G-J,~>
rrB_3ec>CCrW'J.J,~>
rrB_3ec>CCrW'J.J,~>
rrB_3ec>CCrW'J.J,~>
rrB_3ec>=ArrBV0J,~>
rrB_3ec>=ArrBV0J,~>
rrB_3ec>=ArrBV0J,~>
rrB\2ec>=ArrBY1J,~>
rrB\2ec>=ArrBY1J,~>
rrB\2ec>=ArrBY1J,~>
rrBS/fDtOCrrB\2J,~>
rrBS/fDtOCrrB\2J,~>
rrBS/fDtOCrrB\2J,~>
rrBV0ec>=ArW'Y3J,~>
rrBV0ec>=ArW'Y3J,~>
rrBV0ec>=ArW'Y3J,~>
rrBV0f)Y@@rW'\4J,~>
rrBV0f)Y@@rW'\4J,~>
rrBV0f)Y@@rW'\4J,~>
rrBY1ec>1=rrBh6J,~>
rrBY1ec>1=rrBh6J,~>
rrBY1ec>1=rrBh6J,~>
rrBY1ec>.<rrBk7J,~>
rrBY1ec>.<rrBk7J,~>
rrBY1ec>.<rrBk7J,~>
rrB\2dfAk:rrBn8J,~>
rrB\2dfAk:rrBn8J,~>
rrB\2dfAk:rrBn8J,~>
rrB\2dK&b9rrBq9J,~>
rrB\2dK&b9rrBq9J,~>
rrB\2dK&b9rrBq9J,~>
rrB_3d/`V7rrBt:J,~>
rrB_3d/`V7rrBt:J,~>
rrB_3d/`V7rrBt:J,~>
rrB_3dK&Y6rrC";J,~>
rrB_3dK&Y6rrC";J,~>
rrB_3dK&Y6rrC";J,~>
rrB\2e,\e6rrC%<J,~>
rrB\2e,\e6rrC%<J,~>
rrB\2e,\e6rrC%<J,~>
rrBV0f)Y%7rrC(=J,~>
rrBV0f)Y%7rrC(=J,~>
rrBV0f)Y%7rrC(=J,~>
rrBV0fDt(6rrC+>J,~>
rrBV0fDt(6rrC+>J,~>
rrBV0fDt(6rrC+>J,~>
rrBY1ec=k4rrC.?J,~>
rrBY1ec=k4rrC.?J,~>
rrBY1ec=k4rrC.?J,~>
rrBY1e,\\3rrC1@J,~>
rrBY1e,\\3rrC1@J,~>
rrBY1e,\\3rrC1@J,~>
rrB\2dK&J1rrC4AJ,~>
rrB\2dK&J1rrC4AJ,~>
rrB\2dK&J1rrC4AJ,~>
rrB\2p]1?oh>mHQ!!)BcrrC7BJ,~>
rrB\2p]1?oh>mHQ!!)BcrrC7BJ,~>
rrB\2p]1?oh>mHQ!!)BcrrC7BJ,~>
rrB_3p]19mhuNWRrrDEcrrC:CJ,~>
rrB_3p]19mhuNWRrrDEcrrC:CJ,~>
rrB_3p]19mhuNWRrrDEcrrC:CJ,~>
rrBY1q>gKoi;i`Sr;c3arrC=DJ,~>
rrBY1q>gKoi;i`Sr;c3arrC=DJ,~>
rrBY1q>gKoi;i`Sr;c3arrC=DJ,~>
rrBV0q>gNpi;icTqZ-!_rrC@EJ,~>
rrBV0q>gNpi;icTqZ-!_rrC@EJ,~>
rrBV0q>gNpi;icTqZ-!_rrC@EJ,~>
rrBV0fDtgKqZ,p]rrCCFJ,~>
rrBV0fDtgKqZ,p]rrCCFJ,~>
rrBV0fDtgKqZ,p]rrCCFJ,~>
rrBY1p]1<niW/oVquGs\rrCFGJ,~>
rrBY1p]1<niW/oVquGs\rrCFGJ,~>
rrBY1p]1<niW/oVquGs\rrCFGJ,~>
rrBV0q#LBniW/oVrW)-]rrCFGJ,~>
rrBV0q#LBniW/oVrW)-]rrCFGJ,~>
rrBV0q#LBniW/oVrW)-]rrCFGJ,~>
rrBP.quHZpi;ifU!!)-\rrCIHJ,~>
rrBP.quHZpi;ifU!!)-\rrCIHJ,~>
rrBP.quHZpi;ifU!!)-\rrCIHJ,~>
rrBP.quH]qi;icT!!)*[rrCLIJ,~>
rrBP.quH]qi;icT!!)*[rrCLIJ,~>
rrBP.quH]qi;icT!!)*[rrCLIJ,~>
rrBP.r;ccqiW/iTrrD-[rrCOJJ,~>
rrBP.r;ccqiW/iTrrD-[rrCOJJ,~>
rrBP.r;ccqiW/iTrrD-[rrCOJJ,~>
rrBS/r;ccqhuN]Tr;bpYrrCRKJ,~>
rrBS/r;ccqhuN]Tr;bpYrrCRKJ,~>
rrBS/r;ccqhuN]Tr;bpYrrCRKJ,~>
rrBV0quH]qh>mQTqZ,^WrrCULJ,~>
rrBV0quH]qh>mQTqZ,^WrrCULJ,~>
rrBV0quH]qh>mQTqZ,^WrrCULJ,~>
rrBV0r;c`ph>dQUqZ,[VrrCULJ,~>
rrBV0r;c`ph>dQUqZ,[VrrCULJ,~>
rrBV0r;c`ph>dQUqZ,[VrrCULJ,~>
rrBV0qZ-QohZ*ZVquG^UrrCXMJ,~>
rrBV0qZ-QohZ*ZVquG^UrrCXMJ,~>
rrBV0qZ-QohZ*ZVquG^UrrCXMJ,~>
rrBS/qZ-Qoi;ilWquG^UrrC[NJ,~>
rrBS/qZ-Qoi;ilWquG^UrrC[NJ,~>
rrBS/qZ-Qoi;ilWquG^UrrC[NJ,~>
rrBM-r;cfri;ifUquG^UrrC^OJ,~>
rrBM-r;cfri;ifUquG^UrrC^OJ,~>
rrBM-r;cfri;ifUquG^UrrC^OJ,~>
rrBG+!!)rsiW/lUqZ,XUrrC^OJ,~>
rrBG+!!)rsiW/lUqZ,XUrrC^OJ,~>
rrBG+!!)rsiW/lUqZ,XUrrC^OJ,~>
rrB8&iW/lUqZ,RSrrCaPJ,~>
rrB8&iW/lUqZ,RSrrCaPJ,~>
rrB8&iW/lUqZ,RSrrCaPJ,~>
rrB;'huN]TquGURrrCdQJ,~>
rrB;'huN]TquGURrrCdQJ,~>
rrB;'huN]TquGURrrCdQJ,~>
rrB;'hZ3TSr;b[RrrCgRJ,~>
rrB;'hZ3TSr;b[RrrCgRJ,~>
rrB;'hZ3TSr;b[RrrCgRJ,~>
rrB5%huN]Tr;b^SrrCgRJ,~>
rrB5%huN]Tr;b^SrrCgRJ,~>
rrB5%huN]Tr;b^SrrCgRJ,~>
rrB2$iW/lUquGURrrCjSJ,~>
rrB2$iW/lUquGURrrCjSJ,~>
rrB2$iW/lUquGURrrCjSJ,~>
rrB5%iW/lUq>fCPrrCmTJ,~>
rrB5%iW/lUq>fCPrrCmTJ,~>
rrB5%iW/lUq>fCPrrCmTJ,~>
rrB8&huN`UqZ,CNrrCpUJ,~>
rrB8&huN`UqZ,CNrrCpUJ,~>
rrB8&huN`UqZ,CNrrCpUJ,~>
rrB5%huN`Ur;bROrrCpUJ,~>
rrB5%huN`Ur;bROrrCpUJ,~>
rrB5%huN`Ur;bROrrCpUJ,~>
rrB2$huN`UrrC^OrrCsVJ,~>
rrB2$huN`UrrC^OrrCsVJ,~>
rrB2$huN`UrrC^OrrCsVJ,~>
rrB2$i;h7)rrD!WJ,~>
rrB2$i;h7)rrD!WJ,~>
rrB2$i;h7)rrD!WJ,~>
rrB2$iW/lUrrC[NrrD!WJ,~>
rrB2$iW/lUrrC[NrrD!WJ,~>
rrB2$iW/lUrrC[NrrD!WJ,~>
rrB5%iW/lUr;bILrrD$XJ,~>
rrB5%iW/lUr;bILrrD$XJ,~>
rrB5%iW/lUr;bILrrD$XJ,~>
rrB2$j8f&VquG@KrrD'YJ,~>
rrB2$j8f&VquG@KrrD'YJ,~>
rrB2$j8f&VquG@KrrD'YJ,~>
rrB/#jT,,VrW(OLrrD'YJ,~>
rrB/#jT,,VrW(OLrrD'YJ,~>
rrB/#jT,,VrW(OLrrD'YJ,~>
rrB/#j8f#U!!(OKrrD*ZJ,~>
rrB/#j8f#U!!(OKrrD*ZJ,~>
rrB/#j8f#U!!(OKrrD*ZJ,~>
rrB2$iW/iT!!(OKrrD*ZJ,~>
rrB2$iW/iT!!(OKrrD*ZJ,~>
rrB2$iW/iT!!(OKrrD*ZJ,~>
rrB5%iW/iTrW(IJrrD-[J,~>
rrB5%iW/iTrW(IJrrD-[J,~>
rrB5%iW/iTrW(IJrrD-[J,~>
rrB5%irJoTr;b@IrrD0\J,~>
rrB5%irJoTr;b@IrrD0\J,~>
rrB5%irJoTr;b@IrrD0\J,~>
rrB8&iW/cRrW(IJrrD0\J,~>
rrB8&iW/cRrW(IJrrD0\J,~>
rrB8&iW/cRrW(IJrrD0\J,~>
rrB5%iW/fS!!(FHrrD3]J,~>
rrB5%iW/fS!!(FHrrD3]J,~>
rrB5%iW/fS!!(FHrrD3]J,~>
nc69$iW.+#rrD3]J,~>
nc69$iW.+#rrD3]J,~>
nc69$iW.+#rrD3]J,~>
!<;Ed_#NBoaT)8?kPp&~>
!<;Ed_#NBoaT)8?kPp&~>
!<;Ed_#NBoaT)8?kPp&~>
o)JFa`W+ot`rH&=kl6/~>
o)JFa`W+ot`rH&=kl6/~>
o)JFa`W+ot`rH&=kl6/~>
m/Qk]aoCB$`W,r<kl6/~>
m/Qk]aoCB$`W,r<kl6/~>
m/Qk]aoCB$`W,r<kl6/~>
kl:JZbQ$T&`W,r<l2Q8~>
kl:JZbQ$T&`W,r<l2Q8~>
kl:JZbQ$T&`W,r<l2Q8~>
jT#)Wc2Zf(`rH&=l2Q8~>
jT#)Wc2Zf(`rH&=l2Q8~>
jT#)Wc2Zf(`rH&=l2Q8~>
iW&fUd/W)*`W,r<lMlA~>
iW&fUd/W)*`W,r<lMlA~>
iW&fUd/W)*`W,r<lMlA~>
hZ*KReGnM.`;fi;lMlA~>
hZ*KReGnM.`;fi;lMlA~>
hZ*KReGnM.`;fi;lMlA~>
h#I9Pec4Y0_uK`:li2J~>
h#I9Pec4Y0_uK`:li2J~>
h#I9Pec4Y0_uK`:li2J~>
g&M!Nf)Oe2_uK`:li2J~>
g&M!Nf)Oe2_uK`:li2J~>
g&M!Nf)Oe2_uK`:li2J~>
fDkdLfDjn3_uK`:m/MS~>
fDkdLfDjn3_uK`:m/MS~>
fDkdLfDjn3_uK`:m/MS~>
ec5RJf`1%5_uK`:m/MS~>
ec5RJf`1%5_uK`:m/MS~>
ec5RJf`1%5_uK`:m/MS~>
e,T@HgAg=9_#OE7mJh\~>
e,T@HgAg=9_#OE7mJh\~>
e,T@HgAg=9_#OE7mJh\~>
dJs.Fh>cU;_#OE7mJh\~>
dJs.Fh>cU;_#OE7mJh\~>
dJs.Fh>cU;_#OE7mJh\~>
ci<tEhuDa;_#OE7mf.e~>
ci<tEhuDa;_#OE7mf.e~>
ci<tEhuDa;_#OE7mf.e~>
c2[bCi;_j<_>jN8mf.e~>
c2[bCi;_j<_>jN8mf.e~>
c2[bCi;_j<_>jN8mf.e~>
bl@VAiW%s=_>jN8n,In~>
bl@VAiW%s=_>jN8n,In~>
bl@VAiW%s=_>jN8n,In~>
b5_G@j8\->_>jN8n,In~>
b5_G@j8\->_>jN8n,In~>
b5_G@j8\->_>jN8n,In~>
aT)8?jo=9>_>jN8nGe"~>
aT)8?jo=9>_>jN8nGe"~>
aT)8?jo=9>_>jN8nGe"~>
a8c,=k5XHA_#OE7nGe"~>
a8c,=k5XHA_#OE7nGe"~>
a8c,=k5XHA_#OE7nGe"~>
`rH#<k5XNC^An35nc++~>
`rH#<k5XNC^An35nc++~>
`rH#<k5XNC^An35nc++~>
`;fi;kPsWD^An35nc++~>
`;fi;kPsWD^An35nc++~>
`;fi;kPsWD^An35nc++~>
_uK]9lMolE^]4<6nc++~>
_uK]9lMolE^]4<6nc++~>
_uK]9lMolE^]4<6nc++~>
_Z0T8m/Q#E^]4<6o)F4~>
_Z0T8m/Q#E^]4<6o)F4~>
_Z0T8m/Q#E^]4<6o)F4~>
_#OE7m/Q,H^&S*4o)F4~>
_#OE7m/Q,H^&S*4o)F4~>
_#OE7m/Q,H^&S*4o)F4~>
^]4<6m/Q2J]Dqm2oDa=~>
^]4<6m/Q2J]Dqm2oDa=~>
^]4<6m/Q2J]Dqm2oDa=~>
^An35m/Q2J]`8!3oDa=~>
^An35m/Q2J]`8!3oDa=~>
^An35m/Q2J]`8!3oDa=~>
^&S*4m/Q2J^&S*4oDa=~>
^&S*4m/Q2J^&S*4oDa=~>
^&S*4m/Q2J^&S*4oDa=~>
]`8!3mf2AK]`8!3o`'F~>
]`8!3mf2AK]`8!3o`'F~>
]`8!3mf2AK]`8!3o`'F~>
]Dqm2nGhVN])Vd1o`'F~>
]Dqm2nGhVN])Vd1o`'F~>
]Dqm2nGhVN])Vd1o`'F~>
])Vd1nc._O\c;[0p&BO~>
])Vd1nc._O\c;[0p&BO~>
])Vd1nc._O\c;[0p&BO~>
\c;[0nc.bP\c;[0p&BO~>
\c;[0nc.bP\c;[0p&BO~>
\c;[0nc.bP\c;[0p&BO~>
\GuR/nc.bP])Vd1p&BO~>
\GuR/nc.bP])Vd1p&BO~>
\GuR/nc.bP])Vd1p&BO~>
\,ZI.o)IkQ\c;[0pA]X~>
\,ZI.o)IkQ\c;[0pA]X~>
\,ZI.o)IkQ\c;[0pA]X~>
[f?@-o)IkQ])Vd1pA]X~>
[f?@-o)IkQ])Vd1pA]X~>
[f?@-o)IkQ])Vd1pA]X~>
[K$7,p&F(Q]Dqm2pA]X~>
[K$7,p&F(Q]Dqm2pA]X~>
[K$7,p&F(Q]Dqm2pA]X~>
[/^.+pAa4S\c;[0p]#a~>
[/^.+pAa4S\c;[0p]#a~>
[/^.+pAa4S\c;[0p]#a~>
[/^.+pAaabs8Vcm\,ZI.p]#a~>
[/^.+pAaabs8Vcm\,ZI.p]#a~>
[/^.+pAaabs8Vcm\,ZI.p]#a~>
ZiC%*pAagdrVuQk\GuR/p]#a~>
ZiC%*pAagdrVuQk\GuR/p]#a~>
ZiC%*pAagdrVuQk\GuR/p]#a~>
ZN'q)pAagdrr;Zl\,ZI.q#>j~>
ZN'q)pAagdrr;Zl\,ZI.q#>j~>
ZN'q)pAagdrr;Zl\,ZI.q#>j~>
Z2ah(p]'pe!<;Wj\GuR/q#>j~>
Z2ah(p]'pe!<;Wj\GuR/q#>j~>
Z2ah(p]'pe!<;Wj\GuR/q#>j~>
YlF_'q>]RW\GuR/q#>j~>
YlF_'q>]RW\GuR/q#>j~>
YlF_'q>]RW\GuR/q#>j~>
YlF_'qZ#UV\GuR/q>Ys~>
YlF_'qZ#UV\GuR/q>Ys~>
YlF_'qZ#UV\GuR/q>Ys~>
YQ+V&qZ#XW\GuR/q>Ys~>
YQ+V&qZ#XW\GuR/q>Ys~>
YQ+V&qZ#XW\GuR/q>Ys~>
Y5eM%qu?<hrr;Zl[f?@-q>Ys~>
Y5eM%qu?<hrr;Zl[f?@-q>Ys~>
Y5eM%qu?<hrr;Zl[f?@-q>Ys~>
Y5eM%qZ$6hrr;Zl[K$7,qYu'~>
Y5eM%qZ$6hrr;Zl[K$7,qYu'~>
Y5eM%qZ$6hrr;Zl[K$7,qYu'~>
XoJD$qu??irVuTl[K$7,qYu'~>
XoJD$qu??irVuTl[K$7,qYu'~>
XoJD$qu??irVuTl[K$7,qYu'~>
XT/;#r;ZEirr;Zl[f?@-qYu'~>
XT/;#r;ZEirr;Zl[f?@-qYu'~>
XT/;#r;ZEirr;Zl[f?@-qYu'~>
XT/;#rr;QirVuTl[f?@-qYu'~>
XT/;#rr;QirVuTl[f?@-qYu'~>
XT/;#rr;QirVuTl[f?@-qYu'~>
X8i2"s8VWi!<;Zk[f?@-qu;0~>
X8i2"s8VWi!<;Zk[f?@-qu;0~>
X8i2"s8VWi!<;Zk[f?@-qu;0~>
X8i2"rr;Tj!<;Wj[f?@-qu;0~>
X8i2"rr;Tj!<;Wj[f?@-qu;0~>
X8i2"rr;Tj!<;Wj[f?@-qu;0~>
WrN)!rr;]mrVuQk[/^.+qu;0~>
WrN)!rr;]mrVuQk[/^.+qu;0~>
WrN)!rr;]mrVuQk[/^.+qu;0~>
WW2tus8Vcmrr;]mZiC%*qu;0~>
WW2tus8Vcmrr;]mZiC%*qu;0~>
WW2tus8Vcmrr;]mZiC%*qu;0~>
WW2turr;]mrVuTlZiC%*r;V9~>
WW2turr;]mrVuTlZiC%*r;V9~>
WW2turr;]mrVuTlZiC%*r;V9~>
W;lkts8Vcmrr;]mZiC%*r;V9~>
W;lkts8Vcmrr;]mZiC%*r;V9~>
W;lkts8Vcmrr;]mZiC%*r;V9~>
W;lktrr;]mrr;Zl[/^.+r;V9~>
W;lktrr;]mrr;Zl[/^.+r;V9~>
W;lktrr;]mrr;Zl[/^.+r;V9~>
VuQ>grVuTl[/^.+r;V9~>
VuQ>grVuTl[/^.+r;V9~>
VuQ>grVuTl[/^.+r;V9~>
VuQ;frr;]mZiC%*rVqB~>
VuQ;frr;]mZiC%*rVqB~>
VuQ;frr;]mZiC%*rVqB~>
VZ65frVuTl[/^.+rVqB~>
VZ65frVuTl[/^.+rVqB~>
VZ65frVuTl[/^.+rVqB~>
VZ65frVuTl[/^.+rVqB~>
VZ65frVuTl[/^.+rVqB~>
VZ65frVuTl[/^.+rVqB~>
V>p5hqu?Bj[/^.+rVqB~>
V>p5hqu?Bj[/^.+rVqB~>
V>p5hqu?Bj[/^.+rVqB~>
V>p5hr;ZQmZ2ah(rVqB~>
V>p5hr;ZQmZ2ah(rVqB~>
V>p5hr;ZQmZ2ah(rVqB~>
V>p5hrVuTlZ2ah(rr7K~>
V>p5hrVuTlZ2ah(rr7K~>
V>p5hrVuTlZ2ah(rr7K~>
V#U,grr;]mZ2ah(rr7K~>
V#U,grr;]mZ2ah(rr7K~>
V#U,grr;]mZ2ah(rr7K~>
V#U,grVuWmZ2ah(rr7K~>
V#U,grVuWmZ2ah(rr7K~>
V#U,grVuWmZ2ah(rr7K~>
U]:#frr;]mZN'q)rr7K~>
U]:#frr;]mZN'q)rr7K~>
U]:#frr;]mZN'q)rr7K~>
U]:#frr;]mZN'q)rr7K~>
U]:#frr;]mZN'q)rr7K~>
U]:#frr;]mZN'q)rr7K~>
U]:#frVuZnYlF_'s8RT~>
U]:#frVuZnYlF_'s8RT~>
U]:#frVuZnYlF_'s8RT~>
UAsoerr;iqY5eM%s8RT~>
UAsoerr;iqY5eM%s8RT~>
UAsoerr;iqY5eM%s8RT~>
UAsoerr;fpYQ+V&s8RT~>
UAsoerr;fpYQ+V&s8RT~>
UAsoerr;fpYQ+V&s8RT~>
UAsoerr;fpYQ+V&s8RT~>
UAsoerr;fpYQ+V&s8RT~>
UAsoerr;fpYQ+V&s8RT~>
U&XrhqZ$EmYQ+V&s8RT~>
U&XrhqZ$EmYQ+V&s8RT~>
U&XrhqZ$EmYQ+V&s8RT~>
U&XrhqZ$EmYQ+V&s8RT~>
U&XrhqZ$EmYQ+V&s8RT~>
U&XrhqZ$EmYQ+V&s8RT~>
U&Xogqu?KmYlF_'s8RT~>
U&Xogqu?KmYlF_'s8RT~>
U&Xogqu?KmYlF_'s8RT~>
U&Xogqu?TpXT/;#!<7Q~>
U&Xogqu?TpXT/;#!<7Q~>
U&Xogqu?TpXT/;#!<7Q~>
T`=igqZ$NpXT/;#!<7Q~>
T`=igqZ$NpXT/;#!<7Q~>
T`=igqZ$NpXT/;#!<7Q~>
T`=igqZ$NpXT/;#!<7Q~>
T`=igqZ$NpXT/;#!<7Q~>
T`=igqZ$NpXT/;#!<7Q~>
T`=ffqu6WrWrN)!!<7Q~>
T`=ffqu6WrWrN)!!<7Q~>
T`=ffqu6WrWrN)!!<7Q~>
T`=ffU]:>o!<7Q~>
T`=ffU]:>o!<7Q~>
T`=ffU]:>o!<7Q~>
TE"`fU]:>o!<7Q~>
TE"`fU]:>o!<7Q~>
TE"`fU]:>o!<7Q~>
TE"`fU]:>o!<7Q~>
TE"`fU]:>o!<7Q~>
TE"`fU]:>o!<7Q~>
TE"`fU]:>o!<7Q~>
TE"`fU]:>o!<7Q~>
TE"`fU]:>o!<7Q~>
TE"iiT`>#l!<7Q~>
TE"iiT`>#l!<7Q~>
TE"iiT`>#l!<7Q~>
TE"fhT`>#lJ,~>
TE"fhT`>#lJ,~>
TE"fhT`>#lJ,~>
T)\`hT`>#lJ,~>
T)\`hT`>#lJ,~>
T)\`hT`>#lJ,~>
T)\`hT`>#lJ,~>
T)\`hT`>#lJ,~>
T)\`hT`>#lJ,~>
T)\`hT`>#lJ,~>
T)\`hT`>#lJ,~>
T)\`hT`>#lJ,~>
T)\fjT)\fjJ,~>
T)\fjT)\fjJ,~>
T)\fjT)\fjJ,~>
T)\fjT)\fjJ,~>
T)\fjT)\fjJ,~>
T)\fjT)\fjJ,~>
T)\fjT)\fjJ,~>
T)\fjT)\fjJ,~>
T)\fjT)\fjJ,~>
T)\fjT)\fjJ,~>
T)\fjT)\fjJ,~>
T)\fjT)\fjJ,~>
ScA]iTE"okJ,~>
ScA]iTE"okJ,~>
ScA]iTE"okJ,~>
ScA]iTE"okJ,~>
ScA]iTE"okJ,~>
ScA]iTE"okJ,~>
ScA]iTE"okJ,~>
ScA]iTE"okJ,~>
ScA]iTE"okJ,~>
ScA]iTE"okJ,~>
ScA]iTE"okJ,~>
ScA]iTE"okJ,~>
ScA]iTE"okJ,~>
ScA]iTE"okJ,~>
ScA]iTE"okJ,~>
ScA]iTE"okJ,~>
ScA]iTE"okJ,~>
ScA]iTE"okJ,~>
ScA]iTE"okJ,~>
ScA]iTE"okJ,~>
ScA]iTE"okJ,~>
ScA]iTE"okJ,~>
ScA]iTE"okJ,~>
ScA]iTE"okJ,~>
ScA]iTE"okJ,~>
ScA]iTE"okJ,~>
ScA]iTE"okJ,~>
Sc>/ZJ,~>
Sc>/ZJ,~>
Sc>/ZJ,~>
SH#,[!<7Q~>
SH#,[!<7Q~>
SH#,[!<7Q~>
%%EndData
showpage
%%Trailer
end
%%EOF
