%!PS-Adobe-3.0 EPSF-3.0
%%Creator: GIMP PostScript file plugin V 1.17 by Peter Kirchgessner
%%Title: E2b_Exact_128-064_T1.eps
%%CreationDate: Tue Jul 30 14:18:23 2013
%%DocumentData: Clean7Bit
%%LanguageLevel: 2
%%Pages: 1
%%BoundingBox: 14 14 112 112
%%EndComments
%%BeginProlog
% Use own dictionary to avoid conflicts
10 dict begin
%%EndProlog
%%Page: 1 1
% Translate for offset
14.173228346456694 14.173228346456694 translate
% Translate to begin of first scanline
0 97.424807047633905 translate
96.944881889763792 -97.424807047633905 scale
% Image geometry
202 203 8
% Transformation matrix
[ 202 0 0 203 0 0 ]
% Strings to hold RGB-samples per scanline
/rstr 202 string def
/gstr 202 string def
/bstr 202 string def
{currentfile /ASCII85Decode filter /RunLengthDecode filter rstr readstring pop}
{currentfile /ASCII85Decode filter /RunLengthDecode filter gstr readstring pop}
{currentfile /ASCII85Decode filter /RunLengthDecode filter bstr readstring pop}
true 3
%%BeginData:        14282 ASCII Bytes
colorimage
!<;`mJcEXfJ,~>
!<;`mJcEXfJ,~>
!<;`mJcEXfJ,~>
kl?;7ci8L~>
kl?;7ci8L~>
kl?;7ci8L~>
rrDfnmJqh<f)L7~>
rrDfnmJqh<f)L7~>
rrDfnmJqh<f)L7~>
rrDBboDjIBh#Dm~>
rrDBboDjIBh#Dm~>
rrDBboDjIBh#Dm~>
rrD-[p&K[DiW"E~>
rrD-[p&K[DiW"E~>
rrD-[p&K[DiW"E~>
rrCpUpAfdEk5Tr~>
rrCpUpAfdEk5Tr~>
rrCpUpAfdEk5Tr~>
rrCaPp],mFlMlA~>
rrCaPp],mFlMlA~>
rrCaPp],mFlMlA~>
rrCRKq>c*HmJh\~>
rrCRKq>c*HmJh\~>
rrCRKq>c*HmJh\~>
rrCFGq>c*Hnc++~>
rrCFGq>c*Hnc++~>
rrCFGq>c*Hnc++~>
rrC=Dq>c*Ho`'F~>
rrC=Dq>c*Ho`'F~>
rrC=Dq>c*Ho`'F~>
rrC1@qZ)3Ip]#a~>
rrC1@qZ)3Ip]#a~>
rrC1@qZ)3Ip]#a~>
rrC(=qZ)3IqYu'~>
rrC(=qZ)3IqYu'~>
rrC(=qZ)3IqYu'~>
rrBt:qZ)3IrVqB~>
rrBt:qZ)3IrVqB~>
rrBt:qZ)3IrVqB~>
rrBk7qZ)3I!<7Q~>
rrBk7qZ)3I!<7Q~>
rrBk7qZ)3I!<7Q~>
rrBb4quD?KJ,~>
rrBb4quD?KJ,~>
rrBb4quD?KJ,~>
rrBY1quDHNJ,~>
rrBY1quDHNJ,~>
rrBY1quDHNJ,~>
rrBS/quDNPJ,~>
rrBS/quDNPJ,~>
rrBS/quDNPJ,~>
rrBJ,r;_]SJ,~>
rrBJ,r;_]SJ,~>
rrBJ,r;_]SJ,~>
rrBD*r;_cUJ,~>
rrBD*r;_cUJ,~>
rrBD*r;_cUJ,~>
rrB>(quDcWJ,~>
rrB>(quDcWJ,~>
rrB>(quDcWJ,~>
rrB8&quDiYJ,~>
rrB8&quDiYJ,~>
rrB8&quDiYJ,~>
rrB/#r;`#\J,~>
rrB/#r;`#\J,~>
rrB/#r;`#\J,~>
rrB)!r;`)^J,~>
rrB)!r;`)^J,~>
rrB)!r;`)^J,~>
rrB"tr;`/`J,~>
rrB"tr;`/`J,~>
rrB"tr;`/`J,~>
rrAqrrW&;bJ,~>
rrAqrrW&;bJ,~>
rrAqrrW&;bJ,~>
rrB)!!!)rsrW&AdJ,~>
rrB)!!!)rsrW&AdJ,~>
rrB)!!!)rsrW&AdJ,~>
rrB)!rW)osr;`>eJ,~>
rrB)!rW)osr;`>eJ,~>
rrB)!rW)osr;`>eJ,~>
rrB,"qZ-Tpr;`DgJ,~>
rrB,"qZ-Tpr;`DgJ,~>
rrB,"qZ-Tpr;`DgJ,~>
rrBM-!!)cnq>gKor;`GhJ,~>
rrBM-!!)cnq>gKor;`GhJ,~>
rrBM-!!)cnq>gKor;`GhJ,~>
rrBV0quHQmpAb3nq>d2gJ,~>
rrBV0quHQmpAb3nq>d2gJ,~>
rrBV0quHQmpAb3nq>d2gJ,~>
rrBY1qZ-Hlm/Wm\J,~>
rrBY1qZ-Hlm/Wm\J,~>
rrBY1qZ-Hlm/Wm\J,~>
rrBY1q#L?mlN!^[J,~>
rrBY1q#L?mlN!^[J,~>
rrBY1q#L?mlN!^[J,~>
rrBY1q>gEmkl@R[J,~>
rrBY1q>gEmkl@R[J,~>
rrBY1q>gEmkl@R[J,~>
rrBV0q>gKok5_CZJ,~>
rrBV0q>gKok5_CZJ,~>
rrBV0q>gKok5_CZJ,~>
rrBV0q#LEokl:_`rW&nsJ,~>
rrBV0q#LEokl:_`rW&nsJ,~>
rrBV0q#LEokl:_`rW&nsJ,~>
rrBV0q>gKokPtV_rW&qtJ,~>
rrBV0q>gKokPtV_rW&qtJ,~>
rrBV0q>gKokPtV_rW&qtJ,~>
rrBY1q#L?mk5YM^rW'#!J,~>
rrBY1q#L?mk5YM^rW'#!J,~>
rrBY1q#L?mk5YM^rW'#!J,~>
rrBY1p]19mkQ(V^rW'&"J,~>
rrBY1p]19mkQ(V^rW'&"J,~>
rrBY1p]19mkQ(V^rW'&"J,~>
rrBY1pAk6njoGA[rW',$J,~>
rrBY1pAk6njoGA[rW',$J,~>
rrBY1pAk6njoGA[rW',$J,~>
rrB\2pAk3mjT,8ZrW'/%J,~>
rrB\2pAk3mjT,8ZrW'/%J,~>
rrB\2pAk3mjT,8ZrW'/%J,~>
rrB\2pAk3mjoG8XrrB;'J,~>
rrB\2pAk3mjoG8XrrB;'J,~>
rrB\2pAk3mjoG8XrrB;'J,~>
rrB\2p]16ljoG8XrW'8(J,~>
rrB\2p]16ljoG8XrW'8(J,~>
rrB\2p]16ljoG8XrW'8(J,~>
rrBY1p]19mjT,/WrW';)J,~>
rrBY1p]19mjT,/WrW';)J,~>
rrBY1p]19mjT,/WrW';)J,~>
rrBY1pAk6njT,&TrrBG+J,~>
rrBY1pAk6njT,&TrrBG+J,~>
rrBY1pAk6njT,&TrrBG+J,~>
rrB\2pAk3mirJlSrrBJ,J,~>
rrB\2pAk3mirJlSrrBJ,J,~>
rrB\2pAk3mirJlSrrBJ,J,~>
rrB\2pAk6niW/`QrW'G-J,~>
rrB\2pAk6niW/`QrW'G-J,~>
rrB\2pAk6niW/`QrW'G-J,~>
rrB_3pAk-kj8eoRrW'J.J,~>
rrB_3pAk-kj8eoRrW'J.J,~>
rrB_3pAk-kj8eoRrW'J.J,~>
rrB_3pAk0liW/ZOrrBV0J,~>
rrB_3pAk0liW/ZOrrBV0J,~>
rrB_3pAk0liW/ZOrrBV0J,~>
rrB\2pAk3miW/WNrrBY1J,~>
rrB\2pAk3miW/WNrrBY1J,~>
rrB\2pAk3miW/WNrrBY1J,~>
rrB\2pAk6niW/QLrrB\2J,~>
rrB\2pAk6niW/QLrrB\2J,~>
rrB\2pAk6niW/QLrrB\2J,~>
rrB\2p]1<niW/NKrW'Y3J,~>
rrB\2p]1<niW/NKrW'Y3J,~>
rrB\2p]1<niW/NKrW'Y3J,~>
rrB_3p&P*liW/NKrW'\4J,~>
rrB_3p&P*liW/NKrW'\4J,~>
rrB_3p&P*liW/NKrW'\4J,~>
rrB_3o`5$liW/HIrrBh6J,~>
rrB_3o`5$liW/HIrrBh6J,~>
rrB_3o`5$liW/HIrrBh6J,~>
rrB\2pAk3miW/EHrrBk7J,~>
rrB\2pAk3miW/EHrrBk7J,~>
rrB\2pAk3miW/EHrrBk7J,~>
rrB\2pAk6nhuN3FrrBn8J,~>
rrB\2pAk6nhuN3FrrBn8J,~>
rrB\2pAk6nhuN3FrrBn8J,~>
rrB\2p]16lirJHGrrBq9J,~>
rrB\2p]16lirJHGrrBq9J,~>
rrB\2p]16lirJHGrrBq9J,~>
rrB_3pAk0liW/<ErrBt:J,~>
rrB_3pAk0liW/<ErrBt:J,~>
rrB_3pAk0liW/<ErrBt:J,~>
rrBY1p]1<niW/9DrrC";J,~>
rrBY1p]1<niW/9DrrC";J,~>
rrBY1p]1<niW/9DrrC";J,~>
rrBY1p]1?ohuN'BrrC%<J,~>
rrBY1p]1?ohuN'BrrC%<J,~>
rrBY1p]1?ohuN'BrrC%<J,~>
rrB\2p]1<ni;icTrrDQgrrC(=J,~>
rrB\2p]1<ni;icTrrDQgrrC(=J,~>
rrB\2p]1<ni;icTrrDQgrrC(=J,~>
rrB\2pAk3mirJrUrW)HfrrC+>J,~>
rrB\2pAk3mirJrUrW)HfrrC+>J,~>
rrB\2pAk3mirJrUrW)HfrrC+>J,~>
rrBY1pAk6niW/oVquH6drrC.?J,~>
rrBY1pAk6niW/oVquH6drrC.?J,~>
rrBY1pAk6niW/oVquH6drrC.?J,~>
rrBY1p]1?ohuNcVqZ-*brrC1@J,~>
rrBY1p]1?ohuNcVqZ-*brrC1@J,~>
rrBY1p]1?ohuNcVqZ-*brrC1@J,~>
rrB\2p]1<ni;ifUquH0brrC4AJ,~>
rrB\2p]1<ni;ifUquH0brrC4AJ,~>
rrB\2p]1<ni;ifUquH0brrC4AJ,~>
rrBY1q#L?mj8f)WqZ-'arrC7BJ,~>
rrBY1q#L?mj8f)WqZ-'arrC7BJ,~>
rrBY1q#L?mj8f)WqZ-'arrC7BJ,~>
rrBY1q#LBniW/rWq>fp_rrC:CJ,~>
rrBY1q#LBniW/rWq>fp_rrC:CJ,~>
rrBY1q#LBniW/rWq>fp_rrC:CJ,~>
rrBY1p]1?oi;iiVq>fm^rrC=DJ,~>
rrBY1p]1?oi;iiVq>fm^rrC=DJ,~>
rrBY1p]1?oi;iiVq>fm^rrC=DJ,~>
rrB\2p]1<ni;ifUq>fm^rrC@EJ,~>
rrB\2p]1<ni;ifUq>fm^rrC@EJ,~>
rrB\2p]1<ni;ifUq>fm^rrC@EJ,~>
rrBV0q>gKoi;iiVqZ,p]rrCCFJ,~>
rrBV0q>gKoi;iiVqZ,p]rrCCFJ,~>
rrBV0q>gKoi;iiVqZ,p]rrCCFJ,~>
rrBY1q>gHni;iiVquGs\rrCFGJ,~>
rrBY1q>gHni;iiVquGs\rrCFGJ,~>
rrBY1q>gHni;iiVquGs\rrCFGJ,~>
rrBY1q>gKoi;icTr;c']rrCFGJ,~>
rrBY1q>gKoi;icTr;c']rrCFGJ,~>
rrBY1q>gKoi;icTr;c']rrCFGJ,~>
rrBY1q#LBniW/oVqZ,j[rrCIHJ,~>
rrBY1q#LBniW/oVqZ,j[rrCIHJ,~>
rrBY1q#LBniW/oVqZ,j[rrCIHJ,~>
rrBV0q>gKoi;ilWq>f^YrrCLIJ,~>
rrBV0q>gKoi;ilWq>f^YrrCLIJ,~>
rrBV0q>gKoi;ilWq>f^YrrCLIJ,~>
rrBY1q>gHniW/rWq>f[XrrCOJJ,~>
rrBY1q>gHniW/rWq>f[XrrCOJJ,~>
rrBY1q>gHniW/rWq>f[XrrCOJJ,~>
rrBS/qZ-WqiW/iTqZ,dYrrCRKJ,~>
rrBS/qZ-WqiW/iTqZ,dYrrCRKJ,~>
rrBS/qZ-WqiW/iTqZ,dYrrCRKJ,~>
rrBV0q>gKoiW/oVqZ,^WrrCULJ,~>
rrBV0q>gKoiW/oVqZ,^WrrCULJ,~>
rrBV0q>gKoiW/oVqZ,^WrrCULJ,~>
rrBV0qZ-Qoi;ilWq#KOVrrCULJ,~>
rrBV0qZ-Qoi;ilWq#KOVrrCULJ,~>
rrBV0qZ-Qoi;ilWq#KOVrrCULJ,~>
rrBV0qZ-QoiW/rWq#KLUrrCXMJ,~>
rrBV0qZ-QoiW/rWq#KLUrrCXMJ,~>
rrBV0qZ-QoiW/rWq#KLUrrCXMJ,~>
rrBS/r;c]oiW/rWqZ,XUrrC[NJ,~>
rrBS/r;c]oiW/rWqZ,XUrrC[NJ,~>
rrBS/r;c]oiW/rWqZ,XUrrC[NJ,~>
rrBV0qZ-Qonc/[inGrRgq>fLSrrC^OJ,~>
rrBV0qZ-Qonc/[inGrRgq>fLSrrC^OJ,~>
rrBV0qZ-Qonc/[inGrRgq>fLSrrC^OJ,~>
rrBP.r;ccqnc8^io)S^gq>fOTrrC^OJ,~>
rrBP.r;ccqnc8^io)S^gq>fOTrrC^OJ,~>
rrBP.r;ccqnc8^io)S^gq>fOTrrC^OJ,~>
rrBS/r;c]oj8f)WqZ,RSrrCaPJ,~>
rrBS/r;c]oj8f)WqZ,RSrrCaPJ,~>
rrBS/r;c]oj8f)WqZ,RSrrCaPJ,~>
rrBP.rW)iqiW/oVqZ,ORrrCdQJ,~>
rrBP.rW)iqiW/oVqZ,ORrrCdQJ,~>
rrBP.rW)iqiW/oVqZ,ORrrCdQJ,~>
rrB5%o)Sgjnc8ReqZ,ORrrCgRJ,~>
rrB5%o)Sgjnc8ReqZ,ORrrCgRJ,~>
rrB5%o)Sgjnc8ReqZ,ORrrCgRJ,~>
rrB5%nc/[inc8UfqZ,LQrrCgRJ,~>
rrB5%nc/[inc8UfqZ,LQrrCgRJ,~>
rrB5%nc/[inc8UfqZ,LQrrCgRJ,~>
rrB2$o)JdjnGrRgq#K:OrrCjSJ,~>
rrB2$o)JdjnGrRgq#K:OrrCjSJ,~>
rrB2$o)JdjnGrRgq#K:OrrCjSJ,~>
rrB5%nc8^io)Sahp]01NrrCmTJ,~>
rrB5%nc8^io)Sahp]01NrrCmTJ,~>
rrB5%nc8^io)Sahp]01NrrCmTJ,~>
rrB2$iW/rWqZ,CNrrCpUJ,~>
rrB2$iW/rWqZ,CNrrCpUJ,~>
rrB2$iW/rWqZ,CNrrCpUJ,~>
rrB2$iW/uXqZ,@MrrCpUJ,~>
rrB2$iW/uXqZ,@MrrCpUJ,~>
rrB2$iW/uXqZ,@MrrCpUJ,~>
rrB5%o)Sgjnc8UfqZ,@MrrCsVJ,~>
rrB5%o)Sgjnc8UfqZ,@MrrCsVJ,~>
rrB5%o)Sgjnc8UfqZ,@MrrCsVJ,~>
rrB5%nc/[io)S[fqZ,=LrrD!WJ,~>
rrB5%nc/[io)S[fqZ,=LrrD!WJ,~>
rrB5%nc/[io)S[fqZ,=LrrD!WJ,~>
rrB2$o)Jdjnc8UfqZ,=LrrD!WJ,~>
rrB2$o)Jdjnc8UfqZ,=LrrD!WJ,~>
rrB2$o)Jdjnc8UfqZ,=LrrD!WJ,~>
rrB5%o)Sdio)S[fqZ,=LrrD$XJ,~>
rrB5%o)Sdio)S[fqZ,=LrrD$XJ,~>
rrB5%o)Sdio)S[fqZ,=LrrD$XJ,~>
rrB2$irK#WqZ,7JrrD'YJ,~>
rrB2$irK#WqZ,7JrrD'YJ,~>
rrB2$irK#WqZ,7JrrD'YJ,~>
rrB2$o)Sgjnc8Xgq>f1JrrD'YJ,~>
rrB2$o)Sgjnc8Xgq>f1JrrD'YJ,~>
rrB2$o)Sgjnc8Xgq>f1JrrD'YJ,~>
rrB2$o)Sgjo)S[fqZ,7JrrD*ZJ,~>
rrB2$o)Sgjo)S[fqZ,7JrrD*ZJ,~>
rrB2$o)Sgjo)S[fqZ,7JrrD*ZJ,~>
rrB2$iW/rWqZ,4IrrD*ZJ,~>
rrB2$iW/rWqZ,4IrrD*ZJ,~>
rrB2$iW/rWqZ,4IrrD*ZJ,~>
rrB2$o)Sgjo)S[fr;b@IrrD-[J,~>
rrB2$o)Sgjo)S[fr;b@IrrD-[J,~>
rrB2$o)Sgjo)S[fr;b@IrrD-[J,~>
rrB/#o`5$lnc8UfqZ,.GrrD0\J,~>
rrB/#o`5$lnc8UfqZ,.GrrD0\J,~>
rrB/#o`5$lnc8UfqZ,.GrrD0\J,~>
rrB2$iW/rWqZ,.GrrD0\J,~>
rrB2$iW/rWqZ,.GrrD0\J,~>
rrB2$iW/rWqZ,.GrrD0\J,~>
rrB5%o)Sgjnc8Rer;b:GrrD3]J,~>
rrB5%o)Sgjnc8Rer;b:GrrD3]J,~>
rrB5%o)Sgjnc8Rer;b:GrrD3]J,~>
nc69$o)JdjnGrOfqZ,+FrrD3]J,~>
nc69$o)JdjnGrOfqZ,+FrrD3]J,~>
nc69$o)JdjnGrOfqZ,+FrrD3]J,~>
!<;Ed_#O!+!<;Qhr;Z]qdJs4HkPp&~>
!<;Ed_#O!+!<;Qhr;Z]qdJs4HkPp&~>
!<;Ed_#O!+!<;Qhr;Z]qdJs4HkPp&~>
o)JFa`;fE/s8VWiqu?TpdJs4Hkl6/~>
o)JFa`;fE/s8VWiqu?TpdJs4Hkl6/~>
o)JFa`;fE/s8VWiqu?TpdJs4Hkl6/~>
m/Qk]aT(6"qZ$NpdJs4Hkl6/~>
m/Qk]aT(6"qZ$NpdJs4Hkl6/~>
m/Qk]aT(6"qZ$NpdJs4Hkl6/~>
kl:JZbQ%/6s8VZjqu?Tpci="Fl2Q8~>
kl:JZbQ%/6s8VZjqu?Tpci="Fl2Q8~>
kl:JZbQ%/6s8VZjqu?Tpci="Fl2Q8~>
jT#)Wc2[D9!<;Qhqu?ZrcN!nEl2Q8~>
jT#)Wc2[D9!<;Qhqu?ZrcN!nEl2Q8~>
jT#)Wc2[D9!<;Qhqu?ZrcN!nEl2Q8~>
iW&fUd/W)*qu?WqcN!nElMlA~>
iW&fUd/W)*qu?WqcN!nElMlA~>
iW&fUd/W)*qu?WqcN!nElMlA~>
hZ*KRdf8>-qu?Zrc2[eDlMlA~>
hZ*KRdf8>-qu?Zrc2[eDlMlA~>
hZ*KRdf8>-qu?Zrc2[eDlMlA~>
h#I9Pe,SJ/qu6WrbQ%SBli2J~>
h#I9Pe,SJ/qu6WrbQ%SBli2J~>
h#I9Pe,SJ/qu6WrbQ%SBli2J~>
g&M!Nf)Oe2_uK`:li2J~>
g&M!Nf)Oe2_uK`:li2J~>
g&M!Nf)Oe2_uK`:li2J~>
fDkdLfDjn3_uK`:m/MS~>
fDkdLfDjn3_uK`:m/MS~>
fDkdLfDjn3_uK`:m/MS~>
ec5RJg&L+5_uK`:m/MS~>
ec5RJg&L+5_uK`:m/MS~>
ec5RJg&L+5_uK`:m/MS~>
e,T@Hh#HC7_Z0W9mJh\~>
e,T@Hh#HC7_Z0W9mJh\~>
e,T@Hh#HC7_Z0W9mJh\~>
dJs.Fh>cO9_Z0W9mJh\~>
dJs.Fh>cO9_Z0W9mJh\~>
dJs.Fh>cO9_Z0W9mJh\~>
ci<tEhuDa;_#OE7mf.e~>
ci<tEhuDa;_#OE7mf.e~>
ci<tEhuDa;_#OE7mf.e~>
c2[bCi;_j<_>jN8mf.e~>
c2[bCi;_j<_>jN8mf.e~>
c2[bCi;_j<_>jN8mf.e~>
bl@VAj8\0?^]4<6n,In~>
bl@VAj8\0?^]4<6n,In~>
bl@VAj8\0?^]4<6n,In~>
b5_G@j8\3@^]4<6n,In~>
b5_G@j8\3@^]4<6n,In~>
b5_G@j8\3@^]4<6n,In~>
aT)8?j8\3@^]4<6nGe"~>
aT)8?j8\3@^]4<6nGe"~>
aT)8?j8\3@^]4<6nGe"~>
a8c,=jo=BA_#OE7nGe"~>
a8c,=jo=BA_#OE7nGe"~>
a8c,=jo=BA_#OE7nGe"~>
`rH#<k5XNC^An35nc++~>
`rH#<k5XNC^An35nc++~>
`rH#<k5XNC^An35nc++~>
`;fi;kPsWD^An35nc++~>
`;fi;kPsWD^An35nc++~>
`;fi;kPsWD^An35nc++~>
_uK]9lMooF^An35nc++~>
_uK]9lMooF^An35nc++~>
_uK]9lMooF^An35nc++~>
_Z0T8lMorG^&S*4o)F4~>
_Z0T8lMorG^&S*4o)F4~>
_Z0T8lMorG^&S*4o)F4~>
_#OE7lMouH^&S*4o)F4~>
_#OE7lMouH^&S*4o)F4~>
_#OE7lMouH^&S*4o)F4~>
^]4<6m/Q2J]Dqm2oDa=~>
^]4<6m/Q2J]Dqm2oDa=~>
^]4<6m/Q2J]Dqm2oDa=~>
^An35m/Q\X!<;Zk]`8!3oDa=~>
^An35m/Q\X!<;Zk]`8!3oDa=~>
^An35m/Q\X!<;Zk]`8!3oDa=~>
^&S*4mf2nZs8VZj^&S*4oDa=~>
^&S*4mf2nZs8VZj^&S*4oDa=~>
^&S*4mf2nZs8VZj^&S*4oDa=~>
]`8!3n,MGK]`8!3o`'F~>
]`8!3n,MGK]`8!3o`'F~>
]`8!3n,MGK]`8!3o`'F~>
]Dqm2n,N%\s8V]k]Dqm2o`'F~>
]Dqm2n,N%\s8V]k]Dqm2o`'F~>
]Dqm2n,N%\s8V]k]Dqm2o`'F~>
])Vd1nGi+\s8V]k]Dqm2p&BO~>
])Vd1nGi+\s8V]k]Dqm2p&BO~>
])Vd1nGi+\s8V]k]Dqm2p&BO~>
\c;[0nc/4]s8V]k]Dqm2p&BO~>
\c;[0nc/4]s8V]k]Dqm2p&BO~>
\c;[0nc/4]s8V]k]Dqm2p&BO~>
\GuR/oDeF_rr;Tj]Dqm2p&BO~>
\GuR/oDeF_rr;Tj]Dqm2p&BO~>
\GuR/oDeF_rr;Tj]Dqm2p&BO~>
\,ZI.o`+L_s8V`l\c;[0pA]X~>
\,ZI.o`+L_s8V`l\c;[0pA]X~>
\,ZI.o`+L_s8V`l\c;[0pA]X~>
[f?@-o`+O`s8V]k])Vd1pA]X~>
[f?@-o`+O`s8V]k])Vd1pA]X~>
[f?@-o`+O`s8V]k])Vd1pA]X~>
[K$7,p&FXarr;Zl\c;[0pA]X~>
[K$7,p&FXarr;Zl\c;[0pA]X~>
[K$7,p&FXarr;Zl\c;[0pA]X~>
[/^.+pAaabs8V`l\GuR/p]#a~>
[/^.+pAaabs8V`l\GuR/p]#a~>
[/^.+pAaabs8V`l\GuR/p]#a~>
[/^.+pAaabs8V]k\c;[0p]#a~>
[/^.+pAaabs8V]k\c;[0p]#a~>
[/^.+pAaabs8V]k\c;[0p]#a~>
ZiC%*pAagdrVuNj\c;[0p]#a~>
ZiC%*pAagdrVuNj\c;[0p]#a~>
ZiC%*pAagdrVuNj\c;[0p]#a~>
ZN'q)q#Bsdrr;Zl\,ZI.q#>j~>
ZN'q)q#Bsdrr;Zl\,ZI.q#>j~>
ZN'q)q#Bsdrr;Zl\,ZI.q#>j~>
Z2ah(q>^'es8V]k\GuR/q#>j~>
Z2ah(q>^'es8V]k\GuR/q#>j~>
Z2ah(q>^'es8V]k\GuR/q#>j~>
YlF_'q>^-grVuNj\GuR/q#>j~>
YlF_'q>^-grVuNj\GuR/q#>j~>
YlF_'q>^-grVuNj\GuR/q#>j~>
YlF_'qZ$0frr;Zl[f?@-q>Ys~>
YlF_'qZ$0frr;Zl[f?@-q>Ys~>
YlF_'qZ$0frr;Zl[f?@-q>Ys~>
YQ+V&qZ$3grVuTl[f?@-q>Ys~>
YQ+V&qZ$3grVuTl[f?@-q>Ys~>
YQ+V&qZ$3grVuTl[f?@-q>Ys~>
Y5eM%qu?<hrr;Wk\,ZI.q>Ys~>
Y5eM%qu?<hrr;Wk\,ZI.q>Ys~>
Y5eM%qu?<hrr;Wk\,ZI.q>Ys~>
Y5eM%qZ$6hrr;Wk[f?@-qYu'~>
Y5eM%qZ$6hrr;Wk[f?@-qYu'~>
Y5eM%qZ$6hrr;Wk[f?@-qYu'~>
XoJD$r;ZEirVuTl[K$7,qYu'~>
XoJD$r;ZEirVuTl[K$7,qYu'~>
XoJD$r;ZEirVuTl[K$7,qYu'~>
XT/;#rVuKirr;Zl[f?@-qYu'~>
XT/;#rVuKirr;Zl[f?@-qYu'~>
XT/;#rVuKirr;Zl[f?@-qYu'~>
XT/;#r;ZEis8V`l[f?@-qYu'~>
XT/;#r;ZEis8V`l[f?@-qYu'~>
XT/;#r;ZEis8V`l[f?@-qYu'~>
X8i2"rr;Wkrr;Zl[/^.+qu;0~>
X8i2"rr;Wkrr;Zl[/^.+qu;0~>
X8i2"rr;Wkrr;Zl[/^.+qu;0~>
X8i2"rr;WkrVuTl[/^.+qu;0~>
X8i2"rr;WkrVuTl[/^.+qu;0~>
X8i2"rr;WkrVuTl[/^.+qu;0~>
WrN)!rr;Wkrr;Zl[K$7,qu;0~>
WrN)!rr;Wkrr;Zl[K$7,qu;0~>
WrN)!rr;Wkrr;Zl[K$7,qu;0~>
WW2tus8VcmrVuQk[K$7,qu;0~>
WW2tus8VcmrVuQk[K$7,qu;0~>
WW2tus8VcmrVuQk[K$7,qu;0~>
WW2tus8VcmrVuQk[/^.+r;V9~>
WW2tus8VcmrVuQk[/^.+r;V9~>
WW2tus8VcmrVuQk[/^.+r;V9~>
W;lDgrr;Zl[/^.+r;V9~>
W;lDgrr;Zl[/^.+r;V9~>
W;lDgrr;Zl[/^.+r;V9~>
W;lkt!<;]lrr;Zl[/^.+r;V9~>
W;lkt!<;]lrr;Zl[/^.+r;V9~>
W;lkt!<;]lrr;Zl[/^.+r;V9~>
VuQ>grVuTl[/^.+r;V9~>
VuQ>grVuTl[/^.+r;V9~>
VuQ>grVuTl[/^.+r;V9~>
VuQbs!<;cnr;ZKkZiC%*rVqB~>
VuQbs!<;cnr;ZKkZiC%*rVqB~>
VuQbs!<;cnr;ZKkZiC%*rVqB~>
VZ68grVuWmZN'q)rVqB~>
VZ68grVuWmZN'q)rVqB~>
VZ68grVuWmZN'q)rVqB~>
VZ68grr;]mZN'q)rVqB~>
VZ68grr;]mZN'q)rVqB~>
VZ68grr;]mZN'q)rVqB~>
V>p2grVuTlZiC%*rVqB~>
V>p2grVuTlZiC%*rVqB~>
V>p2grVuTlZiC%*rVqB~>
V>p/frr;]mZiC%*rVqB~>
V>p/frr;]mZiC%*rVqB~>
V>p/frr;]mZiC%*rVqB~>
V>p/frr;]mZN'q)rr7K~>
V>p/frr;]mZN'q)rr7K~>
V>p/frr;]mZN'q)rr7K~>
V#U,gr;ZQmZ2ah(rr7K~>
V#U,gr;ZQmZ2ah(rr7K~>
V#U,gr;ZQmZ2ah(rr7K~>
V#U,gr;ZQmZ2ah(rr7K~>
V#U,gr;ZQmZ2ah(rr7K~>
V#U,gr;ZQmZ2ah(rr7K~>
U]:#frVuWmZN'q)rr7K~>
U]:#frVuWmZN'q)rr7K~>
U]:#frVuWmZN'q)rr7K~>
U]:#frr;]mZN'q)rr7K~>
U]:#frr;]mZN'q)rr7K~>
U]:#frr;]mZN'q)rr7K~>
U]:&gr;ZQmYlF_'s8RT~>
U]:&gr;ZQmYlF_'s8RT~>
U]:&gr;ZQmYlF_'s8RT~>
UAsugr;ZQmYlF_'s8RT~>
UAsugr;ZQmYlF_'s8RT~>
UAsugr;ZQmYlF_'s8RT~>
UAsugr;ZQmYlF_'s8RT~>
UAsugr;ZQmYlF_'s8RT~>
UAsugr;ZQmYlF_'s8RT~>
UAsugr;ZQmYlF_'s8RT~>
UAsugr;ZQmYlF_'s8RT~>
UAsugr;ZQmYlF_'s8RT~>
U&Xlfr;ZWoYQ+V&s8RT~>
U&Xlfr;ZWoYQ+V&s8RT~>
U&Xlfr;ZWoYQ+V&s8RT~>
U&Xogqu?NnYQ+V&s8RT~>
U&Xogqu?NnYQ+V&s8RT~>
U&Xogqu?NnYQ+V&s8RT~>
U&Xogqu?KmYlF_'s8RT~>
U&Xogqu?KmYlF_'s8RT~>
U&Xogqu?KmYlF_'s8RT~>
U&Xogqu?KmYQ+V&!<7Q~>
U&Xogqu?KmYQ+V&!<7Q~>
U&Xogqu?KmYQ+V&!<7Q~>
T`=igqZ$KoXoJD$!<7Q~>
T`=igqZ$KoXoJD$!<7Q~>
T`=igqZ$KoXoJD$!<7Q~>
T`=igqZ$HnY5eM%!<7Q~>
T`=igqZ$HnY5eM%!<7Q~>
T`=igqZ$HnY5eM%!<7Q~>
T`=ffqu?QoY5eM%!<7Q~>
T`=ffqu?QoY5eM%!<7Q~>
T`=ffqu?QoY5eM%!<7Q~>
T`=ffqu?TpXoJD$!<7Q~>
T`=ffqu?TpXoJD$!<7Q~>
T`=ffqu?TpXoJD$!<7Q~>
TE"cgq>^EoXoJD$!<7Q~>
TE"cgq>^EoXoJD$!<7Q~>
TE"cgq>^EoXoJD$!<7Q~>
TE"cgUAt5n!<7Q~>
TE"cgUAt5n!<7Q~>
TE"cgUAt5n!<7Q~>
TE"cgUAt5n!<7Q~>
TE"cgUAt5n!<7Q~>
TE"cgUAt5n!<7Q~>
TE"cgUAt5n!<7Q~>
TE"cgUAt5n!<7Q~>
TE"cgUAt5n!<7Q~>
TE"cgU&Y,mJ,~>
TE"cgU&Y,mJ,~>
TE"cgU&Y,mJ,~>
T)\`hT`>#lJ,~>
T)\`hT`>#lJ,~>
T)\`hT`>#lJ,~>
T)\`hT`>#lJ,~>
T)\`hT`>#lJ,~>
T)\`hT`>#lJ,~>
T)\`hT`>#lJ,~>
T)\`hT`>#lJ,~>
T)\`hT`>#lJ,~>
T)\ciTE"okJ,~>
T)\ciTE"okJ,~>
T)\ciTE"okJ,~>
T)\ciTE"okJ,~>
T)\ciTE"okJ,~>
T)\ciTE"okJ,~>
T)\fjT)\fjJ,~>
T)\fjT)\fjJ,~>
T)\fjT)\fjJ,~>
T)\fjT)\fjJ,~>
T)\fjT)\fjJ,~>
T)\fjT)\fjJ,~>
ScA]iTE"okJ,~>
ScA]iTE"okJ,~>
ScA]iTE"okJ,~>
ScA]iTE"okJ,~>
ScA]iTE"okJ,~>
ScA]iTE"okJ,~>
ScA]iTE"okJ,~>
ScA]iTE"okJ,~>
ScA]iTE"okJ,~>
ScA]iTE"okJ,~>
ScA]iTE"okJ,~>
ScA]iTE"okJ,~>
ScA]iTE"okJ,~>
ScA]iTE"okJ,~>
ScA]iTE"okJ,~>
ScA]iTE"okJ,~>
ScA]iTE"okJ,~>
ScA]iTE"okJ,~>
ScA]iTE"okJ,~>
ScA]iTE"okJ,~>
ScA]iTE"okJ,~>
ScA]iTE"okJ,~>
ScA]iTE"okJ,~>
ScA]iTE"okJ,~>
ScA]iTE"okJ,~>
ScA]iTE"okJ,~>
ScA]iTE"okJ,~>
Sc>/ZJ,~>
Sc>/ZJ,~>
Sc>/ZJ,~>
SH#,[!<7Q~>
SH#,[!<7Q~>
SH#,[!<7Q~>
%%EndData
showpage
%%Trailer
end
%%EOF
