%!PS-Adobe-3.0 EPSF-3.0
%%Creator: GIMP PostScript file plugin V 1.17 by Peter Kirchgessner
%%Title: E2b_Exact_256-128_T1.eps
%%CreationDate: Tue Jul 30 14:18:14 2013
%%DocumentData: Clean7Bit
%%LanguageLevel: 2
%%Pages: 1
%%BoundingBox: 14 14 112 112
%%EndComments
%%BeginProlog
% Use own dictionary to avoid conflicts
10 dict begin
%%EndProlog
%%Page: 1 1
% Translate for offset
14.173228346456694 14.173228346456694 translate
% Translate to begin of first scanline
0 97.424807047633905 translate
96.944881889763792 -97.424807047633905 scale
% Image geometry
202 203 8
% Transformation matrix
[ 202 0 0 203 0 0 ]
% Strings to hold RGB-samples per scanline
/rstr 202 string def
/gstr 202 string def
/bstr 202 string def
{currentfile /ASCII85Decode filter /RunLengthDecode filter rstr readstring pop}
{currentfile /ASCII85Decode filter /RunLengthDecode filter gstr readstring pop}
{currentfile /ASCII85Decode filter /RunLengthDecode filter bstr readstring pop}
true 3
%%BeginData:        14972 ASCII Bytes
colorimage
!<;`mJcEXfJ,~>
!<;`mJcEXfJ,~>
!<;`mJcEXfJ,~>
kl?;7ci8L~>
kl?;7ci8L~>
kl?;7ci8L~>
rrDfnmJqh<f)L7~>
rrDfnmJqh<f)L7~>
rrDfnmJqh<f)L7~>
rrDBboDjIBh#Dm~>
rrDBboDjIBh#Dm~>
rrDBboDjIBh#Dm~>
rrD-[p&K[DiW"E~>
rrD-[p&K[DiW"E~>
rrD-[p&K[DiW"E~>
rrCpUpAfdEk5Tr~>
rrCpUpAfdEk5Tr~>
rrCpUpAfdEk5Tr~>
rrCaPp],mFlMlA~>
rrCaPp],mFlMlA~>
rrCaPp],mFlMlA~>
rrCRKq>c*HmJh\~>
rrCRKq>c*HmJh\~>
rrCRKq>c*HmJh\~>
rrCFGq>c*Hnc++~>
rrCFGq>c*Hnc++~>
rrCFGq>c*Hnc++~>
rrC=Dq>c*Ho`'F~>
rrC=Dq>c*Ho`'F~>
rrC=Dq>c*Ho`'F~>
rrC1@qZ)3Ip]#a~>
rrC1@qZ)3Ip]#a~>
rrC1@qZ)3Ip]#a~>
rrC(=qZ)3IqYu'~>
rrC(=qZ)3IqYu'~>
rrC(=qZ)3IqYu'~>
rrBt:qZ)3IrVqB~>
rrBt:qZ)3IrVqB~>
rrBt:qZ)3IrVqB~>
rrBk7qZ)3I!<7Q~>
rrBk7qZ)3I!<7Q~>
rrBk7qZ)3I!<7Q~>
rrBb4quD?KJ,~>
rrBb4quD?KJ,~>
rrBb4quD?KJ,~>
rrBY1quDHNJ,~>
rrBY1quDHNJ,~>
rrBY1quDHNJ,~>
rrBS/quDNPJ,~>
rrBS/quDNPJ,~>
rrBS/quDNPJ,~>
rrBJ,r;_]SJ,~>
rrBJ,r;_]SJ,~>
rrBJ,r;_]SJ,~>
rrBD*r;_cUJ,~>
rrBD*r;_cUJ,~>
rrBD*r;_cUJ,~>
rrB>(quDcWJ,~>
rrB>(quDcWJ,~>
rrB>(quDcWJ,~>
rrB8&quDiYJ,~>
rrB8&quDiYJ,~>
rrB8&quDiYJ,~>
rrB/#r;`#\J,~>
rrB/#r;`#\J,~>
rrB/#r;`#\J,~>
rrB)!r;`)^J,~>
rrB)!r;`)^J,~>
rrB)!r;`)^J,~>
rrB"tr;`/`J,~>
rrB"tr;`/`J,~>
rrB"tr;`/`J,~>
rrAqrrW&;bJ,~>
rrAqrrW&;bJ,~>
rrAqrrW&;bJ,~>
rrB)!!!)rsrW&AdJ,~>
rrB)!!!)rsrW&AdJ,~>
rrB)!!!)rsrW&AdJ,~>
rrB/#qZ-Wqr;`>eJ,~>
rrB/#qZ-Wqr;`>eJ,~>
rrB/#qZ-Wqr;`>eJ,~>
rrB/#q#LEor;`DgJ,~>
rrB/#q#LEor;`DgJ,~>
rrB/#q#LEor;`DgJ,~>
rrBP.r;c`pp&P-mr;`GhJ,~>
rrBP.r;c`pp&P-mr;`GhJ,~>
rrBP.r;c`pp&P-mr;`GhJ,~>
rrBS/quHWomJrp[J,~>
rrBS/quHWomJrp[J,~>
rrBS/quHWomJrp[J,~>
rrBS/quHTnm/Wm\J,~>
rrBS/quHTnm/Wm\J,~>
rrBS/quHTnm/Wm\J,~>
rrBV0q>gHnlN!^[J,~>
rrBV0q>gHnlN!^[J,~>
rrBV0q>gHnlN!^[J,~>
rrBV0q>gHnkl@R[J,~>
rrBV0q>gHnkl@R[J,~>
rrBV0q>gHnkl@R[J,~>
rrBY1q#L?mkQ%L[J,~>
rrBY1q#L?mkQ%L[J,~>
rrBY1q#L?mkQ%L[J,~>
rrBY1q#L?ml2UharW&nsJ,~>
rrBY1q#L?ml2UharW&nsJ,~>
rrBY1q#L?ml2UharW&nsJ,~>
rrBY1q#LBnklCb`rW&qtJ,~>
rrBY1q#LBnklCb`rW&qtJ,~>
rrBY1q#LBnklCb`rW&qtJ,~>
rrB\2p]19mkQ(V^rW'#!J,~>
rrB\2p]19mkQ(V^rW'#!J,~>
rrB\2p]19mkQ(V^rW'#!J,~>
rrBY1p]19mkQ(V^rW'&"J,~>
rrBY1p]19mkQ(V^rW'&"J,~>
rrBY1p]19mkQ(V^rW'&"J,~>
rrBY1q#LBnjoGA[rW',$J,~>
rrBY1q#LBnjoGA[rW',$J,~>
rrBY1q#LBnjoGA[rW',$J,~>
rrB\2pAk0ljoGA[rW'/%J,~>
rrB\2pAk0ljoGA[rW'/%J,~>
rrB\2pAk0ljoGA[rW'/%J,~>
rrB\2pAk3mjT,2XrrB;'J,~>
rrB\2pAk3mjT,2XrrB;'J,~>
rrB\2pAk3mjT,2XrrB;'J,~>
rrB\2p]19mjT,/WrW'8(J,~>
rrB\2p]19mjT,/WrW'8(J,~>
rrB\2p]19mjT,/WrW'8(J,~>
rrB\2pAk0ljT,/WrW';)J,~>
rrB\2pAk0ljT,/WrW';)J,~>
rrB\2pAk0ljT,/WrW';)J,~>
rrB_3p&P*lirJoTrrBG+J,~>
rrB_3p&P*lirJoTrrBG+J,~>
rrB_3p&P*lirJoTrrBG+J,~>
rrB\2pAk3mirJlSrrBJ,J,~>
rrB\2pAk3mirJlSrrBJ,J,~>
rrB\2pAk3mirJlSrrBJ,J,~>
rrB\2pAk3mirJiRrW'G-J,~>
rrB\2pAk3mirJiRrW'G-J,~>
rrB\2pAk3mirJiRrW'G-J,~>
rrB_3p&P*lirJfQrW'J.J,~>
rrB_3p&P*lirJfQrW'J.J,~>
rrB_3p&P*lirJfQrW'J.J,~>
rrB\2pAk3mirJ`OrrBV0J,~>
rrB\2pAk3mirJ`OrrBV0J,~>
rrB\2pAk3mirJ`OrrBV0J,~>
rrB\2p]19miW/WNrrBY1J,~>
rrB\2p]19miW/WNrrBY1J,~>
rrB\2p]19miW/WNrrBY1J,~>
rrB_3p&P*lirJZMrrB\2J,~>
rrB_3p&P*lirJZMrrB\2J,~>
rrB_3p&P*lirJZMrrB\2J,~>
rrB\2pAk3miW/QLrW'Y3J,~>
rrB\2pAk3miW/QLrW'Y3J,~>
rrB\2pAk3miW/QLrW'Y3J,~>
rrB_3p&P*lirJTKrW'\4J,~>
rrB_3p&P*lirJTKrW'\4J,~>
rrB_3p&P*lirJTKrW'\4J,~>
rrB\2pAk3miW/HIrrBh6J,~>
rrB\2pAk3miW/HIrrBh6J,~>
rrB\2pAk3miW/HIrrBh6J,~>
rrB\2pAk3miW/EHrrBk7J,~>
rrB\2pAk3miW/EHrrBk7J,~>
rrB\2pAk3miW/EHrrBk7J,~>
rrB\2pAk3miW/BGrrBn8J,~>
rrB\2pAk3miW/BGrrBn8J,~>
rrB\2pAk3miW/BGrrBn8J,~>
rrB\2pAk3miW/?FrrBq9J,~>
rrB\2pAk3miW/?FrrBq9J,~>
rrB\2pAk3miW/?FrrBq9J,~>
rrB_3p&P*liW/<ErrBt:J,~>
rrB_3p&P*liW/<ErrBt:J,~>
rrB_3p&P*liW/<ErrBt:J,~>
rrB\2p]19mnc/[inc8Od!!)TirrC";J,~>
rrB\2p]19mnc/[inc8Od!!)TirrC";J,~>
rrB\2p]19mnc/[inc8Od!!)TirrC";J,~>
rrB\2pAk3miW/lUrW)NhrrC%<J,~>
rrB\2pAk3miW/lUrW)NhrrC%<J,~>
rrB\2pAk3miW/lUrW)NhrrC%<J,~>
rrB\2p]19mnc/[inc8Ufr;cBfrrC(=J,~>
rrB\2p]19mnc/[inc8Ufr;cBfrrC(=J,~>
rrB\2p]19mnc/[inc8Ufr;cBfrrC(=J,~>
rrB\2pAk3miW/lUrW)HfrrC+>J,~>
rrB\2pAk3miW/lUrW)HfrrC+>J,~>
rrB\2pAk3miW/lUrW)HfrrC+>J,~>
rrB\2p]19mnc/[inc8UfquH6drrC.?J,~>
rrB\2p]19mnc/[inc8UfquH6drrC.?J,~>
rrB\2p]19mnc/[inc8UfquH6drrC.?J,~>
rrBY1p]1<niW/oVquH3crrC1@J,~>
rrBY1p]1<niW/oVquH3crrC1@J,~>
rrBY1p]1<niW/oVquH3crrC1@J,~>
rrB\2p]19mnc/[inc8UfquH0brrC4AJ,~>
rrB\2p]19mnc/[inc8UfquH0brrC4AJ,~>
rrB\2p]19mnc/[inc8UfquH0brrC4AJ,~>
rrBY1q#L?mirK#WquH-arrC7BJ,~>
rrBY1q#L?mirK#WquH-arrC7BJ,~>
rrBY1q#L?mirK#WquH-arrC7BJ,~>
rrB\2p]19mnc8^io)Sahq>fp_rrC:CJ,~>
rrB\2p]19mnc8^io)Sahq>fp_rrC:CJ,~>
rrB\2p]19mnc8^io)Sahq>fp_rrC:CJ,~>
rrBY1q#LBnnc/[inc8UfqZ-!_rrC=DJ,~>
rrBY1q#LBnnc/[inc8UfqZ-!_rrC=DJ,~>
rrBY1q#LBnnc/[inc8UfqZ-!_rrC=DJ,~>
rrB\2p]19mnc/[inc8UfqZ,s^rrC@EJ,~>
rrB\2p]19mnc/[inc8UfqZ,s^rrC@EJ,~>
rrB\2p]19mnc/[inc8UfqZ,s^rrC@EJ,~>
rrBY1q#LBnnc/[inc8UfqZ,p]rrCCFJ,~>
rrBY1q#LBnnc/[inc8UfqZ,p]rrCCFJ,~>
rrBY1q#LBnnc/[inc8UfqZ,p]rrCCFJ,~>
rrB\2p]19mnc/[inc8Ufq>fg\rrCFGJ,~>
rrB\2p]19mnc/[inc8Ufq>fg\rrCFGJ,~>
rrB\2p]19mnc/[inc8Ufq>fg\rrCFGJ,~>
rrBY1q#LBnnc/[inc8UfqZ,m\rrCFGJ,~>
rrBY1q#LBnnc/[inc8UfqZ,m\rrCFGJ,~>
rrBY1q#LBnnc/[inc8UfqZ,m\rrCFGJ,~>
rrBY1q#LBnnc/[inc8UfqZ,j[rrCIHJ,~>
rrBY1q#LBnnc/[inc8UfqZ,j[rrCIHJ,~>
rrBY1q#LBnnc/[inc8UfqZ,j[rrCIHJ,~>
rrBY1q#LBnnc8^io)Sahq>f^YrrCLIJ,~>
rrBY1q#LBnnc8^io)Sahq>f^YrrCLIJ,~>
rrBY1q#LBnnc8^io)Sahq>f^YrrCLIJ,~>
rrBY1q#LBnnc/[inc8Xgq>f[XrrCOJJ,~>
rrBY1q#LBnnc/[inc8Xgq>f[XrrCOJJ,~>
rrBY1q#LBnnc/[inc8Xgq>f[XrrCOJJ,~>
rrBY1q>gHnnc/[inc8Xgq#KRWrrCRKJ,~>
rrBY1q>gHnnc/[inc8Xgq#KRWrrCRKJ,~>
rrBY1q>gHnnc/[inc8Xgq#KRWrrCRKJ,~>
rrBY1q#LBnnc/[inc8Ufq>fXWrrCULJ,~>
rrBY1q#LBnnc/[inc8Ufq>fXWrrCULJ,~>
rrBY1q#LBnnc/[inc8Ufq>fXWrrCULJ,~>
rrBV0qZ-Qonc/[inGrRgq#KOVrrCULJ,~>
rrBV0qZ-Qonc/[inGrRgq#KOVrrCULJ,~>
rrBV0qZ-Qonc/[inGrRgq#KOVrrCULJ,~>
rrBV0qZ-Qonc8^io)Sahq#KLUrrCXMJ,~>
rrBV0qZ-Qonc8^io)Sahq#KLUrrCXMJ,~>
rrBV0qZ-Qonc8^io)Sahq#KLUrrCXMJ,~>
rrBV0qZ-Qoo)Sgjnc8Ufq>fRUrrC[NJ,~>
rrBV0qZ-Qoo)Sgjnc8Ufq>fRUrrC[NJ,~>
rrBV0qZ-Qoo)Sgjnc8Ufq>fRUrrC[NJ,~>
rrBV0qZ-Qonc/[inGrRgq#KFSrrC^OJ,~>
rrBV0qZ-Qonc/[inGrRgq#KFSrrC^OJ,~>
rrBV0qZ-Qonc/[inGrRgq#KFSrrC^OJ,~>
rrBS/quHWoo)Jdjnc8Xgq#KFSrrC^OJ,~>
rrBS/quHWoo)Jdjnc8Xgq#KFSrrC^OJ,~>
rrBS/quHWoo)Jdjnc8Xgq#KFSrrC^OJ,~>
rrBS/r;c`pnc/[inc8UfqZ,RSrrCaPJ,~>
rrBS/r;c`pnc/[inc8UfqZ,RSrrCaPJ,~>
rrBS/r;c`pnc/[inc8UfqZ,RSrrCaPJ,~>
rrBS/quHZpnc/[inc8Ufq>fIRrrCdQJ,~>
rrBS/quHZpnc/[inc8Ufq>fIRrrCdQJ,~>
rrBS/quHZpnc/[inc8Ufq>fIRrrCdQJ,~>
rrBP.rW)fpoDnpknc8Ufq>fFQrrCgRJ,~>
rrBP.rW)fpoDnpknc8Ufq>fFQrrCgRJ,~>
rrBP.rW)fpoDnpknc8Ufq>fFQrrCgRJ,~>
rrBP.rrDoqnc/[inc8Ufq>fFQrrCgRJ,~>
rrBP.rrDoqnc/[inc8Ufq>fFQrrCgRJ,~>
rrBP.rrDoqnc/[inc8Ufq>fFQrrCgRJ,~>
rrB2$o)Sgjo)Sahq#K:OrrCjSJ,~>
rrB2$o)Sgjo)Sahq#K:OrrCjSJ,~>
rrB2$o)Sgjo)Sahq#K:OrrCjSJ,~>
rrB2$oDnmjo)S^gq>f@OrrCmTJ,~>
rrB2$oDnmjo)S^gq>f@OrrCmTJ,~>
rrB2$oDnmjo)S^gq>f@OrrCmTJ,~>
rrB5%nc/[inc8Ufq>f=NrrCpUJ,~>
rrB5%nc/[inc8Ufq>f=NrrCpUJ,~>
rrB5%nc/[inc8Ufq>f=NrrCpUJ,~>
rrB2$o)Sgjo)S^gq>f=NrrCpUJ,~>
rrB2$o)Sgjo)S^gq>f=NrrCpUJ,~>
rrB2$o)Sgjo)S^gq>f=NrrCpUJ,~>
rrB2$o)Sgjo)S^gq>f:MrrCsVJ,~>
rrB2$o)Sgjo)S^gq>f:MrrCsVJ,~>
rrB2$o)Sgjo)S^gq>f:MrrCsVJ,~>
rrB5%nc/[inc8UfqZ,=LrrD!WJ,~>
rrB5%nc/[inc8UfqZ,=LrrD!WJ,~>
rrB5%nc/[inc8UfqZ,=LrrD!WJ,~>
rrB2$o)Jdjnc8Ufq>f7LrrD!WJ,~>
rrB2$o)Jdjnc8Ufq>f7LrrD!WJ,~>
rrB2$o)Jdjnc8Ufq>f7LrrD!WJ,~>
rrB2$oDnmjo)S^gq>f4KrrD$XJ,~>
rrB2$oDnmjo)S^gq>f4KrrD$XJ,~>
rrB2$oDnmjo)S^gq>f4KrrD$XJ,~>
rrB2$o)Sgjo)S^gq>f1JrrD'YJ,~>
rrB2$o)Sgjo)S^gq>f1JrrD'YJ,~>
rrB2$o)Sgjo)S^gq>f1JrrD'YJ,~>
rrB2$o)Sgjo)S^gq>f1JrrD'YJ,~>
rrB2$o)Sgjo)S^gq>f1JrrD'YJ,~>
rrB2$o)Sgjo)S^gq>f1JrrD'YJ,~>
rrB2$oDnmjo)S^gqZ,4IrrD*ZJ,~>
rrB2$oDnmjo)S^gqZ,4IrrD*ZJ,~>
rrB2$oDnmjo)S^gqZ,4IrrD*ZJ,~>
rrB2$oDnpknc8UfqZ,4IrrD*ZJ,~>
rrB2$oDnpknc8UfqZ,4IrrD*ZJ,~>
rrB2$oDnpknc8UfqZ,4IrrD*ZJ,~>
rrB2$o)Jdjnc8UfqZ,1HrrD-[J,~>
rrB2$o)Jdjnc8UfqZ,1HrrD-[J,~>
rrB2$o)Jdjnc8UfqZ,1HrrD-[J,~>
rrB2$o)Jdjnc8Ufq>f(GrrD0\J,~>
rrB2$o)Jdjnc8Ufq>f(GrrD0\J,~>
rrB2$o)Jdjnc8Ufq>f(GrrD0\J,~>
rrB2$o)Sgjo)S^gq>f(GrrD0\J,~>
rrB2$o)Sgjo)S^gq>f(GrrD0\J,~>
rrB2$o)Sgjo)S^gq>f(GrrD0\J,~>
rrB2$o)Sgjo)S^gqZ,+FrrD3]J,~>
rrB2$o)Sgjo)S^gqZ,+FrrD3]J,~>
rrB2$o)Sgjo)S^gqZ,+FrrD3]J,~>
nc69$o)Sgjo)S[fquG4GrrD3]J,~>
nc69$o)Sgjo)S[fquG4GrrD3]J,~>
nc69$o)Sgjo)S[fquG4GrrD3]J,~>
!<;Ed_#O!+!<;Qhr;ZZpdf9=IkPp&~>
!<;Ed_#O!+!<;Qhr;ZZpdf9=IkPp&~>
!<;Ed_#O!+!<;Qhr;ZZpdf9=IkPp&~>
o)JFa`;fE/s8VWir;ZZpdJs4Hkl6/~>
o)JFa`;fE/s8VWir;ZZpdJs4Hkl6/~>
o)JFa`;fE/s8VWir;ZZpdJs4Hkl6/~>
m/Qk]aT(f2!<;Wjqu?QodJs4Hkl6/~>
m/Qk]aT(f2!<;Wjqu?QodJs4Hkl6/~>
m/Qk]aT(f2!<;Wjqu?QodJs4Hkl6/~>
kl:JZbQ%,5!<;Wjqu?Qod/X+Gl2Q8~>
kl:JZbQ%,5!<;Wjqu?Qod/X+Gl2Q8~>
kl:JZbQ%,5!<;Wjqu?Qod/X+Gl2Q8~>
jT#)Wc2[D9!<;Qhr;Z]qci="Fl2Q8~>
jT#)Wc2[D9!<;Qhr;Z]qci="Fl2Q8~>
jT#)Wc2[D9!<;Qhr;Z]qci="Fl2Q8~>
iW&fUci<V;!<;Qhqu?Tpci="FlMlA~>
iW&fUci<V;!<;Qhqu?Tpci="FlMlA~>
iW&fUci<V;!<;Qhqu?Tpci="FlMlA~>
hZ*KRdf8q>s8VWiqu?Tpci="FlMlA~>
hZ*KRdf8q>s8VWiqu?Tpci="FlMlA~>
hZ*KRdf8q>s8VWiqu?Tpci="FlMlA~>
h#I9PeGo+?!<;Tiqu?Wqc2[eDli2J~>
h#I9PeGo+?!<;Tiqu?Wqc2[eDli2J~>
h#I9PeGo+?!<;Tiqu?Wqc2[eDli2J~>
g&M!Nf)P=A!<;WjqZ$Npc2[eDli2J~>
g&M!Nf)P=A!<;WjqZ$Npc2[eDli2J~>
g&M!Nf)P=A!<;WjqZ$Npc2[eDli2J~>
fDkdLfDkIC!<;Wjq>^Hpbl@\Cm/MS~>
fDkdLfDkIC!<;Wjq>^Hpbl@\Cm/MS~>
fDkdLfDkIC!<;Wjq>^Hpbl@\Cm/MS~>
ec5RJg&L[E!<;Ti_uK`:m/MS~>
ec5RJg&L[E!<;Ti_uK`:m/MS~>
ec5RJg&L[E!<;Ti_uK`:m/MS~>
e,T@Hh#HC7_Z0W9mJh\~>
e,T@Hh#HC7_Z0W9mJh\~>
e,T@Hh#HC7_Z0W9mJh\~>
dJs.FhZ)X:_>jN8mJh\~>
dJs.FhZ)X:_>jN8mJh\~>
dJs.FhZ)X:_>jN8mJh\~>
ci<tEhuD^:_>jN8mf.e~>
ci<tEhuD^:_>jN8mf.e~>
ci<tEhuD^:_>jN8mf.e~>
c2[bCi;_j<_>jN8mf.e~>
c2[bCi;_j<_>jN8mf.e~>
c2[bCi;_j<_>jN8mf.e~>
bl@VAirA'>_#OE7n,In~>
bl@VAirA'>_#OE7n,In~>
bl@VAirA'>_#OE7n,In~>
b5_G@j8\3@^]4<6n,In~>
b5_G@j8\3@^]4<6n,In~>
b5_G@j8\3@^]4<6n,In~>
aT)8?jT"9@^]4<6nGe"~>
aT)8?jT"9@^]4<6nGe"~>
aT)8?jT"9@^]4<6nGe"~>
a8c,=jo=EB^]4<6nGe"~>
a8c,=jo=EB^]4<6nGe"~>
a8c,=jo=EB^]4<6nGe"~>
`rH#<k5Y&R!<;Wj^An35nc++~>
`rH#<k5Y&R!<;Wj^An35nc++~>
`rH#<k5Y&R!<;Wj^An35nc++~>
`;fi;kPt/S!<;Wj^An35nc++~>
`;fi;kPt/S!<;Wj^An35nc++~>
`;fi;kPt/S!<;Wj^An35nc++~>
_uK]9l2UAUs8V]k^An35nc++~>
_uK]9l2UAUs8V]k^An35nc++~>
_uK]9l2UAUs8V]k^An35nc++~>
_Z0T8lMpJV!<;Wj^&S*4o)F4~>
_Z0T8lMpJV!<;Wj^&S*4o)F4~>
_Z0T8lMpJV!<;Wj^&S*4o)F4~>
_#OE7li6SW!<;Wj^&S*4o)F4~>
_#OE7li6SW!<;Wj^&S*4o)F4~>
_#OE7li6SW!<;Wj^&S*4o)F4~>
^]4<6m/QYW!<;Zk]`8!3oDa=~>
^]4<6m/QYW!<;Zk]`8!3oDa=~>
^]4<6m/QYW!<;Zk]`8!3oDa=~>
^An35mJlbX!<;Wj^&S*4oDa=~>
^An35mJlbX!<;Wj^&S*4oDa=~>
^An35mJlbX!<;Wj^&S*4oDa=~>
^&S*4mJlhZs8VZj^&S*4oDa=~>
^&S*4mJlhZs8VZj^&S*4oDa=~>
^&S*4mJlhZs8VZj^&S*4oDa=~>
]`8!3n,MtZ!<;Zk]Dqm2o`'F~>
]`8!3n,MtZ!<;Zk]Dqm2o`'F~>
]`8!3n,MtZ!<;Zk]Dqm2o`'F~>
]Dqm2n,N%\s8VZj]`8!3o`'F~>
]Dqm2n,N%\s8VZj]`8!3o`'F~>
]Dqm2n,N%\s8VZj]`8!3o`'F~>
])Vd1nGi+\s8V]k]Dqm2p&BO~>
])Vd1nGi+\s8V]k]Dqm2p&BO~>
])Vd1nGi+\s8V]k]Dqm2p&BO~>
\c;[0nc/7^s8V]k])Vd1p&BO~>
\c;[0nc/7^s8V]k])Vd1p&BO~>
\c;[0nc/7^s8V]k])Vd1p&BO~>
\GuR/o)J@_rr;Tj]Dqm2p&BO~>
\GuR/o)J@_rr;Tj]Dqm2p&BO~>
\GuR/o)J@_rr;Tj]Dqm2p&BO~>
\,ZI.oDeF_s8V`l\c;[0pA]X~>
\,ZI.oDeF_s8V`l\c;[0pA]X~>
\,ZI.oDeF_s8V`l\c;[0pA]X~>
[f?@-o`+Rarr;Tj])Vd1pA]X~>
[f?@-o`+Rarr;Tj])Vd1pA]X~>
[f?@-o`+Rarr;Tj])Vd1pA]X~>
[K$7,p&FXas8V]k])Vd1pA]X~>
[K$7,p&FXas8V]k])Vd1pA]X~>
[K$7,p&FXas8V]k])Vd1pA]X~>
[/^.+p&F[brr;Wk\c;[0p]#a~>
[/^.+p&F[brr;Wk\c;[0p]#a~>
[/^.+p&F[brr;Wk\c;[0p]#a~>
[/^.+pAaabs8V]k\c;[0p]#a~>
[/^.+pAaabs8V]k\c;[0p]#a~>
[/^.+pAaabs8V]k\c;[0p]#a~>
ZiC%*pAadcrr;Wk\c;[0p]#a~>
ZiC%*pAadcrr;Wk\c;[0p]#a~>
ZiC%*pAadcrr;Wk\c;[0p]#a~>
ZN'q)p]'mdrr;Zl\,ZI.q#>j~>
ZN'q)p]'mdrr;Zl\,ZI.q#>j~>
ZN'q)p]'mdrr;Zl\,ZI.q#>j~>
Z2ah(q>^'err;Wk\GuR/q#>j~>
Z2ah(q>^'err;Wk\GuR/q#>j~>
Z2ah(q>^'err;Wk\GuR/q#>j~>
YlF_'q>^*frr;Zl\,ZI.q#>j~>
YlF_'q>^*frr;Zl\,ZI.q#>j~>
YlF_'q>^*frr;Zl\,ZI.q#>j~>
YlF_'q>^*frr;Wk\,ZI.q>Ys~>
YlF_'q>^*frr;Wk\,ZI.q>Ys~>
YlF_'q>^*frr;Wk\,ZI.q>Ys~>
YQ+V&qZ$3grr;Zl[f?@-q>Ys~>
YQ+V&qZ$3grr;Zl[f?@-q>Ys~>
YQ+V&qZ$3grr;Zl[f?@-q>Ys~>
Y5eM%qu?<hrVuQk\,ZI.q>Ys~>
Y5eM%qu?<hrVuQk\,ZI.q>Ys~>
Y5eM%qu?<hrVuQk\,ZI.q>Ys~>
Y5eM%qu?9gs8V`l[f?@-qYu'~>
Y5eM%qu?9gs8V`l[f?@-qYu'~>
Y5eM%qu?9gs8V`l[f?@-qYu'~>
XoJD$r;ZEirVuQk[f?@-qYu'~>
XoJD$r;ZEirVuQk[f?@-qYu'~>
XoJD$r;ZEirVuQk[f?@-qYu'~>
XT/;#rVuKis8V`l[f?@-qYu'~>
XT/;#rVuKis8V`l[f?@-qYu'~>
XT/;#rVuKis8V`l[f?@-qYu'~>
XT/;#r;ZHjrVuQk[f?@-qYu'~>
XT/;#r;ZHjrVuQk[f?@-qYu'~>
XT/;#r;ZHjrVuQk[f?@-qYu'~>
X8i2"rr;Tjs8V`l[K$7,qu;0~>
X8i2"rr;Tjs8V`l[K$7,qu;0~>
X8i2"rr;Tjs8V`l[K$7,qu;0~>
X8i2"rVuQkrVuQk[K$7,qu;0~>
X8i2"rVuQkrVuQk[K$7,qu;0~>
X8i2"rVuQkrVuQk[K$7,qu;0~>
WrN)!rr;Wkrr;Zl[K$7,qu;0~>
WrN)!rr;Wkrr;Zl[K$7,qu;0~>
WrN)!rr;Wkrr;Zl[K$7,qu;0~>
WW2tus8V`lrr;Zl[K$7,qu;0~>
WW2tus8V`lrr;Zl[K$7,qu;0~>
WW2tus8V`lrr;Zl[K$7,qu;0~>
WW2tus8V`lrr;Zl[/^.+r;V9~>
WW2tus8V`lrr;Zl[/^.+r;V9~>
WW2tus8V`lrr;Zl[/^.+r;V9~>
W;lkt!<;]lrVuTl[/^.+r;V9~>
W;lkt!<;]lrVuTl[/^.+r;V9~>
W;lkt!<;]lrVuTl[/^.+r;V9~>
W;lkt!<;]lrr;Zl[/^.+r;V9~>
W;lkt!<;]lrr;Zl[/^.+r;V9~>
W;lkt!<;]lrr;Zl[/^.+r;V9~>
VuQ>grVuTl[/^.+r;V9~>
VuQ>grVuTl[/^.+r;V9~>
VuQ>grVuTl[/^.+r;V9~>
VuQbs!<;`mrr;ZlZiC%*rVqB~>
VuQbs!<;`mrr;ZlZiC%*rVqB~>
VuQbs!<;`mrr;ZlZiC%*rVqB~>
VZ68grVuTlZiC%*rVqB~>
VZ68grVuTlZiC%*rVqB~>
VZ68grVuTlZiC%*rVqB~>
VZ68grVuTlZiC%*rVqB~>
VZ68grVuTlZiC%*rVqB~>
VZ68grVuTlZiC%*rVqB~>
V>p2grVuTlZiC%*rVqB~>
V>p2grVuTlZiC%*rVqB~>
V>p2grVuTlZiC%*rVqB~>
V>p2grVuTlZiC%*rVqB~>
V>p2grVuTlZiC%*rVqB~>
V>p2grVuTlZiC%*rVqB~>
V>p2grVuTlZN'q)rr7K~>
V>p2grVuTlZN'q)rr7K~>
V>p2grVuTlZN'q)rr7K~>
V#U,grVuTlZN'q)rr7K~>
V#U,grVuTlZN'q)rr7K~>
V#U,grVuTlZN'q)rr7K~>
V#U,grVuWmZ2ah(rr7K~>
V#U,grVuWmZ2ah(rr7K~>
V#U,grVuWmZ2ah(rr7K~>
U]:#frVuWmZN'q)rr7K~>
U]:#frVuWmZN'q)rr7K~>
U]:#frVuWmZN'q)rr7K~>
U]:&gr;ZQmZ2ah(rr7K~>
U]:&gr;ZQmZ2ah(rr7K~>
U]:&gr;ZQmZ2ah(rr7K~>
U]:&gr;ZNlZ2ah(s8RT~>
U]:&gr;ZNlZ2ah(s8RT~>
U]:&gr;ZNlZ2ah(s8RT~>
UAsugr;ZQmYlF_'s8RT~>
UAsugr;ZQmYlF_'s8RT~>
UAsugr;ZQmYlF_'s8RT~>
UAsugr;ZQmYlF_'s8RT~>
UAsugr;ZQmYlF_'s8RT~>
UAsugr;ZQmYlF_'s8RT~>
UAsugr;ZQmYlF_'s8RT~>
UAsugr;ZQmYlF_'s8RT~>
UAsugr;ZQmYlF_'s8RT~>
U&Xogqu?KmYlF_'s8RT~>
U&Xogqu?KmYlF_'s8RT~>
U&Xogqu?KmYlF_'s8RT~>
U&Xogqu?KmYlF_'s8RT~>
U&Xogqu?KmYlF_'s8RT~>
U&Xogqu?KmYlF_'s8RT~>
U&Xlfr;ZTnYlF_'s8RT~>
U&Xlfr;ZTnYlF_'s8RT~>
U&Xlfr;ZTnYlF_'s8RT~>
U&Xogqu?NnY5eM%!<7Q~>
U&Xogqu?NnY5eM%!<7Q~>
U&Xogqu?NnY5eM%!<7Q~>
T`=igqZ$HnY5eM%!<7Q~>
T`=igqZ$HnY5eM%!<7Q~>
T`=igqZ$HnY5eM%!<7Q~>
T`=igqZ$HnY5eM%!<7Q~>
T`=igqZ$HnY5eM%!<7Q~>
T`=igqZ$HnY5eM%!<7Q~>
T`=igqZ$HnY5eM%!<7Q~>
T`=igqZ$HnY5eM%!<7Q~>
T`=igqZ$HnY5eM%!<7Q~>
T`=igqZ$KoXoJD$!<7Q~>
T`=igqZ$KoXoJD$!<7Q~>
T`=igqZ$KoXoJD$!<7Q~>
TE"cgq>^EoXoJD$!<7Q~>
TE"cgq>^EoXoJD$!<7Q~>
TE"cgq>^EoXoJD$!<7Q~>
TE"cgq>^HpXT/;#!<7Q~>
TE"cgq>^HpXT/;#!<7Q~>
TE"cgq>^HpXT/;#!<7Q~>
TE"cgUAt5n!<7Q~>
TE"cgUAt5n!<7Q~>
TE"cgUAt5n!<7Q~>
TE"cgUAt5n!<7Q~>
TE"cgUAt5n!<7Q~>
TE"cgUAt5n!<7Q~>
TE"fhT`>#lJ,~>
TE"fhT`>#lJ,~>
TE"fhT`>#lJ,~>
T)\]gU&Y,mJ,~>
T)\]gU&Y,mJ,~>
T)\]gU&Y,mJ,~>
T)\`hT`>#lJ,~>
T)\`hT`>#lJ,~>
T)\`hT`>#lJ,~>
T)\`hT`>#lJ,~>
T)\`hT`>#lJ,~>
T)\`hT`>#lJ,~>
T)\ciTE"okJ,~>
T)\ciTE"okJ,~>
T)\ciTE"okJ,~>
T)\ciTE"okJ,~>
T)\ciTE"okJ,~>
T)\ciTE"okJ,~>
T)\fjT)\fjJ,~>
T)\fjT)\fjJ,~>
T)\fjT)\fjJ,~>
T)\fjT)\fjJ,~>
T)\fjT)\fjJ,~>
T)\fjT)\fjJ,~>
ScA]iTE"okJ,~>
ScA]iTE"okJ,~>
ScA]iTE"okJ,~>
ScA]iTE"okJ,~>
ScA]iTE"okJ,~>
ScA]iTE"okJ,~>
ScA]iTE"okJ,~>
ScA]iTE"okJ,~>
ScA]iTE"okJ,~>
ScA]iTE"okJ,~>
ScA]iTE"okJ,~>
ScA]iTE"okJ,~>
ScA]iTE"okJ,~>
ScA]iTE"okJ,~>
ScA]iTE"okJ,~>
ScA]iTE"okJ,~>
ScA]iTE"okJ,~>
ScA]iTE"okJ,~>
ScA]iTE"okJ,~>
ScA]iTE"okJ,~>
ScA]iTE"okJ,~>
ScA]iTE"okJ,~>
ScA]iTE"okJ,~>
ScA]iTE"okJ,~>
ScA]iTE"okJ,~>
ScA]iTE"okJ,~>
ScA]iTE"okJ,~>
Sc>/ZJ,~>
Sc>/ZJ,~>
Sc>/ZJ,~>
SH#,[!<7Q~>
SH#,[!<7Q~>
SH#,[!<7Q~>
%%EndData
showpage
%%Trailer
end
%%EOF
