%!PS-Adobe-3.0 EPSF-3.0
%%Creator: GIMP PostScript file plugin V 1.17 by Peter Kirchgessner
%%Title: E2b_Est11_064-032_T1.eps
%%CreationDate: Tue Jul 30 14:13:41 2013
%%DocumentData: Clean7Bit
%%LanguageLevel: 2
%%Pages: 1
%%BoundingBox: 14 14 112 112
%%EndComments
%%BeginProlog
% Use own dictionary to avoid conflicts
10 dict begin
%%EndProlog
%%Page: 1 1
% Translate for offset
14.173228346456694 14.173228346456694 translate
% Translate to begin of first scanline
0 97.424807047633905 translate
96.944881889763792 -97.424807047633905 scale
% Image geometry
202 203 8
% Transformation matrix
[ 202 0 0 203 0 0 ]
% Strings to hold RGB-samples per scanline
/rstr 202 string def
/gstr 202 string def
/bstr 202 string def
{currentfile /ASCII85Decode filter /RunLengthDecode filter rstr readstring pop}
{currentfile /ASCII85Decode filter /RunLengthDecode filter gstr readstring pop}
{currentfile /ASCII85Decode filter /RunLengthDecode filter bstr readstring pop}
true 3
%%BeginData:        11082 ASCII Bytes
colorimage
!<;`mJcEXfJ,~>
!<;`mJcEXfJ,~>
!<;`mJcEXfJ,~>
kl?;7ci8L~>
kl?;7ci8L~>
kl?;7ci8L~>
rrDfnmJqh<f)L7~>
rrDfnmJqh<f)L7~>
rrDfnmJqh<f)L7~>
rrDBboDjIBh#Dm~>
rrDBboDjIBh#Dm~>
rrDBboDjIBh#Dm~>
rrD-[p&K[DiW"E~>
rrD-[p&K[DiW"E~>
rrD-[p&K[DiW"E~>
rrCpUpAfdEk5Tr~>
rrCpUpAfdEk5Tr~>
rrCpUpAfdEk5Tr~>
rrCaPp],mFlMlA~>
rrCaPp],mFlMlA~>
rrCaPp],mFlMlA~>
rrCRKq>c*HmJh\~>
rrCRKq>c*HmJh\~>
rrCRKq>c*HmJh\~>
rrCFGq>c*Hnc++~>
rrCFGq>c*Hnc++~>
rrCFGq>c*Hnc++~>
rrC=Dq>c*Ho`'F~>
rrC=Dq>c*Ho`'F~>
rrC=Dq>c*Ho`'F~>
rrC1@qZ)3Ip]#a~>
rrC1@qZ)3Ip]#a~>
rrC1@qZ)3Ip]#a~>
rrC(=qZ)3IqYu'~>
rrC(=qZ)3IqYu'~>
rrC(=qZ)3IqYu'~>
rrBt:qZ)3IrVqB~>
rrBt:qZ)3IrVqB~>
rrBt:qZ)3IrVqB~>
rrBk7qZ)3I!<7Q~>
rrBk7qZ)3I!<7Q~>
rrBk7qZ)3I!<7Q~>
rrBb4quD?KJ,~>
rrBb4quD?KJ,~>
rrBb4quD?KJ,~>
rrBY1quDHNJ,~>
rrBY1quDHNJ,~>
rrBY1quDHNJ,~>
rrBS/quDNPJ,~>
rrBS/quDNPJ,~>
rrBS/quDNPJ,~>
rrBJ,r;_]SJ,~>
rrBJ,r;_]SJ,~>
rrBJ,r;_]SJ,~>
rrBD*r;_cUJ,~>
rrBD*r;_cUJ,~>
rrBD*r;_cUJ,~>
rrB>(quDcWJ,~>
rrB>(quDcWJ,~>
rrB>(quDcWJ,~>
rrB8&quDiYJ,~>
rrB8&quDiYJ,~>
rrB8&quDiYJ,~>
rrB/#r;`#\J,~>
rrB/#r;`#\J,~>
rrB/#r;`#\J,~>
rrB)!r;`)^J,~>
rrB)!r;`)^J,~>
rrB)!r;`)^J,~>
rrB"tr;`/`J,~>
rrB"tr;`/`J,~>
rrB"tr;`/`J,~>
rrAqrrW&;bJ,~>
rrB/#!!)rsrW&;bJ,~>
rrAqrrW&;bJ,~>
rrAkprW&AdJ,~>
rrB2$r;ccqrW&AdJ,~>
rrAkprW&AdJ,~>
rrAhor;`>eJ,~>
rrB2$qZ-Tpr;`>eJ,~>
rrAhor;`>eJ,~>
rrAbmr;`DgJ,~>
rrB5%p]1?oqZ*2eJ,~>
rrAbmr;`DgJ,~>
rrA\krW&PiJ,~>
rrB5%pAb3nq>d,eJ,~>
rrA\krW&PiJ,~>
rrAVirW&VkJ,~>
rrBV0rrDlpli<^YJ,~>
rrAVirW&VkJ,~>
rrAShr;`SlJ,~>
rrBY1quHWol2[RYJ,~>
rrAShr;`SlJ,~>
rrAMfrW&_nJ,~>
rrBY1q>gNpkQ%CXJ,~>
rrAMfrW&_nJ,~>
rrAGdrW&epJ,~>
rrBY1g]42NJ,~>
rrAGdrW&epJ,~>
rrADcrW&hqJ,~>
rrB\2pAk3mk5_CZJ,~>
rrADcrW&hqJ,~>
rrA>arW&nsJ,~>
rrB\2pAk-kk5_I\J,~>
rrA>arW&nsJ,~>
rrA;`rW&qtJ,~>
rrB_3pAk*jlN$tbrW&qtJ,~>
rrA;`rW&qtJ,~>
rrA5^rW'#!J,~>
rrB_3pAk-kl2^e_rW'#!J,~>
rrA5^rW'#!J,~>
rrA2]rW'&"J,~>
rrB_3p]13kklC\^rW'&"J,~>
rrA2]rW'&"J,~>
rrA,[rW',$J,~>
rrBY1q#LBnjoGA[rW',$J,~>
rrA,[rW',$J,~>
rrA)ZrW'/%J,~>
rrBS/q#LHpjT,8ZrW'/%J,~>
rrA)ZrW'/%J,~>
rrA#XrrB;'J,~>
rrBV0gAq*MrrB;'J,~>
rrA#XrrB;'J,~>
rr@uWrW'8(J,~>
rrBV0g]7-LrW'8(J,~>
rr@uWrW'8(J,~>
rr@rVrW';)J,~>
rrBY1g&UpJrW';)J,~>
rr@rVrW';)J,~>
rr@lTrrBG+J,~>
rrBY1f`:dHrrBG+J,~>
rr@lTrrBG+J,~>
rr@iSrrBJ,J,~>
rrB\2ec>LFrrBJ,J,~>
rr@iSrrBJ,J,~>
rr@fRrW'G-J,~>
rrB\2ec>IErW'G-J,~>
rr@fRrW'G-J,~>
rr@cQrW'J.J,~>
rrB_3ec>CCrW'J.J,~>
rr@cQrW'J.J,~>
rr@]OrrBV0J,~>
rrB_3ec>=ArrBV0J,~>
rr@]OrrBV0J,~>
rr@ZNrrBY1J,~>
rrB\2ec>=ArrBY1J,~>
rr@ZNrrBY1J,~>
rr@WMrrB\2J,~>
rrBS/fDtOCrrB\2J,~>
rr@WMrrB\2J,~>
rr@WM!<<#u^&NT~>
rrBV0ec>=ArW'Y3J,~>
rr@WM!<<#u^&NT~>
rr@WMs8W&u^Ai]~>
rrBV0f)Y@@rW'\4J,~>
rr@WMs8W&u^Ai]~>
rr@WMrVult^]/f~>
rrBY1ec>1=rrBh6J,~>
rr@WMrVult^]/f~>
rr@WMr;Zcs_#Jo~>
rrBY1ec>.<rrBk7J,~>
rr@WMr;Zcs_#Jo~>
rr@WMqu?Zr_>f#~>
rrB\2dfAk:rrBn8J,~>
rr@WMqu?Zr_>f#~>
rr@WMqZ$Qq_Z,,~>
rrB\2dK&b9rrBq9J,~>
rr@WMqZ$Qq_Z,,~>
rr@WMq>^Hp_uG5~>
rrB_3d/`V7rrBt:J,~>
rr@WMq>^Hp_uG5~>
rr@WMq#C?o`;b>~>
rrB_3dK&Y6rrC";J,~>
rr@WMq#C?o`;b>~>
rr@WMp](6n`W(G~>
rrB\2e,\e6rrC%<J,~>
rr@WMp](6n`W(G~>
rr@WMpAb-m`rCP~>
rrBV0f)Y%7rrC(=J,~>
rr@WMpAb-m`rCP~>
rr@WMp&G$la8^Y~>
rrBV0fDt(6rrC+>J,~>
rr@WMp&G$la8^Y~>
rr@WMo`+pkaT$b~>
rrBY1ec=k4rrC.?J,~>
rr@WMo`+pkaT$b~>
rr@WMoDegjao?k~>
rrBY1e,\\3rrC1@J,~>
rr@WMoDegjao?k~>
rr@WMo)J^ib5Zt~>
rrB\2dK&J1rrC4AJ,~>
rr@WMo)J^ib5Zt~>
rr@WMnc/UhbQ!(~>
rrB\2p]1?oh>mHQ!!)BcrrC7BJ,~>
rr@WMnc/UhbQ!(~>
rr@WMnGiLgbl<1~>
rrB_3p]19mhuNWRrrDEcrrC:CJ,~>
rr@WMnGiLgbl<1~>
rr@WMn,NCfc2W:~>
rrBY1q>gKoi;i`Sr;c3arrC=DJ,~>
rr@WMn,NCfc2W:~>
rr@WMmf3:ecMrC~>
rrBV0q>gNpi;icTqZ-!_rrC@EJ,~>
rr@WMmf3:ecMrC~>
rr@WMmJm1dci8L~>
rrBV0fDtgKqZ,p]rrCCFJ,~>
rr@WMmJm1dci8L~>
rr@WMm/R(cd/SU~>
rrBY1p]1<niW/oVquGs\rrCFGJ,~>
rr@WMm/R(cd/SU~>
rr@WMm/R(cd/SU~>
rrBV0q#LBniW/oVrW)-]rrCFGJ,~>
rr@WMm/R(cd/SU~>
rr@WMli6tbdJn^~>
rrBP.quHZpi;ifU!!)-\rrCIHJ,~>
rr@WMli6tbdJn^~>
rr@WMlMpkadf4g~>
rrBP.quH]qi;icT!!)*[rrCLIJ,~>
rr@WMlMpkadf4g~>
rr@WMl2Ub`e,Op~>
rrBP.r;ccqiW/iTrrD-[rrCOJJ,~>
rr@WMl2Ub`e,Op~>
rr@WMkl:Y_eGk%~>
rrBS/r;ccqhuN]Tr;bpYrrCRKJ,~>
rr@WMkl:Y_eGk%~>
rr@WMkPtP^ec1.~>
rrBV0quH]qh>mQTqZ,^WrrCULJ,~>
rr@WMkPtP^ec1.~>
rr@WMkPtP^ec1.~>
rrBV0r;c`ph>dQUqZ,[VrrCULJ,~>
rr@WMkPtP^ec1.~>
rr@WMk5YG]f)L7~>
rrBV0rW)cohZ*ZVquG^UrrCXMJ,~>
rr@WMk5YG]f)L7~>
rr@WMjo>>\fDg@~>
rrBS/rrDioi;ilWquG^UrrC[NJ,~>
rr@WMjo>>\fDg@~>
rr@WMjT#5[f`-I~>
rrB5%i;ifUquG^UrrC^OJ,~>
rr@WMjT#5[f`-I~>
rr@WMjT#5[f`-I~>
rrB5%iW/lUqZ,XUrrC^OJ,~>
rr@WMjT#5[f`-I~>
rr@WMj8],Zg&HR~>
rrB8&iW/lUqZ,RSrrCaPJ,~>
rr@WMj8],Zg&HR~>
rr@WMirB#YgAc[~>
rrB;'huN]TquGURrrCdQJ,~>
rr@WMirB#YgAc[~>
rr@WMiW&oXg])d~>
rrB;'hZ3TSr;b[RrrCgRJ,~>
rr@WMiW&oXg])d~>
rr@WMiW&oXg])d~>
rrB5%huN]Tr;b^SrrCgRJ,~>
rr@WMiW&oXg])d~>
rr@WMi;`fWh#Dm~>
rrB2$iW/lUquGURrrCjSJ,~>
rr@WMi;`fWh#Dm~>
rr@WMhuE]Vh>`!~>
rrB5%iW/lUq>fCPrrCmTJ,~>
rr@WMhuE]Vh>`!~>
rr@WMhZ*TUhZ&*~>
rrB8&huN`UqZ,CNrrCpUJ,~>
rr@WMhZ*TUhZ&*~>
rr@WMhZ*TUhZ&*~>
rrB5%huN`Ur;bROrrCpUJ,~>
rr@WMhZ*TUhZ&*~>
rr@WMh>dKThuA3~>
rrB2$huN`UrrC^OrrCsVJ,~>
rr@WMh>dKThuA3~>
rr@WMh#IBSi;\<~>
rrB2$i;h7)rrD!WJ,~>
rr@WMh#IBSi;\<~>
rr@WMh#IBSi;\<~>
rrB2$iW/lUrrC[NrrD!WJ,~>
rr@WMh#IBSi;\<~>
rr@WMg].9RiW"E~>
rrB5%iW/lUr;bILrrD$XJ,~>
rr@WMg].9RiW"E~>
rr@WMgAh0Qir=N~>
rrB2$j8f&VquG@KrrD'YJ,~>
rr@WMgAh0Qir=N~>
rr@WMgAh0Qir=N~>
rrB/#jT,,VrW(OLrrD'YJ,~>
rr@WMgAh0Qir=N~>
rr@WMg&M'Pj8XW~>
rrB/#j8f#U!!(OKrrD*ZJ,~>
rr@WMg&M'Pj8XW~>
rr@WMg&M'Pj8XW~>
rrB2$iW/iT!!(OKrrD*ZJ,~>
rr@WMg&M'Pj8XW~>
rr@WMf`1sOjSs`~>
rrB5%iW/iTrW(IJrrD-[J,~>
rr@WMf`1sOjSs`~>
rr@WMfDkjNjo9i~>
rrB5%irJoTr;b@IrrD0\J,~>
rr@WMfDkjNjo9i~>
rr@WMfDkjNjo9i~>
rrB8&iW/cRrW(IJrrD0\J,~>
rr@WMfDkjNjo9i~>
rr@WMf)PaMk5Tr~>
rrB5%iW/fS!!(FHrrD3]J,~>
rr@WMf)PaMk5Tr~>
nc47@j8],Zk5Tr~>
nc69$iW.+#rrD3]J,~>
nc47@j8],Zk5Tr~>
!<;EdJcFs6rrD6^J,~>
!<;Ed_#NBoaT)8?kPp&~>
!<;EdJcFs6rrD6^J,~>
o)JFaJcG'9rrD9_J,~>
o)JFa`W+ot`rH&=kl6/~>
o)JFaJcG'9rrD9_J,~>
m/Qk]JcG3=rrD9_J,~>
m/Qk]aoCB$`W,r<kl6/~>
m/Qk]JcG3=rrD9_J,~>
kl:JZJcG9?rrD<`J,~>
kl:JZbQ$T&`W,r<l2Q8~>
kl:JZJcG9?rrD<`J,~>
jT#)WJcGBBrrD<`J,~>
jT#)Wc2Zf(`rH&=l2Q8~>
jT#)WJcGBBrrD<`J,~>
iW&fUJcGECrrD?aJ,~>
iW&fUd/W)*`W,r<lMlA~>
iW&fUJcGECrrD?aJ,~>
hZ*KRJcGNFrrD?aJ,~>
hZ*KReGnM.`;fi;lMlA~>
hZ*KRJcGNFrrD?aJ,~>
h#I9PJcGQGrrDBbJ,~>
h#I9Pec4Y0_uK`:li2J~>
h#I9PJcGQGrrDBbJ,~>
g&M!NJcGWIrrDBbJ,~>
g&M!Nf)Oe2_uK`:li2J~>
g&M!NJcGWIrrDBbJ,~>
fDkdLJcGZJrrDEcJ,~>
fDkdLfDjn3_uK`:m/MS~>
fDkdLJcGZJrrDEcJ,~>
ec5RJJcG`LrrDEcJ,~>
ec5RJf`1%5_uK`:m/MS~>
ec5RJJcG`LrrDEcJ,~>
e,T@HJcGcMrrDHdJ,~>
e,T@HgAg=9_#OE7mJh\~>
e,T@HJcGcMrrDHdJ,~>
dJs.FJcG`MmJh\~>
dJs.Fh>cU;_#OE7mJh\~>
dJs.FJcG`MmJh\~>
ci<tEJcG`Mmf.e~>
ci<tEhuDa;_#OE7mf.e~>
ci<tEJcG`Mmf.e~>
c2[bCKE(rOmf.e~>
c2[bCi;_j<_>jN8mf.e~>
c2[bCKE(rOmf.e~>
bl@VAK`D&Pn,In~>
bl@VAiW%s=_>jN8n,In~>
bl@VAK`D&Pn,In~>
b5_G@L&_/Qn,In~>
b5_G@j8\->_>jN8n,In~>
b5_G@L&_/Qn,In~>
aT)8?L&_/QnGe"~>
aT)8?jo=9>_>jN8nGe"~>
aT)8?L&_/QnGe"~>
a8c,=L]@ASnGe"~>
a8c,=k5XHA_#OE7nGe"~>
a8c,=L]@ASnGe"~>
`rH#<L]@ASnc++~>
`rH#<k5XNC^An35nc++~>
`rH#<L]@ASnc++~>
`;fi;M#[JTnc++~>
`;fi;kPsWD^An35nc++~>
`;fi;M#[JTnc++~>
_uK]9MZ<\Vnc++~>
_uK]9lMolE^]4<6nc++~>
_uK]9MZ<\Vnc++~>
_Z0T8MZ<\Vo)F4~>
_Z0T8m/Q#E^]4<6o)F4~>
_Z0T8MZ<\Vo)F4~>
_#OE7MuWeWo)F4~>
_#OE7m/Q,H^&S*4o)F4~>
_#OE7MuWeWo)F4~>
^]4<6MuWeWoDa=~>
^]4<6m/Q2J]Dqm2oDa=~>
^]4<6MuWeWoDa=~>
^An35N;rnXoDa=~>
^An35m/Q2J]`8!3oDa=~>
^An35N;rnXoDa=~>
^&S*4NW9"YoDa=~>
^&S*4m/Q2J^&S*4oDa=~>
^&S*4NW9"YoDa=~>
]`8!3NW9"Yo`'F~>
]`8!3mf2AK]`8!3o`'F~>
]`8!3NW9"Yo`'F~>
]Dqm2NrT+Zo`'F~>
]Dqm2nGhVN])Vd1o`'F~>
]Dqm2NrT+Zo`'F~>
])Vd1NrT+Zp&BO~>
])Vd1nc._O\c;[0p&BO~>
])Vd1NrT+Zp&BO~>
\c;[0O8o4[p&BO~>
\c;[0nc.bP\c;[0p&BO~>
\c;[0O8o4[p&BO~>
\GuR/OT5=\p&BO~>
\GuR/nc.bP])Vd1p&BO~>
\GuR/OT5=\p&BO~>
\,ZI.OT5=\pA]X~>
\,ZI.o)IkQ\c;[0pA]X~>
\,ZI.OT5=\pA]X~>
[f?@-OoPF]pA]X~>
[f?@-o)IkQ])Vd1pA]X~>
[f?@-OoPF]pA]X~>
[K$7,P5kO^pA]X~>
[K$7,p&F(Q]Dqm2pA]X~>
[K$7,P5kO^pA]X~>
[/^.+P5kO^p]#a~>
[/^.+pAa4S\c;[0p]#a~>
[/^.+P5kO^p]#a~>
[/^.+P5kO^p]#a~>
[/^.+pAaabs8Vcm\,ZI.p]#a~>
[/^.+P5kO^p]#a~>
ZiC%*PQ1X_p]#a~>
ZiC%*pAagdrVuQk\GuR/p]#a~>
ZiC%*PQ1X_p]#a~>
ZN'q)PQ1X_q#>j~>
ZN'q)pAagdrr;Zl\,ZI.q#>j~>
ZN'q)PQ1X_q#>j~>
Z2ah(PlLa`q#>j~>
Z2ah(p]'pe!<;Wj\GuR/q#>j~>
Z2ah(PlLa`q#>j~>
YlF_'Q2gjaq#>j~>
YlF_'q>]RW\GuR/q#>j~>
YlF_'Q2gjaq#>j~>
YlF_'PlLa`q>Ys~>
YlF_'qZ#UV\GuR/q>Ys~>
YlF_'PlLa`q>Ys~>
YQ+V&Q2gjaq>Ys~>
YQ+V&qZ#XW\GuR/q>Ys~>
YQ+V&Q2gjaq>Ys~>
Y5eM%QN-sbq>Ys~>
Y5eM%qu?<hrr;Zl[f?@-q>Ys~>
Y5eM%QN-sbq>Ys~>
Y5eM%Q2gjaqYu'~>
Y5eM%qZ$6hrr;Zl[K$7,qYu'~>
Y5eM%Q2gjaqYu'~>
XoJD$QN-sbqYu'~>
XoJD$qu??irVuTl[K$7,qYu'~>
XoJD$QN-sbqYu'~>
XT/;#QiI'cqYu'~>
XT/;#r;ZEirr;Zl[f?@-qYu'~>
XT/;#QiI'cqYu'~>
XT/;#QiI'cqYu'~>
XT/;#rr;QirVuTl[f?@-qYu'~>
XT/;#QiI'cqYu'~>
X8i2"QiI'cqu;0~>
X8i2"s8VWi!<;Zk[f?@-qu;0~>
X8i2"QiI'cqu;0~>
X8i2"QiI'cqu;0~>
X8i2"rr;Tj!<;Wj[f?@-qu;0~>
X8i2"QiI'cqu;0~>
WrN)!R/d0dqu;0~>
WrN)!rr;]mrVuQk[/^.+qu;0~>
WrN)!R/d0dqu;0~>
WW2tuRK*9equ;0~>
WW2tus8Vcmrr;]mZiC%*qu;0~>
WW2tuRK*9equ;0~>
WW2tuR/d0dr;V9~>
WW2turr;]mrVuTlZiC%*r;V9~>
WW2tuR/d0dr;V9~>
W;lktRK*9er;V9~>
W;lkts8Vcmrr;]mZiC%*r;V9~>
W;lktRK*9er;V9~>
W;lktRK*9er;V9~>
W;lktrr;]mrr;Zl[/^.+r;V9~>
W;lktRK*9er;V9~>
VuQbsRfEBfr;V9~>
VuQ>grVuTl[/^.+r;V9~>
VuQbsRfEBfr;V9~>
VuQbsRK*9erVqB~>
VuQ;frr;]mZiC%*rVqB~>
VuQbsRK*9erVqB~>
VZ6YrRfEBfrVqB~>
VZ65frVuTl[/^.+rVqB~>
VZ6YrRfEBfrVqB~>
VZ6YrRfEBfrVqB~>
VZ65frVuTl[/^.+rVqB~>
VZ6YrRfEBfrVqB~>
V>pPqS,`KgrVqB~>
V>p5hqu?Bj[/^.+rVqB~>
V>pPqS,`KgrVqB~>
V>pPqS,`KgrVqB~>
V>p5hr;ZQmZ2ah(rVqB~>
V>pPqS,`KgrVqB~>
V>pPqRfEBfrr7K~>
V>p5hrVuTlZ2ah(rr7K~>
V>pPqRfEBfrr7K~>
V#UGpS,`Kgrr7K~>
V#U,grr;]mZ2ah(rr7K~>
V#UGpS,`Kgrr7K~>
V#UGpS,`Kgrr7K~>
V#U,grVuWmZ2ah(rr7K~>
V#UGpS,`Kgrr7K~>
U]:>oSH&Thrr7K~>
U]:#frr;]mZN'q)rr7K~>
U]:>oSH&Thrr7K~>
U]:>oSH&Thrr7K~>
U]:#frr;]mZN'q)rr7K~>
U]:>oSH&Thrr7K~>
U]:>oS,`Kgs8RT~>
U]:#frVuZnYlF_'s8RT~>
U]:>oS,`Kgs8RT~>
UAt5nSH&Ths8RT~>
UAsoerr;iqY5eM%s8RT~>
UAt5nSH&Ths8RT~>
UAt5nSH&Ths8RT~>
UAsoerr;fpYQ+V&s8RT~>
UAt5nSH&Ths8RT~>
UAt5nSH&Ths8RT~>
UAsoerr;fpYQ+V&s8RT~>
UAt5nSH&Ths8RT~>
U&Y,mScA]is8RT~>
U&XrhqZ$EmYQ+V&s8RT~>
U&Y,mScA]is8RT~>
U&Y,mScA]is8RT~>
U&XrhqZ$EmYQ+V&s8RT~>
U&Y,mScA]is8RT~>
U&Y,mScA]is8RT~>
U&Xogqu?KmYlF_'s8RT~>
U&Y,mScA]is8RT~>
U&Y,mSH&Th!<7Q~>
U&Xogqu?TpXT/;#!<7Q~>
U&Y,mSH&Th!<7Q~>
T`>#lScA]i!<7Q~>
T`=igqZ$NpXT/;#!<7Q~>
T`>#lScA]i!<7Q~>
T`>#lScA]i!<7Q~>
T`=igqZ$NpXT/;#!<7Q~>
T`>#lScA]i!<7Q~>
T`>#lScA]i!<7Q~>
T`=ffqu6WrWrN)!!<7Q~>
T`>#lScA]i!<7Q~>
T`>#lScA]i!<7Q~>
T`=ffU]:>o!<7Q~>
T`>#lScA]i!<7Q~>
TE"okT)\fj!<7Q~>
TE"`fU]:>o!<7Q~>
TE"okT)\fj!<7Q~>
TE"okT)\fj!<7Q~>
TE"`fU]:>o!<7Q~>
TE"okT)\fj!<7Q~>
TE"okT)\fj!<7Q~>
TE"`fU]:>o!<7Q~>
TE"okT)\fj!<7Q~>
TE"okT)\fj!<7Q~>
TE"iiT`>#l!<7Q~>
TE"okT)\fj!<7Q~>
TE"okScA]iJ,~>
TE"fhT`>#lJ,~>
TE"okScA]iJ,~>
T)\fjT)\fjJ,~>
T)\`hT`>#lJ,~>
T)\fjT)\fjJ,~>
T)\fjT)\fjJ,~>
T)\`hT`>#lJ,~>
T)\fjT)\fjJ,~>
T)\fjT)\fjJ,~>
T)\`hT`>#lJ,~>
T)\fjT)\fjJ,~>
T)\fjT)\fjJ,~>
T)\fjT)\fjJ,~>
T)\fjT)\fjJ,~>
T)\fjT)\fjJ,~>
T)\fjT)\fjJ,~>
T)\fjT)\fjJ,~>
T)\fjT)\fjJ,~>
T)\fjT)\fjJ,~>
T)\fjT)\fjJ,~>
T)\fjT)\fjJ,~>
T)\fjT)\fjJ,~>
T)\fjT)\fjJ,~>
ScA]iTE"okJ,~>
ScA]iTE"okJ,~>
ScA]iTE"okJ,~>
ScA]iTE"okJ,~>
ScA]iTE"okJ,~>
ScA]iTE"okJ,~>
ScA]iTE"okJ,~>
ScA]iTE"okJ,~>
ScA]iTE"okJ,~>
ScA]iTE"okJ,~>
ScA]iTE"okJ,~>
ScA]iTE"okJ,~>
ScA]iTE"okJ,~>
ScA]iTE"okJ,~>
ScA]iTE"okJ,~>
ScA]iTE"okJ,~>
ScA]iTE"okJ,~>
ScA]iTE"okJ,~>
ScA]iTE"okJ,~>
ScA]iTE"okJ,~>
ScA]iTE"okJ,~>
ScA]iTE"okJ,~>
ScA]iTE"okJ,~>
ScA]iTE"okJ,~>
ScA]iTE"okJ,~>
ScA]iTE"okJ,~>
ScA]iTE"okJ,~>
Sc>/ZJ,~>
Sc>/ZJ,~>
Sc>/ZJ,~>
SH#,[!<7Q~>
SH#,[!<7Q~>
SH#,[!<7Q~>
%%EndData
showpage
%%Trailer
end
%%EOF
