%!PS-Adobe-3.0 EPSF-3.0
%%Creator: GIMP PostScript file plugin V 1.17 by Peter Kirchgessner
%%Title: E2b_Est44_256-128_T1.eps
%%CreationDate: Tue Jul 30 14:16:14 2013
%%DocumentData: Clean7Bit
%%LanguageLevel: 2
%%Pages: 1
%%BoundingBox: 14 14 112 112
%%EndComments
%%BeginProlog
% Use own dictionary to avoid conflicts
10 dict begin
%%EndProlog
%%Page: 1 1
% Translate for offset
14.173228346456694 14.173228346456694 translate
% Translate to begin of first scanline
0 97.424807047633905 translate
96.944881889763792 -97.424807047633905 scale
% Image geometry
202 203 8
% Transformation matrix
[ 202 0 0 203 0 0 ]
% Strings to hold RGB-samples per scanline
/rstr 202 string def
/gstr 202 string def
/bstr 202 string def
{currentfile /ASCII85Decode filter /RunLengthDecode filter rstr readstring pop}
{currentfile /ASCII85Decode filter /RunLengthDecode filter gstr readstring pop}
{currentfile /ASCII85Decode filter /RunLengthDecode filter bstr readstring pop}
true 3
%%BeginData:        11652 ASCII Bytes
colorimage
!<;`mJcEXfJ,~>
!<;`mJcEXfJ,~>
!<;`mJcEXfJ,~>
kl?;7ci8L~>
kl?;7ci8L~>
kl?;7ci8L~>
rrDfnmJqh<f)L7~>
rrDfnmJqh<f)L7~>
rrDfnmJqh<f)L7~>
rrDBboDjIBh#Dm~>
rrDBboDjIBh#Dm~>
rrDBboDjIBh#Dm~>
rrD-[p&K[DiW"E~>
rrD-[p&K[DiW"E~>
rrD-[p&K[DiW"E~>
rrCpUpAfdEk5Tr~>
rrCpUpAfdEk5Tr~>
rrCpUpAfdEk5Tr~>
rrCaPp],mFlMlA~>
rrCaPp],mFlMlA~>
rrCaPp],mFlMlA~>
rrCRKq>c*HmJh\~>
rrCRKq>c*HmJh\~>
rrCRKq>c*HmJh\~>
rrCFGq>c*Hnc++~>
rrCFGq>c*Hnc++~>
rrCFGq>c*Hnc++~>
rrC=Dq>c*Ho`'F~>
rrC=Dq>c*Ho`'F~>
rrC=Dq>c*Ho`'F~>
rrC1@qZ)3Ip]#a~>
rrC1@qZ)3Ip]#a~>
rrC1@qZ)3Ip]#a~>
rrC(=qZ)3IqYu'~>
rrC(=qZ)3IqYu'~>
rrC(=qZ)3IqYu'~>
rrBt:qZ)3IrVqB~>
rrBt:qZ)3IrVqB~>
rrBt:qZ)3IrVqB~>
rrBk7qZ)3I!<7Q~>
rrBk7qZ)3I!<7Q~>
rrBk7qZ)3I!<7Q~>
rrBb4quD?KJ,~>
rrBb4quD?KJ,~>
rrBb4quD?KJ,~>
rrBY1quDHNJ,~>
rrBY1quDHNJ,~>
rrBY1quDHNJ,~>
rrBS/quDNPJ,~>
rrBS/quDNPJ,~>
rrBS/quDNPJ,~>
rrBJ,r;_]SJ,~>
rrBJ,r;_]SJ,~>
rrBJ,r;_]SJ,~>
rrBD*r;_cUJ,~>
rrBD*r;_cUJ,~>
rrBD*r;_cUJ,~>
rrB>(quDcWJ,~>
rrB>(quDcWJ,~>
rrB>(quDcWJ,~>
rrB8&quDiYJ,~>
rrB8&quDiYJ,~>
rrB8&quDiYJ,~>
rrB/#r;`#\J,~>
rrB/#r;`#\J,~>
rrB/#r;`#\J,~>
rrB)!r;`)^J,~>
rrB)!r;`)^J,~>
rrB)!r;`)^J,~>
rrB"tr;`/`J,~>
rrB"tr;`/`J,~>
rrB"tr;`/`J,~>
rrAqrrW&;bJ,~>
rrAqrrW&;bJ,~>
rrAqrrW&;bJ,~>
rrAkprW&AdJ,~>
rrB,"rW)osrW&AdJ,~>
rrAkprW&AdJ,~>
rrAhor;`>eJ,~>
rrB/#qZ-Wqr;`>eJ,~>
rrAhor;`>eJ,~>
rrAbmr;`DgJ,~>
rrB/#q#LEor;`DgJ,~>
rrAbmr;`DgJ,~>
rrA\krW&PiJ,~>
rrBP.rrDlpp&P-mr;`GhJ,~>
rrA\krW&PiJ,~>
rrAVirW&VkJ,~>
rrBS/quHWomJrp[J,~>
rrAVirW&VkJ,~>
rrAShr;`SlJ,~>
rrBS/quHWoli<d[J,~>
rrAShr;`SlJ,~>
rrAMfrW&_nJ,~>
rrBV0q>gHnlN!^[J,~>
rrAMfrW&_nJ,~>
rrAGdrW&epJ,~>
rrBV0q>gHnkl@R[J,~>
rrAGdrW&epJ,~>
rrADcrW&hqJ,~>
rrBY1q#LBnk5_CZJ,~>
rrADcrW&hqJ,~>
rrA>arW&nsJ,~>
rrBY1q#L?ml2UharW&nsJ,~>
rrA>arW&nsJ,~>
rrA;`rW&qtJ,~>
rrBY1q#LBnklCb`rW&qtJ,~>
rrA;`rW&qtJ,~>
rrA5^rW'#!J,~>
rrB\2p]19mkQ(V^rW'#!J,~>
rrA5^rW'#!J,~>
rrA2]rW'&"J,~>
rrBY1p]19mkQ(V^rW'&"J,~>
rrA2]rW'&"J,~>
rrA,[rW',$J,~>
rrBY1q#LBnjoGA[rW',$J,~>
rrA,[rW',$J,~>
rrA)ZrW'/%J,~>
rrB\2pAk0lk5bG[rW'/%J,~>
rrA)ZrW'/%J,~>
rrA#XrrB;'J,~>
rrB\2pAk3mjT,2XrrB;'J,~>
rrA#XrrB;'J,~>
rr@uWrW'8(J,~>
rrB\2p]19mjT,/WrW'8(J,~>
rr@uWrW'8(J,~>
rr@rVrW';)J,~>
rrB\2pAk0ljT,/WrW';)J,~>
rr@rVrW';)J,~>
rr@lTrrBG+J,~>
rrB_3p&P*lirJoTrrBG+J,~>
rr@lTrrBG+J,~>
rr@iSrrBJ,J,~>
rrB\2pAk3mj8erSrrBJ,J,~>
rr@iSrrBJ,J,~>
rr@fRrW'G-J,~>
rrB\2pAk3mirJiRrW'G-J,~>
rr@fRrW'G-J,~>
rr@cQrW'J.J,~>
rrB_3p&P*lirJfQrW'J.J,~>
rr@cQrW'J.J,~>
rr@]OrrBV0J,~>
rrB\2pAk3mirJ`OrrBV0J,~>
rr@]OrrBV0J,~>
rr@ZNrrBY1J,~>
rrB\2pAk3miW/WNrrBY1J,~>
rr@ZNrrBY1J,~>
rr@WMrrB\2J,~>
rrB_3p&P*lirJZMrrB\2J,~>
rr@WMrrB\2J,~>
rr@WM!<<#u^&NT~>
rrB\2pAk3miW/QLrW'Y3J,~>
rr@WM!<<#u^&NT~>
rr@WMs8W&u^Ai]~>
rrB_3p&P*lirJTKrW'\4J,~>
rr@WMs8W&u^Ai]~>
rr@WMrVult^]/f~>
rrB\2pAk3miW/HIrrBh6J,~>
rr@WMrVult^]/f~>
rr@WMr;Zcs_#Jo~>
rrB\2pAk3miW/EHrrBk7J,~>
rr@WMr;Zcs_#Jo~>
rr@WMqu?Zr_>f#~>
rrB\2pAk3miW/BGrrBn8J,~>
rr@WMqu?Zr_>f#~>
rr@WMqZ$Qq_Z,,~>
rrB\2pAk3miW/?FrrBq9J,~>
rr@WMqZ$Qq_Z,,~>
rr@WMq>^Hp_uG5~>
rrB_3p&P*liW/<ErrBt:J,~>
rr@WMq>^Hp_uG5~>
rr@WMq#C?o`;b>~>
rrB\2p]19mnc/[inc8Od!!)TirrC";J,~>
rr@WMq#C?o`;b>~>
rr@WMp](6n`W(G~>
rrB\2pAk3miW/lUrW)NhrrC%<J,~>
rr@WMp](6n`W(G~>
rr@WMpAb-m`rCP~>
rrB\2pAk3mnc/[inc8Ufr;cBfrrC(=J,~>
rr@WMpAb-m`rCP~>
rr@WMp&G$la8^Y~>
rrB\2pAk3miW/lUrW)HfrrC+>J,~>
rr@WMp&G$la8^Y~>
rr@WMo`+pkaT$b~>
rrB\2p]19mnc/[inc8UfquH6drrC.?J,~>
rr@WMo`+pkaT$b~>
rr@WMoDegjao?k~>
rrBY1p]1<niW/oVquH3crrC1@J,~>
rr@WMoDegjao?k~>
rr@WMo)J^ib5Zt~>
rrB\2p]19mnc/[inc8UfquH0brrC4AJ,~>
rr@WMo)J^ib5Zt~>
rr@WMnc/UhbQ!(~>
rrBY1p]19mirK#WquH-arrC7BJ,~>
rr@WMnc/UhbQ!(~>
rr@WMnGiLgbl<1~>
rrB\2p]19mnc8^io)Sahq>fp_rrC:CJ,~>
rr@WMnGiLgbl<1~>
rr@WMn,NCfc2W:~>
rrBY1p]1<niW/oVqZ-!_rrC=DJ,~>
rr@WMn,NCfc2W:~>
rr@WMmf3:ecMrC~>
rrB\2p]19mnc/[inc8UfqZ,s^rrC@EJ,~>
rr@WMmf3:ecMrC~>
rr@WMmJm1dci8L~>
rrBY1p]1<niW/oVqZ,p]rrCCFJ,~>
rr@WMmJm1dci8L~>
rr@WMm/R(cd/SU~>
rrB\2p]19mnc/[inc8UfqZ,m\rrCFGJ,~>
rr@WMm/R(cd/SU~>
rr@WMm/R(cd/SU~>
rrBY1p]1<nnc/[inc8UfqZ,m\rrCFGJ,~>
rr@WMm/R(cd/SU~>
rr@WMli6tbdJn^~>
rrBY1q#LBnnc/[inc8UfqZ,j[rrCIHJ,~>
rr@WMli6tbdJn^~>
rr@WMlMpkadf4g~>
rrBY1q#LBnnc8^io)S^gqZ,gZrrCLIJ,~>
rr@WMlMpkadf4g~>
rr@WMl2Ub`e,Op~>
rrBY1q#LBnnc/[inc8UfqZ,dYrrCOJJ,~>
rr@WMl2Ub`e,Op~>
rr@WMkl:Y_eGk%~>
rrBY1q#LBnnc/[inc8Xgq#KRWrrCRKJ,~>
rr@WMkl:Y_eGk%~>
rr@WMkPtP^ec1.~>
rrBY1q#LBnnc/[inc8UfqZ,^WrrCULJ,~>
rr@WMkPtP^ec1.~>
rr@WMkPtP^ec1.~>
rrBV0qZ-Qonc/[inGrOfq>fXWrrCULJ,~>
rr@WMkPtP^ec1.~>
rr@WMk5YG]f)L7~>
rrBV0q>gKonc8^io)Sahq#KLUrrCXMJ,~>
rr@WMk5YG]f)L7~>
rr@WMjo>>\fDg@~>
rrBV0qZ-NnoDnpknc8Ufq>fRUrrC[NJ,~>
rr@WMjo>>\fDg@~>
rr@WMjT#5[f`-I~>
rrBV0q>gKonc/[inGrOfq>fOTrrC^OJ,~>
rr@WMjT#5[f`-I~>
rr@WMjT#5[f`-I~>
rrBS/quHWoo)Jdjnc8Xgq#KFSrrC^OJ,~>
rr@WMjT#5[f`-I~>
rr@WMj8],Zg&HR~>
rrBS/quHZpnc/[inc8UfqZ,RSrrCaPJ,~>
rr@WMj8],Zg&HR~>
rr@WMirB#YgAc[~>
rrBS/quHZpnc/[inc8Ufq>fIRrrCdQJ,~>
rr@WMirB#YgAc[~>
rr@WMiW&oXg])d~>
rrBP.rW)fpo)Jdjnc8Ufq>fFQrrCgRJ,~>
rr@WMiW&oXg])d~>
rr@WMiW&oXg])d~>
rrBP.rW)iqnc/[inc8UfqZ,LQrrCgRJ,~>
rr@WMiW&oXg])d~>
rr@WMi;`fWh#Dm~>
rrBP.rW)fpo)Sgjo)Sahq#K:OrrCjSJ,~>
rr@WMi;`fWh#Dm~>
rr@WMhuE]Vh>`!~>
rrB2$oDnmjo)S^gq>f@OrrCmTJ,~>
rr@WMhuE]Vh>`!~>
rr@WMhZ*TUhZ&*~>
rrB5%nc/[inc8Ufq>f=NrrCpUJ,~>
rr@WMhZ*TUhZ&*~>
rr@WMhZ*TUhZ&*~>
rrB2$o)Sgjo)S^gq>f=NrrCpUJ,~>
rr@WMhZ*TUhZ&*~>
rr@WMh>dKThuA3~>
rrB2$oDnmjo)S^gqZ,@MrrCsVJ,~>
rr@WMh>dKThuA3~>
rr@WMh#IBSi;\<~>
rrB5%nc/[inc8UfqZ,=LrrD!WJ,~>
rr@WMh#IBSi;\<~>
rr@WMh#IBSi;\<~>
rrB2$o)Jdjnc8Ufq>f7LrrD!WJ,~>
rr@WMh#IBSi;\<~>
rr@WMg].9RiW"E~>
rrB2$oDnmjo)S^gq>f4KrrD$XJ,~>
rr@WMg].9RiW"E~>
rr@WMgAh0Qir=N~>
rrB2$o)Sgjo)S^gqZ,7JrrD'YJ,~>
rr@WMgAh0Qir=N~>
rr@WMgAh0Qir=N~>
rrB2$oDnmjo)S^gq>f1JrrD'YJ,~>
rr@WMgAh0Qir=N~>
rr@WMg&M'Pj8XW~>
rrB2$oDnmjo)S^gqZ,4IrrD*ZJ,~>
rr@WMg&M'Pj8XW~>
rr@WMg&M'Pj8XW~>
rrB2$oDnpknc8UfqZ,4IrrD*ZJ,~>
rr@WMg&M'Pj8XW~>
rr@WMf`1sOjSs`~>
rrB2$o)Jdjnc8UfqZ,1HrrD-[J,~>
rr@WMf`1sOjSs`~>
rr@WMfDkjNjo9i~>
rrB2$o)Jdjnc8RequG7HrrD0\J,~>
rr@WMfDkjNjo9i~>
rr@WMfDkjNjo9i~>
rrB2$o)Sgjo)S[fquG7HrrD0\J,~>
rr@WMfDkjNjo9i~>
rr@WMf)PaMk5Tr~>
rrB2$o)Sgjo)S[fquG4GrrD3]J,~>
rr@WMf)PaMk5Tr~>
nc47@j8],Zk5Tr~>
nc69$o)Jdjnc8RequG4GrrD3]J,~>
nc47@j8],Zk5Tr~>
!<;EdJcFs6rrD6^J,~>
!<;Ed_#O!+!<;Qhr;Z]qdJs4HkPp&~>
!<;EdJcFs6rrD6^J,~>
o)JFaJcG'9rrD9_J,~>
o)JFa`;fE/s8VWir;ZZpdJs4Hkl6/~>
o)JFaJcG'9rrD9_J,~>
m/Qk]JcG3=rrD9_J,~>
m/Qk]aT(f2!<;WjqZ$KodJs4Hkl6/~>
m/Qk]JcG3=rrD9_J,~>
kl:JZJcG9?rrD<`J,~>
kl:JZbQ%,5!<;Wjqu?Tpci="Fl2Q8~>
kl:JZJcG9?rrD<`J,~>
jT#)WJcGBBrrD<`J,~>
jT#)Wc2[D9!<;Qhqu?Wqci="Fl2Q8~>
jT#)WJcGBBrrD<`J,~>
iW&fUJcGECrrD?aJ,~>
iW&fUci<V;!<;Qhqu?WqcN!nElMlA~>
iW&fUJcGECrrD?aJ,~>
hZ*KRJcGNFrrD?aJ,~>
hZ*KRdf8n=!<;TiqZ$QqcN!nElMlA~>
hZ*KRJcGNFrrD?aJ,~>
h#I9PJcGQGrrDBbJ,~>
h#I9PeGnP/qu?Wqc2[eDli2J~>
h#I9PJcGQGrrDBbJ,~>
g&M!NJcGWIrrDBbJ,~>
g&M!Nf)Oe2_uK`:li2J~>
g&M!NJcGWIrrDBbJ,~>
fDkdLJcGZJrrDEcJ,~>
fDkdLfDjq4_Z0W9m/MS~>
fDkdLJcGZJrrDEcJ,~>
ec5RJJcG`LrrDEcJ,~>
ec5RJg&L+5_uK`:m/MS~>
ec5RJJcG`LrrDEcJ,~>
e,T@HJcGcMrrDHdJ,~>
e,T@Hh#HC7_Z0W9mJh\~>
e,T@HJcGcMrrDHdJ,~>
dJs.FJcG`MmJh\~>
dJs.FhZ)X:_>jN8mJh\~>
dJs.FJcG`MmJh\~>
ci<tEJcG`Mmf.e~>
ci<tEhZ)X:_>jN8mf.e~>
ci<tEJcG`Mmf.e~>
c2[bCKE(rOmf.e~>
c2[bCi;_j<_>jN8mf.e~>
c2[bCKE(rOmf.e~>
bl@VAK`D&Pn,In~>
bl@VAirA'>_#OE7n,In~>
bl@VAK`D&Pn,In~>
b5_G@L&_/Qn,In~>
b5_G@j8\3@^]4<6n,In~>
b5_G@L&_/Qn,In~>
aT)8?L&_/QnGe"~>
aT)8?j8\3@^]4<6nGe"~>
aT)8?L&_/QnGe"~>
a8c,=L]@ASnGe"~>
a8c,=jo=EB^]4<6nGe"~>
a8c,=L]@ASnGe"~>
`rH#<L]@ASnc++~>
`rH#<k5XNC^An35nc++~>
`rH#<L]@ASnc++~>
`;fi;M#[JTnc++~>
`;fi;kPsWD^An35nc++~>
`;fi;M#[JTnc++~>
_uK]9MZ<\Vnc++~>
_uK]9l2TiF^An35nc++~>
_uK]9MZ<\Vnc++~>
_Z0T8MZ<\Vo)F4~>
_Z0T8lMorG^&S*4o)F4~>
_Z0T8MZ<\Vo)F4~>
_#OE7MuWeWo)F4~>
_#OE7li6&H^&S*4o)F4~>
_#OE7MuWeWo)F4~>
^]4<6MuWeWoDa=~>
^]4<6m/Q/I]`8!3oDa=~>
^]4<6MuWeWoDa=~>
^An35N;rnXoDa=~>
^An35m/Q\X!<;Wj^&S*4oDa=~>
^An35N;rnXoDa=~>
^&S*4NW9"YoDa=~>
^&S*4mJleY!<;Wj^&S*4oDa=~>
^&S*4NW9"YoDa=~>
]`8!3NW9"Yo`'F~>
]`8!3n,MtZ!<;Zk]Dqm2o`'F~>
]`8!3NW9"Yo`'F~>
]Dqm2NrT+Zo`'F~>
]Dqm2n,N"[!<;Wj]`8!3o`'F~>
]Dqm2NrT+Zo`'F~>
])Vd1NrT+Zp&BO~>
])Vd1nGi+\s8V]k]Dqm2p&BO~>
])Vd1NrT+Zp&BO~>
\c;[0O8o4[p&BO~>
\c;[0nc/7^s8V]k])Vd1p&BO~>
\c;[0O8o4[p&BO~>
\GuR/OT5=\p&BO~>
\GuR/o)J=^s8V]k]Dqm2p&BO~>
\GuR/OT5=\p&BO~>
\,ZI.OT5=\pA]X~>
\,ZI.oDeF_s8V`l\c;[0pA]X~>
\,ZI.OT5=\pA]X~>
[f?@-OoPF]pA]X~>
[f?@-o`+O`s8V]k])Vd1pA]X~>
[f?@-OoPF]pA]X~>
[K$7,P5kO^pA]X~>
[K$7,p&FXas8V]k])Vd1pA]X~>
[K$7,P5kO^pA]X~>
[/^.+P5kO^p]#a~>
[/^.+p&F[brr;Wk\c;[0p]#a~>
[/^.+P5kO^p]#a~>
[/^.+P5kO^p]#a~>
[/^.+pAaabs8V]k\c;[0p]#a~>
[/^.+P5kO^p]#a~>
ZiC%*PQ1X_p]#a~>
ZiC%*pAadcrr;Wk\c;[0p]#a~>
ZiC%*PQ1X_p]#a~>
ZN'q)PQ1X_q#>j~>
ZN'q)p]'mdrr;Zl\,ZI.q#>j~>
ZN'q)PQ1X_q#>j~>
Z2ah(PlLa`q#>j~>
Z2ah(q>^'err;Wk\GuR/q#>j~>
Z2ah(PlLa`q#>j~>
YlF_'Q2gjaq#>j~>
YlF_'q>^*frr;Zl\,ZI.q#>j~>
YlF_'Q2gjaq#>j~>
YlF_'PlLa`q>Ys~>
YlF_'q>^'es8V`l\,ZI.q>Ys~>
YlF_'PlLa`q>Ys~>
YQ+V&Q2gjaq>Ys~>
YQ+V&qZ$3grr;Zl[f?@-q>Ys~>
YQ+V&Q2gjaq>Ys~>
Y5eM%QN-sbq>Ys~>
Y5eM%qu?<hrVuQk\,ZI.q>Ys~>
Y5eM%QN-sbq>Ys~>
Y5eM%Q2gjaqYu'~>
Y5eM%qu?9gs8V`l[f?@-qYu'~>
Y5eM%Q2gjaqYu'~>
XoJD$QN-sbqYu'~>
XoJD$r;ZEirVuQk[f?@-qYu'~>
XoJD$QN-sbqYu'~>
XT/;#QiI'cqYu'~>
XT/;#rVuKirr;Zl[f?@-qYu'~>
XT/;#QiI'cqYu'~>
XT/;#QiI'cqYu'~>
XT/;#r;ZHjrVuQk[f?@-qYu'~>
XT/;#QiI'cqYu'~>
X8i2"QiI'cqu;0~>
X8i2"rr;Tjrr;Zl[K$7,qu;0~>
X8i2"QiI'cqu;0~>
X8i2"QiI'cqu;0~>
X8i2"rVuQkrVuQk[K$7,qu;0~>
X8i2"QiI'cqu;0~>
WrN)!R/d0dqu;0~>
WrN)!rr;Wkrr;Zl[K$7,qu;0~>
WrN)!R/d0dqu;0~>
WW2tuRK*9equ;0~>
WW2tu!<;Zkrr;Zl[K$7,qu;0~>
WW2tuRK*9equ;0~>
WW2tuR/d0dr;V9~>
WW2tus8V`lrr;Zl[/^.+r;V9~>
WW2tuR/d0dr;V9~>
W;lktRK*9er;V9~>
W;lkt!<;]lrVuTl[/^.+r;V9~>
W;lktRK*9er;V9~>
W;lktRK*9er;V9~>
W;lkt!<;]lrr;Zl[/^.+r;V9~>
W;lktRK*9er;V9~>
VuQbsRfEBfr;V9~>
VuQ>grVuTl[/^.+r;V9~>
VuQbsRfEBfr;V9~>
VuQbsRK*9erVqB~>
VuQ>grVuTlZiC%*rVqB~>
VuQbsRK*9erVqB~>
VZ6YrRfEBfrVqB~>
VZ68grVuTlZiC%*rVqB~>
VZ6YrRfEBfrVqB~>
VZ6YrRfEBfrVqB~>
VZ68grVuTlZiC%*rVqB~>
VZ6YrRfEBfrVqB~>
V>pPqS,`KgrVqB~>
V>p2grVuTlZiC%*rVqB~>
V>pPqS,`KgrVqB~>
V>pPqS,`KgrVqB~>
V>p2grVuWmZN'q)rVqB~>
V>pPqS,`KgrVqB~>
V>pPqRfEBfrr7K~>
V>p2grVuTlZN'q)rr7K~>
V>pPqRfEBfrr7K~>
V#UGpS,`Kgrr7K~>
V#U,grVuTlZN'q)rr7K~>
V#UGpS,`Kgrr7K~>
V#UGpS,`Kgrr7K~>
V#U,grVuWmZ2ah(rr7K~>
V#UGpS,`Kgrr7K~>
U]:>oSH&Thrr7K~>
U]:#frVuWmZN'q)rr7K~>
U]:>oSH&Thrr7K~>
U]:>oSH&Thrr7K~>
U]:&gr;ZQmZ2ah(rr7K~>
U]:>oSH&Thrr7K~>
U]:>oS,`Kgs8RT~>
U]:&gr;ZNlZ2ah(s8RT~>
U]:>oS,`Kgs8RT~>
UAt5nSH&Ths8RT~>
UAsugr;ZQmYlF_'s8RT~>
UAt5nSH&Ths8RT~>
UAt5nSH&Ths8RT~>
UAsugr;ZQmYlF_'s8RT~>
UAt5nSH&Ths8RT~>
UAt5nSH&Ths8RT~>
UAsugr;ZQmYlF_'s8RT~>
UAt5nSH&Ths8RT~>
U&Y,mScA]is8RT~>
U&Xogqu?KmYlF_'s8RT~>
U&Y,mScA]is8RT~>
U&Y,mScA]is8RT~>
U&Xogqu?NnYQ+V&s8RT~>
U&Y,mScA]is8RT~>
U&Y,mScA]is8RT~>
U&Xlfr;ZTnYlF_'s8RT~>
U&Y,mScA]is8RT~>
U&Y,mSH&Th!<7Q~>
U&Xogqu?NnY5eM%!<7Q~>
U&Y,mSH&Th!<7Q~>
T`>#lScA]i!<7Q~>
T`=igqu?NnY5eM%!<7Q~>
T`>#lScA]i!<7Q~>
T`>#lScA]i!<7Q~>
T`=igqu?NnY5eM%!<7Q~>
T`>#lScA]i!<7Q~>
T`>#lScA]i!<7Q~>
T`=igqZ$HnY5eM%!<7Q~>
T`>#lScA]i!<7Q~>
T`>#lScA]i!<7Q~>
T`=igqZ$KoXoJD$!<7Q~>
T`>#lScA]i!<7Q~>
TE"okT)\fj!<7Q~>
TE"cgq>^EoXoJD$!<7Q~>
TE"okT)\fj!<7Q~>
TE"okT)\fj!<7Q~>
TE"cgq>^HpXT/;#!<7Q~>
TE"okT)\fj!<7Q~>
TE"okT)\fj!<7Q~>
TE"cgUAt5n!<7Q~>
TE"okT)\fj!<7Q~>
TE"okT)\fj!<7Q~>
TE"fhU&Y,m!<7Q~>
TE"okT)\fj!<7Q~>
TE"okScA]iJ,~>
TE"fhT`>#lJ,~>
TE"okScA]iJ,~>
T)\fjT)\fjJ,~>
T)\]gU&Y,mJ,~>
T)\fjT)\fjJ,~>
T)\fjT)\fjJ,~>
T)\`hT`>#lJ,~>
T)\fjT)\fjJ,~>
T)\fjT)\fjJ,~>
T)\`hT`>#lJ,~>
T)\fjT)\fjJ,~>
T)\fjT)\fjJ,~>
T)\ciTE"okJ,~>
T)\fjT)\fjJ,~>
T)\fjT)\fjJ,~>
T)\ciTE"okJ,~>
T)\fjT)\fjJ,~>
T)\fjT)\fjJ,~>
T)\fjT)\fjJ,~>
T)\fjT)\fjJ,~>
T)\fjT)\fjJ,~>
T)\fjT)\fjJ,~>
T)\fjT)\fjJ,~>
ScA]iTE"okJ,~>
ScA]iTE"okJ,~>
ScA]iTE"okJ,~>
ScA]iTE"okJ,~>
ScA]iTE"okJ,~>
ScA]iTE"okJ,~>
ScA]iTE"okJ,~>
ScA]iTE"okJ,~>
ScA]iTE"okJ,~>
ScA]iTE"okJ,~>
ScA]iTE"okJ,~>
ScA]iTE"okJ,~>
ScA]iTE"okJ,~>
ScA]iTE"okJ,~>
ScA]iTE"okJ,~>
ScA]iTE"okJ,~>
ScA]iTE"okJ,~>
ScA]iTE"okJ,~>
ScA]iTE"okJ,~>
ScA]iTE"okJ,~>
ScA]iTE"okJ,~>
ScA]iTE"okJ,~>
ScA]iTE"okJ,~>
ScA]iTE"okJ,~>
ScA]iTE"okJ,~>
ScA]iTE"okJ,~>
ScA]iTE"okJ,~>
Sc>/ZJ,~>
Sc>/ZJ,~>
Sc>/ZJ,~>
SH#,[!<7Q~>
SH#,[!<7Q~>
SH#,[!<7Q~>
%%EndData
showpage
%%Trailer
end
%%EOF
