%!PS-Adobe-3.0 EPSF-3.0
%%Creator: GIMP PostScript file plugin V 1.17 by Peter Kirchgessner
%%Title: E2b_Est22_128-064_T1.eps
%%CreationDate: Tue Jul 30 14:16:57 2013
%%DocumentData: Clean7Bit
%%LanguageLevel: 2
%%Pages: 1
%%BoundingBox: 14 14 112 112
%%EndComments
%%BeginProlog
% Use own dictionary to avoid conflicts
10 dict begin
%%EndProlog
%%Page: 1 1
% Translate for offset
14.173228346456694 14.173228346456694 translate
% Translate to begin of first scanline
0 97.424807047633905 translate
96.944881889763792 -97.424807047633905 scale
% Image geometry
202 203 8
% Transformation matrix
[ 202 0 0 203 0 0 ]
% Strings to hold RGB-samples per scanline
/rstr 202 string def
/gstr 202 string def
/bstr 202 string def
{currentfile /ASCII85Decode filter /RunLengthDecode filter rstr readstring pop}
{currentfile /ASCII85Decode filter /RunLengthDecode filter gstr readstring pop}
{currentfile /ASCII85Decode filter /RunLengthDecode filter bstr readstring pop}
true 3
%%BeginData:        11492 ASCII Bytes
colorimage
!<;`mJcEXfJ,~>
!<;`mJcEXfJ,~>
!<;`mJcEXfJ,~>
kl?;7ci8L~>
kl?;7ci8L~>
kl?;7ci8L~>
rrDfnmJqh<f)L7~>
rrDfnmJqh<f)L7~>
rrDfnmJqh<f)L7~>
rrDBboDjIBh#Dm~>
rrDBboDjIBh#Dm~>
rrDBboDjIBh#Dm~>
rrD-[p&K[DiW"E~>
rrD-[p&K[DiW"E~>
rrD-[p&K[DiW"E~>
rrCpUpAfdEk5Tr~>
rrCpUpAfdEk5Tr~>
rrCpUpAfdEk5Tr~>
rrCaPp],mFlMlA~>
rrCaPp],mFlMlA~>
rrCaPp],mFlMlA~>
rrCRKq>c*HmJh\~>
rrCRKq>c*HmJh\~>
rrCRKq>c*HmJh\~>
rrCFGq>c*Hnc++~>
rrCFGq>c*Hnc++~>
rrCFGq>c*Hnc++~>
rrC=Dq>c*Ho`'F~>
rrC=Dq>c*Ho`'F~>
rrC=Dq>c*Ho`'F~>
rrC1@qZ)3Ip]#a~>
rrC1@qZ)3Ip]#a~>
rrC1@qZ)3Ip]#a~>
rrC(=qZ)3IqYu'~>
rrC(=qZ)3IqYu'~>
rrC(=qZ)3IqYu'~>
rrBt:qZ)3IrVqB~>
rrBt:qZ)3IrVqB~>
rrBt:qZ)3IrVqB~>
rrBk7qZ)3I!<7Q~>
rrBk7qZ)3I!<7Q~>
rrBk7qZ)3I!<7Q~>
rrBb4quD?KJ,~>
rrBb4quD?KJ,~>
rrBb4quD?KJ,~>
rrBY1quDHNJ,~>
rrBY1quDHNJ,~>
rrBY1quDHNJ,~>
rrBS/quDNPJ,~>
rrBS/quDNPJ,~>
rrBS/quDNPJ,~>
rrBJ,r;_]SJ,~>
rrBJ,r;_]SJ,~>
rrBJ,r;_]SJ,~>
rrBD*r;_cUJ,~>
rrBD*r;_cUJ,~>
rrBD*r;_cUJ,~>
rrB>(quDcWJ,~>
rrB>(quDcWJ,~>
rrB>(quDcWJ,~>
rrB8&quDiYJ,~>
rrB8&quDiYJ,~>
rrB8&quDiYJ,~>
rrB/#r;`#\J,~>
rrB/#r;`#\J,~>
rrB/#r;`#\J,~>
rrB)!r;`)^J,~>
rrB)!r;`)^J,~>
rrB)!r;`)^J,~>
rrB"tr;`/`J,~>
rrB"tr;`/`J,~>
rrB"tr;`/`J,~>
rrAqrrW&;bJ,~>
rrAqrrW&;bJ,~>
rrAqrrW&;bJ,~>
rrAkprW&AdJ,~>
rrB)!!!)rsrW&AdJ,~>
rrAkprW&AdJ,~>
rrAhor;`>eJ,~>
rrB)!rW)osr;`>eJ,~>
rrAhor;`>eJ,~>
rrAbmr;`DgJ,~>
rrB,"qZ-Tpr;`DgJ,~>
rrAbmr;`DgJ,~>
rrA\krW&PiJ,~>
rrBM-!!)cnq>gKor;`GhJ,~>
rrA\krW&PiJ,~>
rrAVirW&VkJ,~>
rrBV0quHQmpAb3nq>d2gJ,~>
rrAVirW&VkJ,~>
rrAShr;`SlJ,~>
rrBY1qZ-Hlm/Wm\J,~>
rrAShr;`SlJ,~>
rrAMfrW&_nJ,~>
rrBY1q#L?mlN!^[J,~>
rrAMfrW&_nJ,~>
rrAGdrW&epJ,~>
rrBY1q>gEmkl@R[J,~>
rrAGdrW&epJ,~>
rrADcrW&hqJ,~>
rrBV0q>gKok5_CZJ,~>
rrADcrW&hqJ,~>
rrA>arW&nsJ,~>
rrBV0q#LEokl:_`rW&nsJ,~>
rrA>arW&nsJ,~>
rrA;`rW&qtJ,~>
rrBV0q>gKokPtV_rW&qtJ,~>
rrA;`rW&qtJ,~>
rrA5^rW'#!J,~>
rrBY1q#L?mk5YM^rW'#!J,~>
rrA5^rW'#!J,~>
rrA2]rW'&"J,~>
rrBY1p]19mkQ(V^rW'&"J,~>
rrA2]rW'&"J,~>
rrA,[rW',$J,~>
rrBY1pAk6njoGA[rW',$J,~>
rrA,[rW',$J,~>
rrA)ZrW'/%J,~>
rrB\2pAk3mjT,8ZrW'/%J,~>
rrA)ZrW'/%J,~>
rrA#XrrB;'J,~>
rrB\2pAk3mjoG8XrrB;'J,~>
rrA#XrrB;'J,~>
rr@uWrW'8(J,~>
rrB\2p]16ljoG8XrW'8(J,~>
rr@uWrW'8(J,~>
rr@rVrW';)J,~>
rrBY1p]19mjT,/WrW';)J,~>
rr@rVrW';)J,~>
rr@lTrrBG+J,~>
rrBY1pAk6njT,&TrrBG+J,~>
rr@lTrrBG+J,~>
rr@iSrrBJ,J,~>
rrB\2pAk3mirJlSrrBJ,J,~>
rr@iSrrBJ,J,~>
rr@fRrW'G-J,~>
rrB\2pAk6niW/`QrW'G-J,~>
rr@fRrW'G-J,~>
rr@cQrW'J.J,~>
rrB_3o`5!kj8eoRrW'J.J,~>
rr@cQrW'J.J,~>
rr@]OrrBV0J,~>
rrB_3o`5$liW/ZOrrBV0J,~>
rr@]OrrBV0J,~>
rr@ZNrrBY1J,~>
rrB\2pAk3miW/WNrrBY1J,~>
rr@ZNrrBY1J,~>
rr@WMrrB\2J,~>
rrB\2pAk6niW/QLrrB\2J,~>
rr@WMrrB\2J,~>
rr@WM!<<#u^&NT~>
rrB\2p]1<niW/NKrW'Y3J,~>
rr@WM!<<#u^&NT~>
rr@WMs8W&u^Ai]~>
rrB_3p&P*liW/NKrW'\4J,~>
rr@WMs8W&u^Ai]~>
rr@WMrVult^]/f~>
rrB_3o`5$liW/HIrrBh6J,~>
rr@WMrVult^]/f~>
rr@WMr;Zcs_#Jo~>
rrB\2pAk3miW/EHrrBk7J,~>
rr@WMr;Zcs_#Jo~>
rr@WMqu?Zr_>f#~>
rrB\2pAk6nhuN3FrrBn8J,~>
rr@WMqu?Zr_>f#~>
rr@WMqZ$Qq_Z,,~>
rrB\2p]16lirJHGrrBq9J,~>
rr@WMqZ$Qq_Z,,~>
rr@WMq>^Hp_uG5~>
rrB_3pAk0liW/<ErrBt:J,~>
rr@WMq>^Hp_uG5~>
rr@WMq#C?o`;b>~>
rrBY1p]1<niW/9DrrC";J,~>
rr@WMq#C?o`;b>~>
rr@WMp](6n`W(G~>
rrBY1p]1?ohuN'BrrC%<J,~>
rr@WMp](6n`W(G~>
rr@WMpAb-m`rCP~>
rrB\2p]1<ni;icTrrDQgrrC(=J,~>
rr@WMpAb-m`rCP~>
rr@WMp&G$la8^Y~>
rrB\2pAk3mirJrUrW)HfrrC+>J,~>
rr@WMp&G$la8^Y~>
rr@WMo`+pkaT$b~>
rrBY1pAk6niW/oVquH6drrC.?J,~>
rr@WMo`+pkaT$b~>
rr@WMoDegjao?k~>
rrBY1p]1?ohuNcVqZ-*brrC1@J,~>
rr@WMoDegjao?k~>
rr@WMo)J^ib5Zt~>
rrB\2p]1<ni;ifUquH0brrC4AJ,~>
rr@WMo)J^ib5Zt~>
rr@WMnc/UhbQ!(~>
rrBY1q#L?mj8f)WqZ-'arrC7BJ,~>
rr@WMnc/UhbQ!(~>
rr@WMnGiLgbl<1~>
rrBY1q#LBniW/rWq>fp_rrC:CJ,~>
rr@WMnGiLgbl<1~>
rr@WMn,NCfc2W:~>
rrBY1p]1?oi;iiVqZ,s^rrC=DJ,~>
rr@WMn,NCfc2W:~>
rr@WMmf3:ecMrC~>
rrB\2p]1<ni;ifUquH$^rrC@EJ,~>
rr@WMmf3:ecMrC~>
rr@WMmJm1dci8L~>
rrBV0q>gKoi;iiVqZ,p]rrCCFJ,~>
rr@WMmJm1dci8L~>
rr@WMm/R(cd/SU~>
rrBY1p]1<ni;iiVquGs\rrCFGJ,~>
rr@WMm/R(cd/SU~>
rr@WMm/R(cd/SU~>
rrBY1p]1?oi;icTr;c']rrCFGJ,~>
rr@WMm/R(cd/SU~>
rr@WMli6tbdJn^~>
rrBY1q#LBniW/oVqZ,j[rrCIHJ,~>
rr@WMli6tbdJn^~>
rr@WMlMpkadf4g~>
rrBV0q>gKoi;ilWq>f^YrrCLIJ,~>
rr@WMlMpkadf4g~>
rr@WMl2Ub`e,Op~>
rrBY1q>gHniW/rWq>f[XrrCOJJ,~>
rr@WMl2Ub`e,Op~>
rr@WMkl:Y_eGk%~>
rrBS/qZ-WqiW/iTqZ,dYrrCRKJ,~>
rr@WMkl:Y_eGk%~>
rr@WMkPtP^ec1.~>
rrBV0q>gKoiW/oVqZ,^WrrCULJ,~>
rr@WMkPtP^ec1.~>
rr@WMkPtP^ec1.~>
rrBV0qZ-Qoi;ilWq#KOVrrCULJ,~>
rr@WMkPtP^ec1.~>
rr@WMk5YG]f)L7~>
rrBV0qZ-QoiW/rWq#KLUrrCXMJ,~>
rr@WMk5YG]f)L7~>
rr@WMjo>>\fDg@~>
rrBS/r;c]oiW/rWqZ,XUrrC[NJ,~>
rr@WMjo>>\fDg@~>
rr@WMjT#5[f`-I~>
rrBV0qZ-Qonc/[inGrRgq>fLSrrC^OJ,~>
rr@WMjT#5[f`-I~>
rr@WMjT#5[f`-I~>
rrBP.r;ccqnc8^io)S^gq>fOTrrC^OJ,~>
rr@WMjT#5[f`-I~>
rr@WMj8],Zg&HR~>
rrBS/r;c]oj8f)WqZ,RSrrCaPJ,~>
rr@WMj8],Zg&HR~>
rr@WMirB#YgAc[~>
rrBP.rW)iqiW/oVqZ,ORrrCdQJ,~>
rr@WMirB#YgAc[~>
rr@WMiW&oXg])d~>
rrB5%o)Sgjnc8ReqZ,ORrrCgRJ,~>
rr@WMiW&oXg])d~>
rr@WMiW&oXg])d~>
rrB5%nc/[inc8UfqZ,LQrrCgRJ,~>
rr@WMiW&oXg])d~>
rr@WMi;`fWh#Dm~>
rrB2$o)JdjnGrRgq#K:OrrCjSJ,~>
rr@WMi;`fWh#Dm~>
rr@WMhuE]Vh>`!~>
rrB5%nc8^io)Sahp]01NrrCmTJ,~>
rr@WMhuE]Vh>`!~>
rr@WMhZ*TUhZ&*~>
rrB2$iW/rWqZ,CNrrCpUJ,~>
rr@WMhZ*TUhZ&*~>
rr@WMhZ*TUhZ&*~>
rrB2$iW/uXqZ,@MrrCpUJ,~>
rr@WMhZ*TUhZ&*~>
rr@WMh>dKThuA3~>
rrB5%o)Sgjnc8UfqZ,@MrrCsVJ,~>
rr@WMh>dKThuA3~>
rr@WMh#IBSi;\<~>
rrB5%nc/[io)S[fqZ,=LrrD!WJ,~>
rr@WMh#IBSi;\<~>
rr@WMh#IBSi;\<~>
rrB2$o)Jdjnc8UfqZ,=LrrD!WJ,~>
rr@WMh#IBSi;\<~>
rr@WMg].9RiW"E~>
rrB5%o)Sdio)S[fqZ,=LrrD$XJ,~>
rr@WMg].9RiW"E~>
rr@WMgAh0Qir=N~>
rrB2$irK#WqZ,7JrrD'YJ,~>
rr@WMgAh0Qir=N~>
rr@WMgAh0Qir=N~>
rrB2$o)Sgjnc8Xgq>f1JrrD'YJ,~>
rr@WMgAh0Qir=N~>
rr@WMg&M'Pj8XW~>
rrB2$o)Sgjo)S[fqZ,7JrrD*ZJ,~>
rr@WMg&M'Pj8XW~>
rr@WMg&M'Pj8XW~>
rrB2$iW/rWqZ,4IrrD*ZJ,~>
rr@WMg&M'Pj8XW~>
rr@WMf`1sOjSs`~>
rrB2$o)Sgjo)S[fr;b@IrrD-[J,~>
rr@WMf`1sOjSs`~>
rr@WMfDkjNjo9i~>
rrB/#o`5$lnc8UfqZ,.GrrD0\J,~>
rr@WMfDkjNjo9i~>
rr@WMfDkjNjo9i~>
rrB2$iW/rWqZ,.GrrD0\J,~>
rr@WMfDkjNjo9i~>
rr@WMf)PaMk5Tr~>
rrB5%o)Sgjnc8Rer;b:GrrD3]J,~>
rr@WMf)PaMk5Tr~>
nc47@j8],Zk5Tr~>
nc69$o)JdjnGrOfqZ,+FrrD3]J,~>
nc47@j8],Zk5Tr~>
!<;EdJcFs6rrD6^J,~>
!<;Ed_#O!+!<;Qhr;Z]qdJs4HkPp&~>
!<;EdJcFs6rrD6^J,~>
o)JFaJcG'9rrD9_J,~>
o)JFa`;fE/s8VWiqu?TpdJs4Hkl6/~>
o)JFaJcG'9rrD9_J,~>
m/Qk]JcG3=rrD9_J,~>
m/Qk]aT(6"qZ$NpdJs4Hkl6/~>
m/Qk]JcG3=rrD9_J,~>
kl:JZJcG9?rrD<`J,~>
kl:JZbQ%/6s8VZjqu?Tpci="Fl2Q8~>
kl:JZJcG9?rrD<`J,~>
jT#)WJcGBBrrD<`J,~>
jT#)Wc2[D9!<;Qhqu?ZrcN!nEl2Q8~>
jT#)WJcGBBrrD<`J,~>
iW&fUJcGECrrD?aJ,~>
iW&fUd/W)*qu?WqcN!nElMlA~>
iW&fUJcGECrrD?aJ,~>
hZ*KRJcGNFrrD?aJ,~>
hZ*KRdf8>-qu?Zrc2[eDlMlA~>
hZ*KRJcGNFrrD?aJ,~>
h#I9PJcGQGrrDBbJ,~>
h#I9Pe,SJ/qu6WrbQ%SBli2J~>
h#I9PJcGQGrrDBbJ,~>
g&M!NJcGWIrrDBbJ,~>
g&M!Nf)Oe2_uK`:li2J~>
g&M!NJcGWIrrDBbJ,~>
fDkdLJcGZJrrDEcJ,~>
fDkdLfDjn3_uK`:m/MS~>
fDkdLJcGZJrrDEcJ,~>
ec5RJJcG`LrrDEcJ,~>
ec5RJg&L+5_uK`:m/MS~>
ec5RJJcG`LrrDEcJ,~>
e,T@HJcGcMrrDHdJ,~>
e,T@Hh#HC7_Z0W9mJh\~>
e,T@HJcGcMrrDHdJ,~>
dJs.FJcG`MmJh\~>
dJs.Fh>cO9_Z0W9mJh\~>
dJs.FJcG`MmJh\~>
ci<tEJcG`Mmf.e~>
ci<tEhuDa;_#OE7mf.e~>
ci<tEJcG`Mmf.e~>
c2[bCKE(rOmf.e~>
c2[bCi;_j<_>jN8mf.e~>
c2[bCKE(rOmf.e~>
bl@VAK`D&Pn,In~>
bl@VAj8\0?^]4<6n,In~>
bl@VAK`D&Pn,In~>
b5_G@L&_/Qn,In~>
b5_G@j8\3@^]4<6n,In~>
b5_G@L&_/Qn,In~>
aT)8?L&_/QnGe"~>
aT)8?j8\3@^]4<6nGe"~>
aT)8?L&_/QnGe"~>
a8c,=L]@ASnGe"~>
a8c,=jo=BA_#OE7nGe"~>
a8c,=L]@ASnGe"~>
`rH#<L]@ASnc++~>
`rH#<k5XNC^An35nc++~>
`rH#<L]@ASnc++~>
`;fi;M#[JTnc++~>
`;fi;kPsWD^An35nc++~>
`;fi;M#[JTnc++~>
_uK]9MZ<\Vnc++~>
_uK]9lMooF^An35nc++~>
_uK]9MZ<\Vnc++~>
_Z0T8MZ<\Vo)F4~>
_Z0T8lMorG^&S*4o)F4~>
_Z0T8MZ<\Vo)F4~>
_#OE7MuWeWo)F4~>
_#OE7lMouH^&S*4o)F4~>
_#OE7MuWeWo)F4~>
^]4<6MuWeWoDa=~>
^]4<6m/Q2J]Dqm2oDa=~>
^]4<6MuWeWoDa=~>
^An35N;rnXoDa=~>
^An35m/Q\X!<;Zk]`8!3oDa=~>
^An35N;rnXoDa=~>
^&S*4NW9"YoDa=~>
^&S*4mf2nZs8VZj^&S*4oDa=~>
^&S*4NW9"YoDa=~>
]`8!3NW9"Yo`'F~>
]`8!3n,MGK]`8!3o`'F~>
]`8!3NW9"Yo`'F~>
]Dqm2NrT+Zo`'F~>
]Dqm2n,N%\s8V]k]Dqm2o`'F~>
]Dqm2NrT+Zo`'F~>
])Vd1NrT+Zp&BO~>
])Vd1nGi+\s8V]k]Dqm2p&BO~>
])Vd1NrT+Zp&BO~>
\c;[0O8o4[p&BO~>
\c;[0nc/4]s8V]k]Dqm2p&BO~>
\c;[0O8o4[p&BO~>
\GuR/OT5=\p&BO~>
\GuR/nc/:_rr;Tj]Dqm2p&BO~>
\GuR/OT5=\p&BO~>
\,ZI.OT5=\pA]X~>
\,ZI.oDeF_s8V`l\c;[0pA]X~>
\,ZI.OT5=\pA]X~>
[f?@-OoPF]pA]X~>
[f?@-o`+O`s8V]k])Vd1pA]X~>
[f?@-OoPF]pA]X~>
[K$7,P5kO^pA]X~>
[K$7,p&FXarr;Zl\c;[0pA]X~>
[K$7,P5kO^pA]X~>
[/^.+P5kO^p]#a~>
[/^.+pAaabs8V`l\GuR/p]#a~>
[/^.+P5kO^p]#a~>
[/^.+P5kO^p]#a~>
[/^.+pAaabs8V]k\c;[0p]#a~>
[/^.+P5kO^p]#a~>
ZiC%*PQ1X_p]#a~>
ZiC%*pAagdrVuNj\c;[0p]#a~>
ZiC%*PQ1X_p]#a~>
ZN'q)PQ1X_q#>j~>
ZN'q)q#Bsdrr;Zl\,ZI.q#>j~>
ZN'q)PQ1X_q#>j~>
Z2ah(PlLa`q#>j~>
Z2ah(q>^'es8V]k\GuR/q#>j~>
Z2ah(PlLa`q#>j~>
YlF_'Q2gjaq#>j~>
YlF_'q>^-grVuNj\GuR/q#>j~>
YlF_'Q2gjaq#>j~>
YlF_'PlLa`q>Ys~>
YlF_'qZ$0frr;Zl[f?@-q>Ys~>
YlF_'PlLa`q>Ys~>
YQ+V&Q2gjaq>Ys~>
YQ+V&qZ$3grVuTl[f?@-q>Ys~>
YQ+V&Q2gjaq>Ys~>
Y5eM%QN-sbq>Ys~>
Y5eM%qu?<hrr;Wk\,ZI.q>Ys~>
Y5eM%QN-sbq>Ys~>
Y5eM%Q2gjaqYu'~>
Y5eM%qZ$6hrr;Wk[f?@-qYu'~>
Y5eM%Q2gjaqYu'~>
XoJD$QN-sbqYu'~>
XoJD$r;ZEirVuTl[K$7,qYu'~>
XoJD$QN-sbqYu'~>
XT/;#QiI'cqYu'~>
XT/;#rVuKirr;Zl[f?@-qYu'~>
XT/;#QiI'cqYu'~>
XT/;#QiI'cqYu'~>
XT/;#r;ZEis8V`l[f?@-qYu'~>
XT/;#QiI'cqYu'~>
X8i2"QiI'cqu;0~>
X8i2"rr;Wkrr;Zl[/^.+qu;0~>
X8i2"QiI'cqu;0~>
X8i2"QiI'cqu;0~>
X8i2"rr;WkrVuTl[/^.+qu;0~>
X8i2"QiI'cqu;0~>
WrN)!R/d0dqu;0~>
WrN)!rr;Wkrr;Zl[K$7,qu;0~>
WrN)!R/d0dqu;0~>
WW2tuRK*9equ;0~>
WW2tus8VcmrVuQk[K$7,qu;0~>
WW2tuRK*9equ;0~>
WW2tuR/d0dr;V9~>
WW2tus8VcmrVuQk[/^.+r;V9~>
WW2tuR/d0dr;V9~>
W;lktRK*9er;V9~>
W;lDgrr;Zl[/^.+r;V9~>
W;lktRK*9er;V9~>
W;lktRK*9er;V9~>
W;lkt!<;]lrr;Zl[/^.+r;V9~>
W;lktRK*9er;V9~>
VuQbsRfEBfr;V9~>
VuQ>grVuTl[/^.+r;V9~>
VuQbsRfEBfr;V9~>
VuQbsRK*9erVqB~>
VuQbs!<;cnr;ZKkZiC%*rVqB~>
VuQbsRK*9erVqB~>
VZ6YrRfEBfrVqB~>
VZ68grVuWmZN'q)rVqB~>
VZ6YrRfEBfrVqB~>
VZ6YrRfEBfrVqB~>
VZ68grr;]mZN'q)rVqB~>
VZ6YrRfEBfrVqB~>
V>pPqS,`KgrVqB~>
V>p2grVuTlZiC%*rVqB~>
V>pPqS,`KgrVqB~>
V>pPqS,`KgrVqB~>
V>p/frr;]mZiC%*rVqB~>
V>pPqS,`KgrVqB~>
V>pPqRfEBfrr7K~>
V>p/frr;]mZN'q)rr7K~>
V>pPqRfEBfrr7K~>
V#UGpS,`Kgrr7K~>
V#U,gr;ZQmZ2ah(rr7K~>
V#UGpS,`Kgrr7K~>
V#UGpS,`Kgrr7K~>
V#U,gr;ZQmZ2ah(rr7K~>
V#UGpS,`Kgrr7K~>
U]:>oSH&Thrr7K~>
U]:#frVuWmZN'q)rr7K~>
U]:>oSH&Thrr7K~>
U]:>oSH&Thrr7K~>
U]:#frr;]mZN'q)rr7K~>
U]:>oSH&Thrr7K~>
U]:>oS,`Kgs8RT~>
U]:&gr;ZQmYlF_'s8RT~>
U]:>oS,`Kgs8RT~>
UAt5nSH&Ths8RT~>
UAsugr;ZQmYlF_'s8RT~>
UAt5nSH&Ths8RT~>
UAt5nSH&Ths8RT~>
UAsugr;ZQmYlF_'s8RT~>
UAt5nSH&Ths8RT~>
UAt5nSH&Ths8RT~>
UAsugr;ZQmYlF_'s8RT~>
UAt5nSH&Ths8RT~>
U&Y,mScA]is8RT~>
U&Xlfr;ZWoYQ+V&s8RT~>
U&Y,mScA]is8RT~>
U&Y,mScA]is8RT~>
U&Xogqu?NnYQ+V&s8RT~>
U&Y,mScA]is8RT~>
U&Y,mScA]is8RT~>
U&Xogqu?KmYlF_'s8RT~>
U&Y,mScA]is8RT~>
U&Y,mSH&Th!<7Q~>
U&Xogqu?KmYQ+V&!<7Q~>
U&Y,mSH&Th!<7Q~>
T`>#lScA]i!<7Q~>
T`=igqZ$KoXoJD$!<7Q~>
T`>#lScA]i!<7Q~>
T`>#lScA]i!<7Q~>
T`=igqZ$HnY5eM%!<7Q~>
T`>#lScA]i!<7Q~>
T`>#lScA]i!<7Q~>
T`=ffqu?QoY5eM%!<7Q~>
T`>#lScA]i!<7Q~>
T`>#lScA]i!<7Q~>
T`=ffqu?TpXoJD$!<7Q~>
T`>#lScA]i!<7Q~>
TE"okT)\fj!<7Q~>
TE"cgq>^EoXoJD$!<7Q~>
TE"okT)\fj!<7Q~>
TE"okT)\fj!<7Q~>
TE"cgUAt5n!<7Q~>
TE"okT)\fj!<7Q~>
TE"okT)\fj!<7Q~>
TE"cgUAt5n!<7Q~>
TE"okT)\fj!<7Q~>
TE"okT)\fj!<7Q~>
TE"cgUAt5n!<7Q~>
TE"okT)\fj!<7Q~>
TE"okScA]iJ,~>
TE"fhT`>#lJ,~>
TE"okScA]iJ,~>
T)\fjT)\fjJ,~>
T)\`hT`>#lJ,~>
T)\fjT)\fjJ,~>
T)\fjT)\fjJ,~>
T)\`hT`>#lJ,~>
T)\fjT)\fjJ,~>
T)\fjT)\fjJ,~>
T)\`hT`>#lJ,~>
T)\fjT)\fjJ,~>
T)\fjT)\fjJ,~>
T)\ciTE"okJ,~>
T)\fjT)\fjJ,~>
T)\fjT)\fjJ,~>
T)\ciTE"okJ,~>
T)\fjT)\fjJ,~>
T)\fjT)\fjJ,~>
T)\fjT)\fjJ,~>
T)\fjT)\fjJ,~>
T)\fjT)\fjJ,~>
T)\fjT)\fjJ,~>
T)\fjT)\fjJ,~>
ScA]iTE"okJ,~>
ScA]iTE"okJ,~>
ScA]iTE"okJ,~>
ScA]iTE"okJ,~>
ScA]iTE"okJ,~>
ScA]iTE"okJ,~>
ScA]iTE"okJ,~>
ScA]iTE"okJ,~>
ScA]iTE"okJ,~>
ScA]iTE"okJ,~>
ScA]iTE"okJ,~>
ScA]iTE"okJ,~>
ScA]iTE"okJ,~>
ScA]iTE"okJ,~>
ScA]iTE"okJ,~>
ScA]iTE"okJ,~>
ScA]iTE"okJ,~>
ScA]iTE"okJ,~>
ScA]iTE"okJ,~>
ScA]iTE"okJ,~>
ScA]iTE"okJ,~>
ScA]iTE"okJ,~>
ScA]iTE"okJ,~>
ScA]iTE"okJ,~>
ScA]iTE"okJ,~>
ScA]iTE"okJ,~>
ScA]iTE"okJ,~>
Sc>/ZJ,~>
Sc>/ZJ,~>
Sc>/ZJ,~>
SH#,[!<7Q~>
SH#,[!<7Q~>
SH#,[!<7Q~>
%%EndData
showpage
%%Trailer
end
%%EOF
